{
       "functional_units": [
              {
                     "input_nodes": [
                            {
                                   "object_id": 84,
                                   "object_label": "carrot",
                                   "object_states": [
                                          {
                                                 "state_id": 262,
                                                 "state_label": "whole"
                                          }
                                   ],
                                   "ingredients": [],
                                   "object_in_motion": "0",
                                   "has_portions": "False"
                            },
                            {
                                   "object_id": 395,
                                   "object_label": "peeler",
                                   "object_states": [
                                          {
                                                 "state_id": 23,
                                                 "state_label": "clean"
                                          }
                                   ],
                                   "ingredients": [],
                                   "object_in_motion": "1",
                                   "has_portions": "False"
                            }
                     ],
                     "motion_node": {
                            "motion_id": "37",
                            "motion_label": "peel",
                            "start_time": "Assumed",
                            "end_time": "Assumed",
                            "weight_success": 0.0
                     },
                     "output_nodes": [
                            {
                                   "object_id": 84,
                                   "object_label": "carrot",
                                   "object_states": [
                                          {
                                                 "state_id": 217,
                                                 "state_label": "peeled"
                                          }
                                   ],
                                   "ingredients": [],
                                   "object_in_motion": "0",
                                   "has_portions": "False"
                            },
                            {
                                   "object_id": 395,
                                   "object_label": "peeler",
                                   "object_states": [
                                          {
                                                 "state_id": 45,
                                                 "state_label": "dirty"
                                          }
                                   ],
                                   "ingredients": [],
                                   "object_in_motion": "1",
                                   "has_portions": "False"
                            }
                     ]
              },
              {
                     "input_nodes": [
                            {
                                   "object_id": 51,
                                   "object_label": "bowl",
                                   "object_states": [
                                          {
                                                 "state_id": 54,
                                                 "state_label": "empty"
                                          }
                                   ],
                                   "ingredients": [],
                                   "object_in_motion": "0",
                                   "has_portions": "False"
                            },
                            {
                                   "object_id": 84,
                                   "object_label": "carrot",
                                   "object_states": [
                                          {
                                                 "state_id": 217,
                                                 "state_label": "peeled"
                                          }
                                   ],
                                   "ingredients": [],
                                   "object_in_motion": "1",
                                   "has_portions": "False"
                            },
                            {
                                   "object_id": 248,
                                   "object_label": "grater",
                                   "object_states": [
                                          {
                                                 "state_id": 23,
                                                 "state_label": "clean"
                                          }
                                   ],
                                   "ingredients": [],
                                   "object_in_motion": "1",
                                   "has_portions": "False"
                            }
                     ],
                     "motion_node": {
                            "motion_id": "28",
                            "motion_label": "grate",
                            "start_time": "Assumed",
                            "end_time": "Assumed",
                            "weight_success": 0.0
                     },
                     "output_nodes": [
                            {
                                   "object_id": 51,
                                   "object_label": "bowl",
                                   "object_states": [
                                          {
                                                 "state_id": 139,
                                                 "state_label": "ingredients inside"
                                          }
                                   ],
                                   "ingredients": [
                                          "carrot"
                                   ],
                                   "object_in_motion": "0",
                                   "has_portions": "False"
                            },
                            {
                                   "object_id": 84,
                                   "object_label": "carrot",
                                   "object_states": [
                                          {
                                                 "state_id": 68,
                                                 "state_label": "grated"
                                          },
                                          {
                                                 "state_id": 84,
                                                 "state_label": "in bowl"
                                          }
                                   ],
                                   "ingredients": [],
                                   "object_in_motion": "0",
                                   "has_portions": "False"
                            }
                     ]
              },
              {
                     "input_nodes": [
                            {
                                   "object_id": 51,
                                   "object_label": "bowl",
                                   "object_states": [
                                          {
                                                 "state_id": 139,
                                                 "state_label": "ingredients inside"
                                          }
                                   ],
                                   "ingredients": [
                                          "carrot"
                                   ],
                                   "object_in_motion": "0",
                                   "has_portions": "False"
                            },
                            {
                                   "object_id": 84,
                                   "object_label": "carrot",
                                   "object_states": [
                                          {
                                                 "state_id": 68,
                                                 "state_label": "grated"
                                          },
                                          {
                                                 "state_id": 84,
                                                 "state_label": "in bowl"
                                          }
                                   ],
                                   "ingredients": [],
                                   "object_in_motion": "0",
                                   "has_portions": "False"
                            },
                            {
                                   "object_id": 334,
                                   "object_label": "measuring cup",
                                   "object_states": [
                                          {
                                                 "state_id": 54,
                                                 "state_label": "empty"
                                          }
                                   ],
                                   "ingredients": [],
                                   "object_in_motion": "1",
                                   "has_portions": "False"
                            }
                     ],
                     "motion_node": {
                            "motion_id": "50",
                            "motion_label": "scoop",
                            "start_time": "Assumed",
                            "end_time": "Assumed",
                            "weight_success": 0.0
                     },
                     "output_nodes": [
                            {
                                   "object_id": 334,
                                   "object_label": "measuring cup",
                                   "object_states": [
                                          {
                                                 "state_id": 139,
                                                 "state_label": "ingredients inside"
                                          }
                                   ],
                                   "ingredients": [
                                          "carrot"
                                   ],
                                   "object_in_motion": "1",
                                   "has_portions": "False"
                            },
                            {
                                   "object_id": 84,
                                   "object_label": "carrot",
                                   "object_states": [
                                          {
                                                 "state_id": 68,
                                                 "state_label": "grated"
                                          },
                                          {
                                                 "state_id": 103,
                                                 "state_label": "in measuring cup"
                                          }
                                   ],
                                   "ingredients": [],
                                   "object_in_motion": "0",
                                   "has_portions": "False"
                            }
                     ]
              },
              {
                     "input_nodes": [
                            {
                                   "object_id": 51,
                                   "object_label": "bowl",
                                   "object_states": [
                                          {
                                                 "state_id": 54,
                                                 "state_label": "empty"
                                          }
                                   ],
                                   "ingredients": [],
                                   "object_in_motion": "0",
                                   "has_portions": "False"
                            },
                            {
                                   "object_id": 334,
                                   "object_label": "measuring cup",
                                   "object_states": [
                                          {
                                                 "state_id": 139,
                                                 "state_label": "ingredients inside"
                                          }
                                   ],
                                   "ingredients": [
                                          "carrot"
                                   ],
                                   "object_in_motion": "1",
                                   "has_portions": "False"
                            },
                            {
                                   "object_id": 84,
                                   "object_label": "carrot",
                                   "object_states": [
                                          {
                                                 "state_id": 68,
                                                 "state_label": "grated"
                                          },
                                          {
                                                 "state_id": 103,
                                                 "state_label": "in measuring cup"
                                          }
                                   ],
                                   "ingredients": [],
                                   "object_in_motion": "1",
                                   "has_portions": "False"
                            }
                     ],
                     "motion_node": {
                            "motion_id": "40",
                            "motion_label": "pour",
                            "start_time": "0:03",
                            "end_time": "0:05",
                            "weight_success": 0.0
                     },
                     "output_nodes": [
                            {
                                   "object_id": 51,
                                   "object_label": "bowl",
                                   "object_states": [
                                          {
                                                 "state_id": 139,
                                                 "state_label": "ingredients inside"
                                          }
                                   ],
                                   "ingredients": [
                                          "carrot"
                                   ],
                                   "object_in_motion": "0",
                                   "has_portions": "False"
                            },
                            {
                                   "object_id": 84,
                                   "object_label": "carrot",
                                   "object_states": [
                                          {
                                                 "state_id": 68,
                                                 "state_label": "grated"
                                          },
                                          {
                                                 "state_id": 84,
                                                 "state_label": "in bowl"
                                          }
                                   ],
                                   "ingredients": [],
                                   "object_in_motion": "0",
                                   "has_portions": "False"
                            }
                     ]
              },
              {
                     "input_nodes": [
                            {
                                   "object_id": 48,
                                   "object_label": "bottle",
                                   "object_states": [
                                          {
                                                 "state_id": 139,
                                                 "state_label": "ingredients inside"
                                          }
                                   ],
                                   "ingredients": [
                                          "lemon juice"
                                   ],
                                   "object_in_motion": "1",
                                   "has_portions": "False"
                            },
                            {
                                   "object_id": 303,
                                   "object_label": "lemon juice",
                                   "object_states": [
                                          {
                                                 "state_id": 83,
                                                 "state_label": "in bottle"
                                          }
                                   ],
                                   "ingredients": [],
                                   "object_in_motion": "1",
                                   "has_portions": "False"
                            },
                            {
                                   "object_id": 51,
                                   "object_label": "bowl",
                                   "object_states": [
                                          {
                                                 "state_id": 54,
                                                 "state_label": "empty"
                                          }
                                   ],
                                   "ingredients": [],
                                   "object_in_motion": "0",
                                   "has_portions": "False"
                            }
                     ],
                     "motion_node": {
                            "motion_id": "40",
                            "motion_label": "pour",
                            "start_time": "Assumed",
                            "end_time": "Assumed",
                            "weight_success": 0.0
                     },
                     "output_nodes": [
                            {
                                   "object_id": 51,
                                   "object_label": "bowl",
                                   "object_states": [
                                          {
                                                 "state_id": 139,
                                                 "state_label": "ingredients inside"
                                          }
                                   ],
                                   "ingredients": [
                                          "lemon juice"
                                   ],
                                   "object_in_motion": "0",
                                   "has_portions": "False"
                            },
                            {
                                   "object_id": 303,
                                   "object_label": "lemon juice",
                                   "object_states": [
                                          {
                                                 "state_id": 84,
                                                 "state_label": "in bowl"
                                          }
                                   ],
                                   "ingredients": [],
                                   "object_in_motion": "1",
                                   "has_portions": "False"
                            }
                     ]
              },
              {
                     "input_nodes": [
                            {
                                   "object_id": 51,
                                   "object_label": "bowl",
                                   "object_states": [
                                          {
                                                 "state_id": 139,
                                                 "state_label": "ingredients inside"
                                          }
                                   ],
                                   "ingredients": [
                                          "carrot"
                                   ],
                                   "object_in_motion": "0",
                                   "has_portions": "False"
                            },
                            {
                                   "object_id": 51,
                                   "object_label": "bowl",
                                   "object_states": [
                                          {
                                                 "state_id": 139,
                                                 "state_label": "ingredients inside"
                                          }
                                   ],
                                   "ingredients": [
                                          "lemon juice"
                                   ],
                                   "object_in_motion": "1",
                                   "has_portions": "False"
                            },
                            {
                                   "object_id": 303,
                                   "object_label": "lemon juice",
                                   "object_states": [
                                          {
                                                 "state_id": 84,
                                                 "state_label": "in bowl"
                                          }
                                   ],
                                   "ingredients": [],
                                   "object_in_motion": "1",
                                   "has_portions": "False"
                            }
                     ],
                     "motion_node": {
                            "motion_id": "40",
                            "motion_label": "pour",
                            "start_time": "0:09:50",
                            "end_time": "0:11:50",
                            "weight_success": 0.0
                     },
                     "output_nodes": [
                            {
                                   "object_id": 51,
                                   "object_label": "bowl",
                                   "object_states": [
                                          {
                                                 "state_id": 139,
                                                 "state_label": "ingredients inside"
                                          }
                                   ],
                                   "ingredients": [
                                          "carrot",
                                          "lemon juice"
                                   ],
                                   "object_in_motion": "0",
                                   "has_portions": "False"
                            }
                     ]
              },
              {
                     "input_nodes": [
                            {
                                   "object_id": 51,
                                   "object_label": "bowl",
                                   "object_states": [
                                          {
                                                 "state_id": 139,
                                                 "state_label": "ingredients inside"
                                          }
                                   ],
                                   "ingredients": [
                                          "carrot",
                                          "lemon juice"
                                   ],
                                   "object_in_motion": "0",
                                   "has_portions": "False"
                            },
                            {
                                   "object_id": 507,
                                   "object_label": "spoon",
                                   "object_states": [
                                          {
                                                 "state_id": 23,
                                                 "state_label": "clean"
                                          }
                                   ],
                                   "ingredients": [],
                                   "object_in_motion": "1",
                                   "has_portions": "False"
                            }
                     ],
                     "motion_node": {
                            "motion_id": "35",
                            "motion_label": "mix",
                            "start_time": "0:15",
                            "end_time": "0:23",
                            "weight_success": 0.0
                     },
                     "output_nodes": [
                            {
                                   "object_id": 51,
                                   "object_label": "bowl",
                                   "object_states": [
                                          {
                                                 "state_id": 143,
                                                 "state_label": "ingredients mixed inside"
                                          }
                                   ],
                                   "ingredients": [
                                          "carrot",
                                          "lemon juice"
                                   ],
                                   "object_in_motion": "0",
                                   "has_portions": "False"
                            }
                     ]
              },
              {
                     "input_nodes": [
                            {
                                   "object_id": 51,
                                   "object_label": "bowl",
                                   "object_states": [
                                          {
                                                 "state_id": 54,
                                                 "state_label": "empty"
                                          }
                                   ],
                                   "ingredients": [],
                                   "object_in_motion": "0",
                                   "has_portions": "False"
                            },
                            {
                                   "object_id": 283,
                                   "object_label": "jar",
                                   "object_states": [
                                          {
                                                 "state_id": 139,
                                                 "state_label": "ingredients inside"
                                          }
                                   ],
                                   "ingredients": [
                                          "mayonnaise"
                                   ],
                                   "object_in_motion": "0",
                                   "has_portions": "False"
                            },
                            {
                                   "object_id": 332,
                                   "object_label": "mayonnaise",
                                   "object_states": [
                                          {
                                                 "state_id": 99,
                                                 "state_label": "in jar"
                                          }
                                   ],
                                   "ingredients": [],
                                   "object_in_motion": "1",
                                   "has_portions": "False"
                            },
                            {
                                   "object_id": 507,
                                   "object_label": "spoon",
                                   "object_states": [
                                          {
                                                 "state_id": 23,
                                                 "state_label": "clean"
                                          }
                                   ],
                                   "ingredients": [],
                                   "object_in_motion": "1",
                                   "has_portions": "False"
                            }
                     ],
                     "motion_node": {
                            "motion_id": "51",
                            "motion_label": "scoop and pour",
                            "start_time": "Assumed",
                            "end_time": "Assumed",
                            "weight_success": 0.0
                     },
                     "output_nodes": [
                            {
                                   "object_id": 51,
                                   "object_label": "bowl",
                                   "object_states": [
                                          {
                                                 "state_id": 139,
                                                 "state_label": "ingredients inside"
                                          }
                                   ],
                                   "ingredients": [
                                          "mayonnaise"
                                   ],
                                   "object_in_motion": "0",
                                   "has_portions": "False"
                            },
                            {
                                   "object_id": 332,
                                   "object_label": "mayonnaise",
                                   "object_states": [
                                          {
                                                 "state_id": 84,
                                                 "state_label": "in bowl"
                                          }
                                   ],
                                   "ingredients": [],
                                   "object_in_motion": "0",
                                   "has_portions": "False"
                            }
                     ]
              },
              {
                     "input_nodes": [
                            {
                                   "object_id": 51,
                                   "object_label": "bowl",
                                   "object_states": [
                                          {
                                                 "state_id": 54,
                                                 "state_label": "empty"
                                          }
                                   ],
                                   "ingredients": [],
                                   "object_in_motion": "0",
                                   "has_portions": "False"
                            },
                            {
                                   "object_id": 283,
                                   "object_label": "jar",
                                   "object_states": [
                                          {
                                                 "state_id": 139,
                                                 "state_label": "ingredients inside"
                                          }
                                   ],
                                   "ingredients": [
                                          "sour cream"
                                   ],
                                   "object_in_motion": "0",
                                   "has_portions": "False"
                            },
                            {
                                   "object_id": 495,
                                   "object_label": "sour cream",
                                   "object_states": [
                                          {
                                                 "state_id": 99,
                                                 "state_label": "in jar"
                                          }
                                   ],
                                   "ingredients": [],
                                   "object_in_motion": "1",
                                   "has_portions": "False"
                            },
                            {
                                   "object_id": 507,
                                   "object_label": "spoon",
                                   "object_states": [
                                          {
                                                 "state_id": 23,
                                                 "state_label": "clean"
                                          }
                                   ],
                                   "ingredients": [],
                                   "object_in_motion": "1",
                                   "has_portions": "False"
                            }
                     ],
                     "motion_node": {
                            "motion_id": "51",
                            "motion_label": "scoop and pour",
                            "start_time": "Assumed",
                            "end_time": "Assumed",
                            "weight_success": 0.0
                     },
                     "output_nodes": [
                            {
                                   "object_id": 51,
                                   "object_label": "bowl",
                                   "object_states": [
                                          {
                                                 "state_id": 139,
                                                 "state_label": "ingredients inside"
                                          }
                                   ],
                                   "ingredients": [
                                          "sour cream"
                                   ],
                                   "object_in_motion": "0",
                                   "has_portions": "False"
                            },
                            {
                                   "object_id": 495,
                                   "object_label": "sour cream",
                                   "object_states": [
                                          {
                                                 "state_id": 84,
                                                 "state_label": "in bowl"
                                          }
                                   ],
                                   "ingredients": [],
                                   "object_in_motion": "1",
                                   "has_portions": "False"
                            }
                     ]
              },
              {
                     "input_nodes": [
                            {
                                   "object_id": 51,
                                   "object_label": "bowl",
                                   "object_states": [
                                          {
                                                 "state_id": 139,
                                                 "state_label": "ingredients inside"
                                          }
                                   ],
                                   "ingredients": [
                                          "mayonnaise"
                                   ],
                                   "object_in_motion": "0",
                                   "has_portions": "False"
                            },
                            {
                                   "object_id": 332,
                                   "object_label": "mayonnaise",
                                   "object_states": [
                                          {
                                                 "state_id": 84,
                                                 "state_label": "in bowl"
                                          }
                                   ],
                                   "ingredients": [],
                                   "object_in_motion": "0",
                                   "has_portions": "False"
                            },
                            {
                                   "object_id": 507,
                                   "object_label": "spoon",
                                   "object_states": [
                                          {
                                                 "state_id": 23,
                                                 "state_label": "clean"
                                          }
                                   ],
                                   "ingredients": [],
                                   "object_in_motion": "1",
                                   "has_portions": "False"
                            }
                     ],
                     "motion_node": {
                            "motion_id": "40",
                            "motion_label": "pour",
                            "start_time": "0:37",
                            "end_time": "0:40",
                            "weight_success": 0.0
                     },
                     "output_nodes": [
                            {
                                   "object_id": 51,
                                   "object_label": "bowl",
                                   "object_states": [
                                          {
                                                 "state_id": 139,
                                                 "state_label": "ingredients inside"
                                          }
                                   ],
                                   "ingredients": [
                                          "mayonnaise"
                                   ],
                                   "object_in_motion": "0",
                                   "has_portions": "False"
                            }
                     ]
              },
              {
                     "input_nodes": [
                            {
                                   "object_id": 51,
                                   "object_label": "bowl",
                                   "object_states": [
                                          {
                                                 "state_id": 139,
                                                 "state_label": "ingredients inside"
                                          }
                                   ],
                                   "ingredients": [
                                          "sour cream"
                                   ],
                                   "object_in_motion": "1",
                                   "has_portions": "False"
                            },
                            {
                                   "object_id": 495,
                                   "object_label": "sour cream",
                                   "object_states": [
                                          {
                                                 "state_id": 84,
                                                 "state_label": "in bowl"
                                          }
                                   ],
                                   "ingredients": [],
                                   "object_in_motion": "1",
                                   "has_portions": "False"
                            },
                            {
                                   "object_id": 51,
                                   "object_label": "bowl",
                                   "object_states": [
                                          {
                                                 "state_id": 139,
                                                 "state_label": "ingredients inside"
                                          }
                                   ],
                                   "ingredients": [
                                          "mayonnaise"
                                   ],
                                   "object_in_motion": "0",
                                   "has_portions": "False"
                            },
                            {
                                   "object_id": 507,
                                   "object_label": "spoon",
                                   "object_states": [
                                          {
                                                 "state_id": 23,
                                                 "state_label": "clean"
                                          }
                                   ],
                                   "ingredients": [],
                                   "object_in_motion": "1",
                                   "has_portions": "False"
                            }
                     ],
                     "motion_node": {
                            "motion_id": "40",
                            "motion_label": "pour",
                            "start_time": "0:42",
                            "end_time": "0:46",
                            "weight_success": 0.0
                     },
                     "output_nodes": [
                            {
                                   "object_id": 51,
                                   "object_label": "bowl",
                                   "object_states": [
                                          {
                                                 "state_id": 139,
                                                 "state_label": "ingredients inside"
                                          }
                                   ],
                                   "ingredients": [
                                          "mayonnaise",
                                          "sour cream"
                                   ],
                                   "object_in_motion": "0",
                                   "has_portions": "False"
                            }
                     ]
              },
              {
                     "input_nodes": [
                            {
                                   "object_id": 51,
                                   "object_label": "bowl",
                                   "object_states": [
                                          {
                                                 "state_id": 54,
                                                 "state_label": "empty"
                                          }
                                   ],
                                   "ingredients": [],
                                   "object_in_motion": "0",
                                   "has_portions": "False"
                            },
                            {
                                   "object_id": 11,
                                   "object_label": "bag",
                                   "object_states": [
                                          {
                                                 "state_id": 139,
                                                 "state_label": "ingredients inside"
                                          }
                                   ],
                                   "ingredients": [
                                          "sugar"
                                   ],
                                   "object_in_motion": "1",
                                   "has_portions": "False"
                            },
                            {
                                   "object_id": 519,
                                   "object_label": "sugar",
                                   "object_states": [
                                          {
                                                 "state_id": 67,
                                                 "state_label": "granulated"
                                          },
                                          {
                                                 "state_id": 77,
                                                 "state_label": "in bag"
                                          }
                                   ],
                                   "ingredients": [],
                                   "object_in_motion": "1",
                                   "has_portions": "False"
                            }
                     ],
                     "motion_node": {
                            "motion_id": "40",
                            "motion_label": "pour",
                            "start_time": "Assumed",
                            "end_time": "Assumed",
                            "weight_success": 0.0
                     },
                     "output_nodes": [
                            {
                                   "object_id": 51,
                                   "object_label": "bowl",
                                   "object_states": [
                                          {
                                                 "state_id": 139,
                                                 "state_label": "ingredients inside"
                                          }
                                   ],
                                   "ingredients": [
                                          "sugar"
                                   ],
                                   "object_in_motion": "0",
                                   "has_portions": "False"
                            },
                            {
                                   "object_id": 519,
                                   "object_label": "sugar",
                                   "object_states": [
                                          {
                                                 "state_id": 67,
                                                 "state_label": "granulated"
                                          },
                                          {
                                                 "state_id": 84,
                                                 "state_label": "in bowl"
                                          }
                                   ],
                                   "ingredients": [],
                                   "object_in_motion": "1",
                                   "has_portions": "False"
                            }
                     ]
              },
              {
                     "input_nodes": [
                            {
                                   "object_id": 51,
                                   "object_label": "bowl",
                                   "object_states": [
                                          {
                                                 "state_id": 139,
                                                 "state_label": "ingredients inside"
                                          }
                                   ],
                                   "ingredients": [
                                          "sugar"
                                   ],
                                   "object_in_motion": "0",
                                   "has_portions": "False"
                            },
                            {
                                   "object_id": 519,
                                   "object_label": "sugar",
                                   "object_states": [
                                          {
                                                 "state_id": 67,
                                                 "state_label": "granulated"
                                          },
                                          {
                                                 "state_id": 84,
                                                 "state_label": "in bowl"
                                          }
                                   ],
                                   "ingredients": [],
                                   "object_in_motion": "1",
                                   "has_portions": "False"
                            },
                            {
                                   "object_id": 51,
                                   "object_label": "bowl",
                                   "object_states": [
                                          {
                                                 "state_id": 139,
                                                 "state_label": "ingredients inside"
                                          }
                                   ],
                                   "ingredients": [
                                          "mayonnaise",
                                          "sour cream"
                                   ],
                                   "object_in_motion": "0",
                                   "has_portions": "False"
                            }
                     ],
                     "motion_node": {
                            "motion_id": "40",
                            "motion_label": "pour",
                            "start_time": "0:49",
                            "end_time": "0:51",
                            "weight_success": 0.0
                     },
                     "output_nodes": [
                            {
                                   "object_id": 51,
                                   "object_label": "bowl",
                                   "object_states": [
                                          {
                                                 "state_id": 139,
                                                 "state_label": "ingredients inside"
                                          }
                                   ],
                                   "ingredients": [
                                          "mayonnaise",
                                          "sour cream",
                                          "sugar"
                                   ],
                                   "object_in_motion": "0",
                                   "has_portions": "False"
                            }
                     ]
              },
              {
                     "input_nodes": [
                            {
                                   "object_id": 51,
                                   "object_label": "bowl",
                                   "object_states": [
                                          {
                                                 "state_id": 139,
                                                 "state_label": "ingredients inside"
                                          }
                                   ],
                                   "ingredients": [
                                          "mayonnaise",
                                          "sour cream",
                                          "sugar"
                                   ],
                                   "object_in_motion": "0",
                                   "has_portions": "False"
                            },
                            {
                                   "object_id": 51,
                                   "object_label": "bowl",
                                   "object_states": [
                                          {
                                                 "state_id": 139,
                                                 "state_label": "ingredients inside"
                                          }
                                   ],
                                   "ingredients": [
                                          "salt"
                                   ],
                                   "object_in_motion": "0",
                                   "has_portions": "False"
                            },
                            {
                                   "object_id": 459,
                                   "object_label": "salt",
                                   "object_states": [
                                          {
                                                 "state_id": 67,
                                                 "state_label": "granulated"
                                          },
                                          {
                                                 "state_id": 84,
                                                 "state_label": "in bowl"
                                          }
                                   ],
                                   "ingredients": [],
                                   "object_in_motion": "1",
                                   "has_portions": "False"
                            }
                     ],
                     "motion_node": {
                            "motion_id": "64",
                            "motion_label": "sprinkle",
                            "start_time": "0:51",
                            "end_time": "0:53",
                            "weight_success": 0.0
                     },
                     "output_nodes": [
                            {
                                   "object_id": 51,
                                   "object_label": "bowl",
                                   "object_states": [
                                          {
                                                 "state_id": 139,
                                                 "state_label": "ingredients inside"
                                          }
                                   ],
                                   "ingredients": [
                                          "mayonnaise",
                                          "salt",
                                          "sour cream",
                                          "sugar"
                                   ],
                                   "object_in_motion": "0",
                                   "has_portions": "False"
                            }
                     ]
              },
              {
                     "input_nodes": [
                            {
                                   "object_id": 51,
                                   "object_label": "bowl",
                                   "object_states": [
                                          {
                                                 "state_id": 139,
                                                 "state_label": "ingredients inside"
                                          }
                                   ],
                                   "ingredients": [
                                          "mayonnaise",
                                          "salt",
                                          "sour cream",
                                          "sugar"
                                   ],
                                   "object_in_motion": "0",
                                   "has_portions": "False"
                            },
                            {
                                   "object_id": 507,
                                   "object_label": "spoon",
                                   "object_states": [
                                          {
                                                 "state_id": 23,
                                                 "state_label": "clean"
                                          }
                                   ],
                                   "ingredients": [],
                                   "object_in_motion": "1",
                                   "has_portions": "False"
                            }
                     ],
                     "motion_node": {
                            "motion_id": "35",
                            "motion_label": "mix",
                            "start_time": "0:53:75",
                            "end_time": "1:16",
                            "weight_success": 0.0
                     },
                     "output_nodes": [
                            {
                                   "object_id": 51,
                                   "object_label": "bowl",
                                   "object_states": [
                                          {
                                                 "state_id": 143,
                                                 "state_label": "ingredients mixed inside"
                                          }
                                   ],
                                   "ingredients": [
                                          "mayonnaise",
                                          "salt",
                                          "sour cream",
                                          "sugar"
                                   ],
                                   "object_in_motion": "0",
                                   "has_portions": "False"
                            }
                     ]
              },
              {
                     "input_nodes": [
                            {
                                   "object_id": 51,
                                   "object_label": "bowl",
                                   "object_states": [
                                          {
                                                 "state_id": 143,
                                                 "state_label": "ingredients mixed inside"
                                          }
                                   ],
                                   "ingredients": [
                                          "mayonnaise",
                                          "salt",
                                          "sour cream",
                                          "sugar"
                                   ],
                                   "object_in_motion": "0",
                                   "has_portions": "False"
                            },
                            {
                                   "object_id": 51,
                                   "object_label": "bowl",
                                   "object_states": [
                                          {
                                                 "state_id": 143,
                                                 "state_label": "ingredients mixed inside"
                                          }
                                   ],
                                   "ingredients": [
                                          "carrot",
                                          "lemon juice"
                                   ],
                                   "object_in_motion": "0",
                                   "has_portions": "False"
                            }
                     ],
                     "motion_node": {
                            "motion_id": "40",
                            "motion_label": "pour",
                            "start_time": "1:23",
                            "end_time": "1:29",
                            "weight_success": 0.0
                     },
                     "output_nodes": [
                            {
                                   "object_id": 51,
                                   "object_label": "bowl",
                                   "object_states": [
                                          {
                                                 "state_id": 139,
                                                 "state_label": "ingredients inside"
                                          }
                                   ],
                                   "ingredients": [
                                          "carrot",
                                          "lemon juice",
                                          "mayonnaise",
                                          "salt",
                                          "sour cream",
                                          "sugar"
                                   ],
                                   "object_in_motion": "0",
                                   "has_portions": "False"
                            }
                     ]
              },
              {
                     "input_nodes": [
                            {
                                   "object_id": 51,
                                   "object_label": "bowl",
                                   "object_states": [
                                          {
                                                 "state_id": 139,
                                                 "state_label": "ingredients inside"
                                          }
                                   ],
                                   "ingredients": [
                                          "carrot",
                                          "lemon juice",
                                          "mayonnaise",
                                          "salt",
                                          "sour cream",
                                          "sugar"
                                   ],
                                   "object_in_motion": "0",
                                   "has_portions": "False"
                            },
                            {
                                   "object_id": 507,
                                   "object_label": "spoon",
                                   "object_states": [
                                          {
                                                 "state_id": 23,
                                                 "state_label": "clean"
                                          }
                                   ],
                                   "ingredients": [],
                                   "object_in_motion": "1",
                                   "has_portions": "False"
                            }
                     ],
                     "motion_node": {
                            "motion_id": "35",
                            "motion_label": "mix",
                            "start_time": "1:31",
                            "end_time": "1:36",
                            "weight_success": 0.0
                     },
                     "output_nodes": [
                            {
                                   "object_id": 51,
                                   "object_label": "bowl",
                                   "object_states": [
                                          {
                                                 "state_id": 48,
                                                 "state_label": "dish inside"
                                          }
                                   ],
                                   "ingredients": [
                                          "salad"
                                   ],
                                   "object_in_motion": "0",
                                   "has_portions": "False"
                            },
                            {
                                   "object_id": 453,
                                   "object_label": "salad",
                                   "object_states": [
                                          {
                                                 "state_id": 17,
                                                 "state_label": "carrot salad"
                                          },
                                          {
                                                 "state_id": 84,
                                                 "state_label": "in bowl"
                                          }
                                   ],
                                   "ingredients": [
                                          "carrot",
                                          "lemon juice",
                                          "mayonnaise",
                                          "salt",
                                          "sour cream",
                                          "sugar"
                                   ],
                                   "object_in_motion": "0",
                                   "has_portions": "False"
                            }
                     ]
              }
       ]
}