{
       "functional_units": [
              {
                     "input_nodes": [
                            {
                                   "object_id": 16,
                                   "object_label": "baking tray",
                                   "object_states": [
                                          {
                                                 "state_id": 54,
                                                 "state_label": "empty"
                                          }
                                   ],
                                   "ingredients": [],
                                   "object_in_motion": "0",
                                   "has_portions": "False"
                            },
                            {
                                   "object_id": 145,
                                   "object_label": "cooking spray",
                                   "object_states": [
                                          {
                                                 "state_id": 139,
                                                 "state_label": "ingredients inside"
                                          }
                                   ],
                                   "ingredients": [
                                          "vegetable oil"
                                   ],
                                   "object_in_motion": "1",
                                   "has_portions": "False"
                            }
                     ],
                     "motion_node": {
                            "motion_id": "62",
                            "motion_label": "spray",
                            "start_time": "0:22",
                            "end_time": "0:24",
                            "weight_success": 0.0
                     },
                     "output_nodes": [
                            {
                                   "object_id": 16,
                                   "object_label": "baking tray",
                                   "object_states": [
                                          {
                                                 "state_id": 69,
                                                 "state_label": "greased"
                                          }
                                   ],
                                   "ingredients": [],
                                   "object_in_motion": "0",
                                   "has_portions": "False"
                            }
                     ]
              },
              {
                     "input_nodes": [
                            {
                                   "object_id": 230,
                                   "object_label": "garlic",
                                   "object_states": [
                                          {
                                                 "state_id": 25,
                                                 "state_label": "clove"
                                          },
                                          {
                                                 "state_id": 199,
                                                 "state_label": "on surface"
                                          }
                                   ],
                                   "ingredients": [],
                                   "object_in_motion": "0",
                                   "has_portions": "False"
                            },
                            {
                                   "object_id": 293,
                                   "object_label": "knife",
                                   "object_states": [
                                          {
                                                 "state_id": 23,
                                                 "state_label": "clean"
                                          }
                                   ],
                                   "ingredients": [],
                                   "object_in_motion": "1",
                                   "has_portions": "False"
                            }
                     ],
                     "motion_node": {
                            "motion_id": "15",
                            "motion_label": "cut",
                            "start_time": "0:26",
                            "end_time": "0:29",
                            "weight_success": 0.0
                     },
                     "output_nodes": [
                            {
                                   "object_id": 230,
                                   "object_label": "garlic",
                                   "object_states": [
                                          {
                                                 "state_id": 21,
                                                 "state_label": "chopped"
                                          },
                                          {
                                                 "state_id": 199,
                                                 "state_label": "on surface"
                                          }
                                   ],
                                   "ingredients": [],
                                   "object_in_motion": "0",
                                   "has_portions": "False"
                            }
                     ]
              },
              {
                     "input_nodes": [
                            {
                                   "object_id": 51,
                                   "object_label": "bowl",
                                   "object_states": [
                                          {
                                                 "state_id": 54,
                                                 "state_label": "empty"
                                          }
                                   ],
                                   "ingredients": [],
                                   "object_in_motion": "0",
                                   "has_portions": "False"
                            },
                            {
                                   "object_id": 362,
                                   "object_label": "olive oil",
                                   "object_states": [
                                          {
                                                 "state_id": 83,
                                                 "state_label": "in bottle"
                                          }
                                   ],
                                   "ingredients": [],
                                   "object_in_motion": "1",
                                   "has_portions": "False"
                            }
                     ],
                     "motion_node": {
                            "motion_id": "40",
                            "motion_label": "pour",
                            "start_time": "0:31",
                            "end_time": "0:35",
                            "weight_success": 0.0
                     },
                     "output_nodes": [
                            {
                                   "object_id": 51,
                                   "object_label": "bowl",
                                   "object_states": [
                                          {
                                                 "state_id": 139,
                                                 "state_label": "ingredients inside"
                                          }
                                   ],
                                   "ingredients": [
                                          "olive oil"
                                   ],
                                   "object_in_motion": "0",
                                   "has_portions": "False"
                            },
                            {
                                   "object_id": 362,
                                   "object_label": "olive oil",
                                   "object_states": [
                                          {
                                                 "state_id": 84,
                                                 "state_label": "in bowl"
                                          }
                                   ],
                                   "ingredients": [],
                                   "object_in_motion": "1",
                                   "has_portions": "False"
                            }
                     ]
              },
              {
                     "input_nodes": [
                            {
                                   "object_id": 51,
                                   "object_label": "bowl",
                                   "object_states": [
                                          {
                                                 "state_id": 139,
                                                 "state_label": "ingredients inside"
                                          }
                                   ],
                                   "ingredients": [
                                          "olive oil"
                                   ],
                                   "object_in_motion": "0",
                                   "has_portions": "False"
                            },
                            {
                                   "object_id": 230,
                                   "object_label": "garlic",
                                   "object_states": [
                                          {
                                                 "state_id": 21,
                                                 "state_label": "chopped"
                                          },
                                          {
                                                 "state_id": 199,
                                                 "state_label": "on surface"
                                          }
                                   ],
                                   "ingredients": [],
                                   "object_in_motion": "1",
                                   "has_portions": "False"
                            }
                     ],
                     "motion_node": {
                            "motion_id": "64",
                            "motion_label": "sprinkle",
                            "start_time": "0:36",
                            "end_time": "0:38",
                            "weight_success": 0.0
                     },
                     "output_nodes": [
                            {
                                   "object_id": 51,
                                   "object_label": "bowl",
                                   "object_states": [
                                          {
                                                 "state_id": 139,
                                                 "state_label": "ingredients inside"
                                          }
                                   ],
                                   "ingredients": [
                                          "garlic",
                                          "olive oil"
                                   ],
                                   "object_in_motion": "0",
                                   "has_portions": "False"
                            },
                            {
                                   "object_id": 230,
                                   "object_label": "garlic",
                                   "object_states": [
                                          {
                                                 "state_id": 21,
                                                 "state_label": "chopped"
                                          },
                                          {
                                                 "state_id": 84,
                                                 "state_label": "in bowl"
                                          }
                                   ],
                                   "ingredients": [],
                                   "object_in_motion": "1",
                                   "has_portions": "False"
                            }
                     ]
              },
              {
                     "input_nodes": [
                            {
                                   "object_id": 51,
                                   "object_label": "bowl",
                                   "object_states": [
                                          {
                                                 "state_id": 54,
                                                 "state_label": "empty"
                                          }
                                   ],
                                   "ingredients": [],
                                   "object_in_motion": "0",
                                   "has_portions": "False"
                            },
                            {
                                   "object_id": 334,
                                   "object_label": "measuring cup",
                                   "object_states": [
                                          {
                                                 "state_id": 139,
                                                 "state_label": "ingredients inside"
                                          }
                                   ],
                                   "ingredients": [
                                          "breadcrumbs"
                                   ],
                                   "object_in_motion": "1",
                                   "has_portions": "False"
                            },
                            {
                                   "object_id": 54,
                                   "object_label": "breadcrumbs",
                                   "object_states": [
                                          {
                                                 "state_id": 103,
                                                 "state_label": "in measuring cup"
                                          }
                                   ],
                                   "ingredients": [],
                                   "object_in_motion": "1",
                                   "has_portions": "False"
                            }
                     ],
                     "motion_node": {
                            "motion_id": "40",
                            "motion_label": "pour",
                            "start_time": "0:39",
                            "end_time": "0:42",
                            "weight_success": 0.0
                     },
                     "output_nodes": [
                            {
                                   "object_id": 51,
                                   "object_label": "bowl",
                                   "object_states": [
                                          {
                                                 "state_id": 139,
                                                 "state_label": "ingredients inside"
                                          }
                                   ],
                                   "ingredients": [
                                          "breadcrumbs"
                                   ],
                                   "object_in_motion": "0",
                                   "has_portions": "False"
                            },
                            {
                                   "object_id": 54,
                                   "object_label": "breadcrumbs",
                                   "object_states": [
                                          {
                                                 "state_id": 84,
                                                 "state_label": "in bowl"
                                          }
                                   ],
                                   "ingredients": [],
                                   "object_in_motion": "1",
                                   "has_portions": "False"
                            }
                     ]
              },
              {
                     "input_nodes": [
                            {
                                   "object_id": 51,
                                   "object_label": "bowl",
                                   "object_states": [
                                          {
                                                 "state_id": 139,
                                                 "state_label": "ingredients inside"
                                          }
                                   ],
                                   "ingredients": [
                                          "breadcrumbs"
                                   ],
                                   "object_in_motion": "0",
                                   "has_portions": "False"
                            },
                            {
                                   "object_id": 51,
                                   "object_label": "bowl",
                                   "object_states": [
                                          {
                                                 "state_id": 139,
                                                 "state_label": "ingredients inside"
                                          }
                                   ],
                                   "ingredients": [
                                          "parmesan"
                                   ],
                                   "object_in_motion": "1",
                                   "has_portions": "False"
                            },
                            {
                                   "object_id": 382,
                                   "object_label": "parmesan",
                                   "object_states": [
                                          {
                                                 "state_id": 68,
                                                 "state_label": "grated"
                                          },
                                          {
                                                 "state_id": 84,
                                                 "state_label": "in bowl"
                                          }
                                   ],
                                   "ingredients": [],
                                   "object_in_motion": "1",
                                   "has_portions": "False"
                            }
                     ],
                     "motion_node": {
                            "motion_id": "40",
                            "motion_label": "pour",
                            "start_time": "0:42",
                            "end_time": "0:45",
                            "weight_success": 0.0
                     },
                     "output_nodes": [
                            {
                                   "object_id": 51,
                                   "object_label": "bowl",
                                   "object_states": [
                                          {
                                                 "state_id": 139,
                                                 "state_label": "ingredients inside"
                                          }
                                   ],
                                   "ingredients": [
                                          "breadcrumbs",
                                          "parmesan"
                                   ],
                                   "object_in_motion": "0",
                                   "has_portions": "False"
                            }
                     ]
              },
              {
                     "input_nodes": [
                            {
                                   "object_id": 21,
                                   "object_label": "basil",
                                   "object_states": [
                                          {
                                                 "state_id": 52,
                                                 "state_label": "dried"
                                          },
                                          {
                                                 "state_id": 99,
                                                 "state_label": "in jar"
                                          }
                                   ],
                                   "ingredients": [],
                                   "object_in_motion": "0",
                                   "has_portions": "False"
                            },
                            {
                                   "object_id": 507,
                                   "object_label": "spoon",
                                   "object_states": [
                                          {
                                                 "state_id": 23,
                                                 "state_label": "clean"
                                          }
                                   ],
                                   "ingredients": [],
                                   "object_in_motion": "1",
                                   "has_portions": "False"
                            },
                            {
                                   "object_id": 283,
                                   "object_label": "jar",
                                   "object_states": [
                                          {
                                                 "state_id": 139,
                                                 "state_label": "ingredients inside"
                                          }
                                   ],
                                   "ingredients": [
                                          "basil"
                                   ],
                                   "object_in_motion": "0",
                                   "has_portions": "False"
                            }
                     ],
                     "motion_node": {
                            "motion_id": "50",
                            "motion_label": "scoop",
                            "start_time": "0:46",
                            "end_time": "0:47",
                            "weight_success": 0.0
                     },
                     "output_nodes": [
                            {
                                   "object_id": 507,
                                   "object_label": "spoon",
                                   "object_states": [
                                          {
                                                 "state_id": 139,
                                                 "state_label": "ingredients inside"
                                          }
                                   ],
                                   "ingredients": [
                                          "basil"
                                   ],
                                   "object_in_motion": "1",
                                   "has_portions": "False"
                            },
                            {
                                   "object_id": 21,
                                   "object_label": "basil",
                                   "object_states": [
                                          {
                                                 "state_id": 52,
                                                 "state_label": "dried"
                                          },
                                          {
                                                 "state_id": 124,
                                                 "state_label": "in spoon"
                                          }
                                   ],
                                   "ingredients": [],
                                   "object_in_motion": "1",
                                   "has_portions": "False"
                            }
                     ]
              },
              {
                     "input_nodes": [
                            {
                                   "object_id": 51,
                                   "object_label": "bowl",
                                   "object_states": [
                                          {
                                                 "state_id": 139,
                                                 "state_label": "ingredients inside"
                                          }
                                   ],
                                   "ingredients": [
                                          "breadcrumbs",
                                          "parmesan"
                                   ],
                                   "object_in_motion": "0",
                                   "has_portions": "False"
                            },
                            {
                                   "object_id": 507,
                                   "object_label": "spoon",
                                   "object_states": [
                                          {
                                                 "state_id": 139,
                                                 "state_label": "ingredients inside"
                                          }
                                   ],
                                   "ingredients": [
                                          "basil"
                                   ],
                                   "object_in_motion": "1",
                                   "has_portions": "False"
                            },
                            {
                                   "object_id": 21,
                                   "object_label": "basil",
                                   "object_states": [
                                          {
                                                 "state_id": 52,
                                                 "state_label": "dried"
                                          },
                                          {
                                                 "state_id": 124,
                                                 "state_label": "in spoon"
                                          }
                                   ],
                                   "ingredients": [],
                                   "object_in_motion": "1",
                                   "has_portions": "False"
                            }
                     ],
                     "motion_node": {
                            "motion_id": "40",
                            "motion_label": "pour",
                            "start_time": "0:48",
                            "end_time": "0:49",
                            "weight_success": 0.0
                     },
                     "output_nodes": [
                            {
                                   "object_id": 51,
                                   "object_label": "bowl",
                                   "object_states": [
                                          {
                                                 "state_id": 139,
                                                 "state_label": "ingredients inside"
                                          }
                                   ],
                                   "ingredients": [
                                          "basil",
                                          "breadcrumbs",
                                          "parmesan"
                                   ],
                                   "object_in_motion": "0",
                                   "has_portions": "False"
                            },
                            {
                                   "object_id": 21,
                                   "object_label": "basil",
                                   "object_states": [
                                          {
                                                 "state_id": 52,
                                                 "state_label": "dried"
                                          },
                                          {
                                                 "state_id": 84,
                                                 "state_label": "in bowl"
                                          }
                                   ],
                                   "ingredients": [],
                                   "object_in_motion": "0",
                                   "has_portions": "False"
                            }
                     ]
              },
              {
                     "input_nodes": [
                            {
                                   "object_id": 507,
                                   "object_label": "spoon",
                                   "object_states": [
                                          {
                                                 "state_id": 23,
                                                 "state_label": "clean"
                                          }
                                   ],
                                   "ingredients": [],
                                   "object_in_motion": "1",
                                   "has_portions": "False"
                            },
                            {
                                   "object_id": 51,
                                   "object_label": "bowl",
                                   "object_states": [
                                          {
                                                 "state_id": 139,
                                                 "state_label": "ingredients inside"
                                          }
                                   ],
                                   "ingredients": [
                                          "black pepper"
                                   ],
                                   "object_in_motion": "0",
                                   "has_portions": "False"
                            },
                            {
                                   "object_id": 38,
                                   "object_label": "black pepper",
                                   "object_states": [
                                          {
                                                 "state_id": 71,
                                                 "state_label": "ground"
                                          },
                                          {
                                                 "state_id": 84,
                                                 "state_label": "in bowl"
                                          }
                                   ],
                                   "ingredients": [],
                                   "object_in_motion": "0",
                                   "has_portions": "False"
                            }
                     ],
                     "motion_node": {
                            "motion_id": "50",
                            "motion_label": "scoop",
                            "start_time": "0:49",
                            "end_time": "0:51",
                            "weight_success": 0.0
                     },
                     "output_nodes": [
                            {
                                   "object_id": 507,
                                   "object_label": "spoon",
                                   "object_states": [
                                          {
                                                 "state_id": 139,
                                                 "state_label": "ingredients inside"
                                          }
                                   ],
                                   "ingredients": [
                                          "black pepper"
                                   ],
                                   "object_in_motion": "1",
                                   "has_portions": "False"
                            },
                            {
                                   "object_id": 38,
                                   "object_label": "black pepper",
                                   "object_states": [
                                          {
                                                 "state_id": 71,
                                                 "state_label": "ground"
                                          },
                                          {
                                                 "state_id": 124,
                                                 "state_label": "in spoon"
                                          }
                                   ],
                                   "ingredients": [],
                                   "object_in_motion": "0",
                                   "has_portions": "False"
                            }
                     ]
              },
              {
                     "input_nodes": [
                            {
                                   "object_id": 507,
                                   "object_label": "spoon",
                                   "object_states": [
                                          {
                                                 "state_id": 139,
                                                 "state_label": "ingredients inside"
                                          }
                                   ],
                                   "ingredients": [
                                          "black pepper"
                                   ],
                                   "object_in_motion": "1",
                                   "has_portions": "False"
                            },
                            {
                                   "object_id": 38,
                                   "object_label": "black pepper",
                                   "object_states": [
                                          {
                                                 "state_id": 71,
                                                 "state_label": "ground"
                                          },
                                          {
                                                 "state_id": 124,
                                                 "state_label": "in spoon"
                                          }
                                   ],
                                   "ingredients": [],
                                   "object_in_motion": "0",
                                   "has_portions": "False"
                            },
                            {
                                   "object_id": 51,
                                   "object_label": "bowl",
                                   "object_states": [
                                          {
                                                 "state_id": 139,
                                                 "state_label": "ingredients inside"
                                          }
                                   ],
                                   "ingredients": [
                                          "basil",
                                          "breadcrumbs",
                                          "parmesan"
                                   ],
                                   "object_in_motion": "0",
                                   "has_portions": "False"
                            }
                     ],
                     "motion_node": {
                            "motion_id": "64",
                            "motion_label": "sprinkle",
                            "start_time": "0:51",
                            "end_time": "0:55",
                            "weight_success": 0.0
                     },
                     "output_nodes": [
                            {
                                   "object_id": 51,
                                   "object_label": "bowl",
                                   "object_states": [
                                          {
                                                 "state_id": 139,
                                                 "state_label": "ingredients inside"
                                          }
                                   ],
                                   "ingredients": [
                                          "basil",
                                          "black pepper",
                                          "breadcrumbs",
                                          "parmesan"
                                   ],
                                   "object_in_motion": "0",
                                   "has_portions": "False"
                            },
                            {
                                   "object_id": 38,
                                   "object_label": "black pepper",
                                   "object_states": [
                                          {
                                                 "state_id": 71,
                                                 "state_label": "ground"
                                          },
                                          {
                                                 "state_id": 84,
                                                 "state_label": "in bowl"
                                          }
                                   ],
                                   "ingredients": [],
                                   "object_in_motion": "0",
                                   "has_portions": "False"
                            }
                     ]
              },
              {
                     "input_nodes": [
                            {
                                   "object_id": 51,
                                   "object_label": "bowl",
                                   "object_states": [
                                          {
                                                 "state_id": 139,
                                                 "state_label": "ingredients inside"
                                          }
                                   ],
                                   "ingredients": [
                                          "basil",
                                          "black pepper",
                                          "breadcrumbs",
                                          "parmesan"
                                   ],
                                   "object_in_motion": "0",
                                   "has_portions": "False"
                            },
                            {
                                   "object_id": 507,
                                   "object_label": "spoon",
                                   "object_states": [
                                          {
                                                 "state_id": 23,
                                                 "state_label": "clean"
                                          }
                                   ],
                                   "ingredients": [],
                                   "object_in_motion": "1",
                                   "has_portions": "False"
                            }
                     ],
                     "motion_node": {
                            "motion_id": "35",
                            "motion_label": "mix",
                            "start_time": "0:55",
                            "end_time": "0:58",
                            "weight_success": 0.0
                     },
                     "output_nodes": [
                            {
                                   "object_id": 51,
                                   "object_label": "bowl",
                                   "object_states": [
                                          {
                                                 "state_id": 143,
                                                 "state_label": "ingredients mixed inside"
                                          }
                                   ],
                                   "ingredients": [
                                          "basil",
                                          "black pepper",
                                          "breadcrumbs",
                                          "parmesan"
                                   ],
                                   "object_in_motion": "0",
                                   "has_portions": "False"
                            }
                     ]
              },
              {
                     "input_nodes": [
                            {
                                   "object_id": 541,
                                   "object_label": "tongs",
                                   "object_states": [
                                          {
                                                 "state_id": 23,
                                                 "state_label": "clean"
                                          }
                                   ],
                                   "ingredients": [],
                                   "object_in_motion": "1",
                                   "has_portions": "False"
                            },
                            {
                                   "object_id": 96,
                                   "object_label": "chicken",
                                   "object_states": [
                                          {
                                                 "state_id": 258,
                                                 "state_label": "uncooked"
                                          }
                                   ],
                                   "ingredients": [],
                                   "object_in_motion": "1",
                                   "has_portions": "False"
                            },
                            {
                                   "object_id": 51,
                                   "object_label": "bowl",
                                   "object_states": [
                                          {
                                                 "state_id": 139,
                                                 "state_label": "ingredients inside"
                                          }
                                   ],
                                   "ingredients": [
                                          "garlic",
                                          "olive oil"
                                   ],
                                   "object_in_motion": "0",
                                   "has_portions": "False"
                            }
                     ],
                     "motion_node": {
                            "motion_id": "21",
                            "motion_label": "dip",
                            "start_time": "0:59",
                            "end_time": "1:06",
                            "weight_success": 0.0
                     },
                     "output_nodes": [
                            {
                                   "object_id": 96,
                                   "object_label": "chicken",
                                   "object_states": [
                                          {
                                                 "state_id": 84,
                                                 "state_label": "in bowl"
                                          },
                                          {
                                                 "state_id": 167,
                                                 "state_label": "oiled"
                                          }
                                   ],
                                   "ingredients": [
                                          "garlic",
                                          "olive oil"
                                   ],
                                   "object_in_motion": "0",
                                   "has_portions": "False"
                            }
                     ]
              },
              {
                     "input_nodes": [
                            {
                                   "object_id": 541,
                                   "object_label": "tongs",
                                   "object_states": [
                                          {
                                                 "state_id": 23,
                                                 "state_label": "clean"
                                          }
                                   ],
                                   "ingredients": [],
                                   "object_in_motion": "1",
                                   "has_portions": "False"
                            },
                            {
                                   "object_id": 96,
                                   "object_label": "chicken",
                                   "object_states": [
                                          {
                                                 "state_id": 84,
                                                 "state_label": "in bowl"
                                          },
                                          {
                                                 "state_id": 167,
                                                 "state_label": "oiled"
                                          }
                                   ],
                                   "ingredients": [
                                          "garlic",
                                          "olive oil"
                                   ],
                                   "object_in_motion": "0",
                                   "has_portions": "False"
                            },
                            {
                                   "object_id": 51,
                                   "object_label": "bowl",
                                   "object_states": [
                                          {
                                                 "state_id": 143,
                                                 "state_label": "ingredients mixed inside"
                                          }
                                   ],
                                   "ingredients": [
                                          "basil",
                                          "black pepper",
                                          "breadcrumbs",
                                          "parmesan"
                                   ],
                                   "object_in_motion": "0",
                                   "has_portions": "False"
                            }
                     ],
                     "motion_node": {
                            "motion_id": "21",
                            "motion_label": "dip",
                            "start_time": "1:06",
                            "end_time": "1:18",
                            "weight_success": 0.0
                     },
                     "output_nodes": [
                            {
                                   "object_id": 96,
                                   "object_label": "chicken",
                                   "object_states": [
                                          {
                                                 "state_id": 26,
                                                 "state_label": "coated"
                                          },
                                          {
                                                 "state_id": 84,
                                                 "state_label": "in bowl"
                                          }
                                   ],
                                   "ingredients": [
                                          "basil",
                                          "black pepper",
                                          "breadcrumbs",
                                          "parmesan"
                                   ],
                                   "object_in_motion": "0",
                                   "has_portions": "False"
                            }
                     ]
              },
              {
                     "input_nodes": [
                            {
                                   "object_id": 541,
                                   "object_label": "tongs",
                                   "object_states": [
                                          {
                                                 "state_id": 23,
                                                 "state_label": "clean"
                                          }
                                   ],
                                   "ingredients": [],
                                   "object_in_motion": "1",
                                   "has_portions": "False"
                            },
                            {
                                   "object_id": 96,
                                   "object_label": "chicken",
                                   "object_states": [
                                          {
                                                 "state_id": 26,
                                                 "state_label": "coated"
                                          },
                                          {
                                                 "state_id": 84,
                                                 "state_label": "in bowl"
                                          }
                                   ],
                                   "ingredients": [
                                          "basil",
                                          "black pepper",
                                          "breadcrumbs",
                                          "parmesan"
                                   ],
                                   "object_in_motion": "0",
                                   "has_portions": "False"
                            },
                            {
                                   "object_id": 16,
                                   "object_label": "baking tray",
                                   "object_states": [
                                          {
                                                 "state_id": 69,
                                                 "state_label": "greased"
                                          }
                                   ],
                                   "ingredients": [],
                                   "object_in_motion": "0",
                                   "has_portions": "False"
                            }
                     ],
                     "motion_node": {
                            "motion_id": "38",
                            "motion_label": "pick-and-place",
                            "start_time": "1:18",
                            "end_time": "1:23",
                            "weight_success": 0.0
                     },
                     "output_nodes": [
                            {
                                   "object_id": 16,
                                   "object_label": "baking tray",
                                   "object_states": [
                                          {
                                                 "state_id": 145,
                                                 "state_label": "ingredients on top"
                                          }
                                   ],
                                   "ingredients": [
                                          "chicken"
                                   ],
                                   "object_in_motion": "0",
                                   "has_portions": "False"
                            },
                            {
                                   "object_id": 96,
                                   "object_label": "chicken",
                                   "object_states": [
                                          {
                                                 "state_id": 26,
                                                 "state_label": "coated"
                                          },
                                          {
                                                 "state_id": 169,
                                                 "state_label": "on baking tray"
                                          }
                                   ],
                                   "ingredients": [
                                          "basil",
                                          "black pepper",
                                          "breadcrumbs",
                                          "parmesan"
                                   ],
                                   "object_in_motion": "0",
                                   "has_portions": "False"
                            }
                     ]
              },
              {
                     "input_nodes": [
                            {
                                   "object_id": 16,
                                   "object_label": "baking tray",
                                   "object_states": [
                                          {
                                                 "state_id": 145,
                                                 "state_label": "ingredients on top"
                                          }
                                   ],
                                   "ingredients": [
                                          "chicken"
                                   ],
                                   "object_in_motion": "1",
                                   "has_portions": "False"
                            },
                            {
                                   "object_id": 371,
                                   "object_label": "oven",
                                   "object_states": [
                                          {
                                                 "state_id": 168,
                                                 "state_label": "on"
                                          }
                                   ],
                                   "ingredients": [],
                                   "object_in_motion": "0",
                                   "has_portions": "False"
                            }
                     ],
                     "motion_node": {
                            "motion_id": "38",
                            "motion_label": "pick-and-place",
                            "start_time": "1:27",
                            "end_time": "1:32",
                            "weight_success": 0.0
                     },
                     "output_nodes": [
                            {
                                   "object_id": 371,
                                   "object_label": "oven",
                                   "object_states": [
                                          {
                                                 "state_id": 4,
                                                 "state_label": "baking tray inside"
                                          },
                                          {
                                                 "state_id": 168,
                                                 "state_label": "on"
                                          }
                                   ],
                                   "ingredients": [],
                                   "object_in_motion": "0",
                                   "has_portions": "False"
                            },
                            {
                                   "object_id": 16,
                                   "object_label": "baking tray",
                                   "object_states": [
                                          {
                                                 "state_id": 112,
                                                 "state_label": "in oven"
                                          },
                                          {
                                                 "state_id": 145,
                                                 "state_label": "ingredients on top"
                                          }
                                   ],
                                   "ingredients": [
                                          "chicken"
                                   ],
                                   "object_in_motion": "1",
                                   "has_portions": "False"
                            }
                     ]
              },
              {
                     "input_nodes": [
                            {
                                   "object_id": 371,
                                   "object_label": "oven",
                                   "object_states": [
                                          {
                                                 "state_id": 4,
                                                 "state_label": "baking tray inside"
                                          },
                                          {
                                                 "state_id": 168,
                                                 "state_label": "on"
                                          }
                                   ],
                                   "ingredients": [],
                                   "object_in_motion": "0",
                                   "has_portions": "False"
                            },
                            {
                                   "object_id": 16,
                                   "object_label": "baking tray",
                                   "object_states": [
                                          {
                                                 "state_id": 112,
                                                 "state_label": "in oven"
                                          },
                                          {
                                                 "state_id": 145,
                                                 "state_label": "ingredients on top"
                                          }
                                   ],
                                   "ingredients": [
                                          "chicken"
                                   ],
                                   "object_in_motion": "1",
                                   "has_portions": "False"
                            },
                            {
                                   "object_id": 96,
                                   "object_label": "chicken",
                                   "object_states": [
                                          {
                                                 "state_id": 26,
                                                 "state_label": "coated"
                                          },
                                          {
                                                 "state_id": 169,
                                                 "state_label": "on baking tray"
                                          }
                                   ],
                                   "ingredients": [
                                          "basil",
                                          "black pepper",
                                          "breadcrumbs",
                                          "parmesan"
                                   ],
                                   "object_in_motion": "0",
                                   "has_portions": "False"
                            }
                     ],
                     "motion_node": {
                            "motion_id": "10",
                            "motion_label": "cook",
                            "start_time": "Assumed",
                            "end_time": "Assumed",
                            "weight_success": 0.0
                     },
                     "output_nodes": [
                            {
                                   "object_id": 96,
                                   "object_label": "chicken",
                                   "object_states": [
                                          {
                                                 "state_id": 29,
                                                 "state_label": "cooked"
                                          },
                                          {
                                                 "state_id": 139,
                                                 "state_label": "ingredients inside"
                                          },
                                          {
                                                 "state_id": 169,
                                                 "state_label": "on baking tray"
                                          }
                                   ],
                                   "ingredients": [
                                          "basil",
                                          "black pepper",
                                          "breadcrumbs",
                                          "parmesan"
                                   ],
                                   "object_in_motion": "0",
                                   "has_portions": "False"
                            }
                     ]
              },
              {
                     "input_nodes": [
                            {
                                   "object_id": 371,
                                   "object_label": "oven",
                                   "object_states": [
                                          {
                                                 "state_id": 4,
                                                 "state_label": "baking tray inside"
                                          },
                                          {
                                                 "state_id": 168,
                                                 "state_label": "on"
                                          }
                                   ],
                                   "ingredients": [],
                                   "object_in_motion": "0",
                                   "has_portions": "False"
                            },
                            {
                                   "object_id": 16,
                                   "object_label": "baking tray",
                                   "object_states": [
                                          {
                                                 "state_id": 112,
                                                 "state_label": "in oven"
                                          },
                                          {
                                                 "state_id": 145,
                                                 "state_label": "ingredients on top"
                                          }
                                   ],
                                   "ingredients": [
                                          "chicken"
                                   ],
                                   "object_in_motion": "1",
                                   "has_portions": "False"
                            }
                     ],
                     "motion_node": {
                            "motion_id": "46",
                            "motion_label": "remove",
                            "start_time": "Assumed",
                            "end_time": "Assumed",
                            "weight_success": 0.0
                     },
                     "output_nodes": [
                            {
                                   "object_id": 371,
                                   "object_label": "oven",
                                   "object_states": [
                                          {
                                                 "state_id": 166,
                                                 "state_label": "off"
                                          }
                                   ],
                                   "ingredients": [],
                                   "object_in_motion": "0",
                                   "has_portions": "False"
                            },
                            {
                                   "object_id": 16,
                                   "object_label": "baking tray",
                                   "object_states": [
                                          {
                                                 "state_id": 137,
                                                 "state_label": "ingredients cooked on top"
                                          }
                                   ],
                                   "ingredients": [
                                          "chicken"
                                   ],
                                   "object_in_motion": "1",
                                   "has_portions": "False"
                            }
                     ]
              },
              {
                     "input_nodes": [
                            {
                                   "object_id": 96,
                                   "object_label": "chicken",
                                   "object_states": [
                                          {
                                                 "state_id": 29,
                                                 "state_label": "cooked"
                                          },
                                          {
                                                 "state_id": 139,
                                                 "state_label": "ingredients inside"
                                          },
                                          {
                                                 "state_id": 169,
                                                 "state_label": "on baking tray"
                                          }
                                   ],
                                   "ingredients": [
                                          "basil",
                                          "black pepper",
                                          "breadcrumbs",
                                          "parmesan"
                                   ],
                                   "object_in_motion": "0",
                                   "has_portions": "False"
                            },
                            {
                                   "object_id": 382,
                                   "object_label": "parmesan",
                                   "object_states": [
                                          {
                                                 "state_id": 68,
                                                 "state_label": "grated"
                                          },
                                          {
                                                 "state_id": 84,
                                                 "state_label": "in bowl"
                                          }
                                   ],
                                   "ingredients": [],
                                   "object_in_motion": "1",
                                   "has_portions": "False"
                            }
                     ],
                     "motion_node": {
                            "motion_id": "64",
                            "motion_label": "sprinkle",
                            "start_time": "1:35",
                            "end_time": "1:41",
                            "weight_success": 0.0
                     },
                     "output_nodes": [
                            {
                                   "object_id": 238,
                                   "object_label": "garlic-parmesan chicken",
                                   "object_states": [
                                          {
                                                 "state_id": 29,
                                                 "state_label": "cooked"
                                          },
                                          {
                                                 "state_id": 139,
                                                 "state_label": "ingredients inside"
                                          },
                                          {
                                                 "state_id": 169,
                                                 "state_label": "on baking tray"
                                          }
                                   ],
                                   "ingredients": [
                                          "basil",
                                          "black pepper",
                                          "breadcrumbs",
                                          "parmesan"
                                   ],
                                   "object_in_motion": "0",
                                   "has_portions": "False"
                            }
                     ]
              },
              {
                     "input_nodes": [
                            {
                                   "object_id": 238,
                                   "object_label": "garlic-parmesan chicken",
                                   "object_states": [
                                          {
                                                 "state_id": 29,
                                                 "state_label": "cooked"
                                          },
                                          {
                                                 "state_id": 139,
                                                 "state_label": "ingredients inside"
                                          },
                                          {
                                                 "state_id": 169,
                                                 "state_label": "on baking tray"
                                          }
                                   ],
                                   "ingredients": [
                                          "basil",
                                          "black pepper",
                                          "breadcrumbs",
                                          "parmesan"
                                   ],
                                   "object_in_motion": "1",
                                   "has_portions": "False"
                            },
                            {
                                   "object_id": 415,
                                   "object_label": "plate",
                                   "object_states": [
                                          {
                                                 "state_id": 54,
                                                 "state_label": "empty"
                                          }
                                   ],
                                   "ingredients": [],
                                   "object_in_motion": "0",
                                   "has_portions": "False"
                            },
                            {
                                   "object_id": 541,
                                   "object_label": "tongs",
                                   "object_states": [
                                          {
                                                 "state_id": 23,
                                                 "state_label": "clean"
                                          }
                                   ],
                                   "ingredients": [],
                                   "object_in_motion": "1",
                                   "has_portions": "False"
                            }
                     ],
                     "motion_node": {
                            "motion_id": "38",
                            "motion_label": "pick-and-place",
                            "start_time": "Assumed",
                            "end_time": "Assumed",
                            "weight_success": 0.0
                     },
                     "output_nodes": [
                            {
                                   "object_id": 415,
                                   "object_label": "plate",
                                   "object_states": [
                                          {
                                                 "state_id": 49,
                                                 "state_label": "dish on top"
                                          }
                                   ],
                                   "ingredients": [
                                          "garlic-parmesan chicken"
                                   ],
                                   "object_in_motion": "0",
                                   "has_portions": "False"
                            },
                            {
                                   "object_id": 238,
                                   "object_label": "garlic-parmesan chicken",
                                   "object_states": [
                                          {
                                                 "state_id": 29,
                                                 "state_label": "cooked"
                                          },
                                          {
                                                 "state_id": 139,
                                                 "state_label": "ingredients inside"
                                          },
                                          {
                                                 "state_id": 189,
                                                 "state_label": "on plate"
                                          }
                                   ],
                                   "ingredients": [
                                          "basil",
                                          "black pepper",
                                          "breadcrumbs",
                                          "parmesan"
                                   ],
                                   "object_in_motion": "1",
                                   "has_portions": "False"
                            }
                     ]
              }
       ]
}