{
       "functional_units": [
              {
                     "input_nodes": [
                            {
                                   "object_id": 180,
                                   "object_label": "cutting board",
                                   "object_states": [
                                          {
                                                 "state_id": 54,
                                                 "state_label": "empty"
                                          }
                                   ],
                                   "ingredients": [],
                                   "object_in_motion": "0",
                                   "has_portions": "False"
                            },
                            {
                                   "object_id": 468,
                                   "object_label": "scallion",
                                   "object_states": [
                                          {
                                                 "state_id": 262,
                                                 "state_label": "whole"
                                          }
                                   ],
                                   "ingredients": [],
                                   "object_in_motion": "1",
                                   "has_portions": "False"
                            }
                     ],
                     "motion_node": {
                            "motion_id": "38",
                            "motion_label": "pick-and-place",
                            "start_time": "Assumed",
                            "end_time": "Assume",
                            "weight_success": 0.0
                     },
                     "output_nodes": [
                            {
                                   "object_id": 180,
                                   "object_label": "cutting board",
                                   "object_states": [
                                          {
                                                 "state_id": 145,
                                                 "state_label": "ingredients on top"
                                          }
                                   ],
                                   "ingredients": [
                                          "scallion"
                                   ],
                                   "object_in_motion": "0",
                                   "has_portions": "False"
                            },
                            {
                                   "object_id": 468,
                                   "object_label": "scallion",
                                   "object_states": [
                                          {
                                                 "state_id": 176,
                                                 "state_label": "on cutting board"
                                          },
                                          {
                                                 "state_id": 262,
                                                 "state_label": "whole"
                                          }
                                   ],
                                   "ingredients": [],
                                   "object_in_motion": "1",
                                   "has_portions": "False"
                            }
                     ]
              },
              {
                     "input_nodes": [
                            {
                                   "object_id": 180,
                                   "object_label": "cutting board",
                                   "object_states": [
                                          {
                                                 "state_id": 145,
                                                 "state_label": "ingredients on top"
                                          }
                                   ],
                                   "ingredients": [
                                          "scallion"
                                   ],
                                   "object_in_motion": "0",
                                   "has_portions": "False"
                            },
                            {
                                   "object_id": 293,
                                   "object_label": "knife",
                                   "object_states": [
                                          {
                                                 "state_id": 23,
                                                 "state_label": "clean"
                                          }
                                   ],
                                   "ingredients": [],
                                   "object_in_motion": "1",
                                   "has_portions": "False"
                            },
                            {
                                   "object_id": 468,
                                   "object_label": "scallion",
                                   "object_states": [
                                          {
                                                 "state_id": 176,
                                                 "state_label": "on cutting board"
                                          },
                                          {
                                                 "state_id": 262,
                                                 "state_label": "whole"
                                          }
                                   ],
                                   "ingredients": [],
                                   "object_in_motion": "1",
                                   "has_portions": "False"
                            }
                     ],
                     "motion_node": {
                            "motion_id": "8",
                            "motion_label": "chop",
                            "start_time": "0:09",
                            "end_time": "0:24",
                            "weight_success": 0.0
                     },
                     "output_nodes": [
                            {
                                   "object_id": 468,
                                   "object_label": "scallion",
                                   "object_states": [
                                          {
                                                 "state_id": 21,
                                                 "state_label": "chopped"
                                          },
                                          {
                                                 "state_id": 176,
                                                 "state_label": "on cutting board"
                                          }
                                   ],
                                   "ingredients": [],
                                   "object_in_motion": "0",
                                   "has_portions": "False"
                            }
                     ]
              },
              {
                     "input_nodes": [
                            {
                                   "object_id": 180,
                                   "object_label": "cutting board",
                                   "object_states": [
                                          {
                                                 "state_id": 145,
                                                 "state_label": "ingredients on top"
                                          }
                                   ],
                                   "ingredients": [
                                          "scallion"
                                   ],
                                   "object_in_motion": "1",
                                   "has_portions": "False"
                            },
                            {
                                   "object_id": 468,
                                   "object_label": "scallion",
                                   "object_states": [
                                          {
                                                 "state_id": 21,
                                                 "state_label": "chopped"
                                          },
                                          {
                                                 "state_id": 176,
                                                 "state_label": "on cutting board"
                                          }
                                   ],
                                   "ingredients": [],
                                   "object_in_motion": "1",
                                   "has_portions": "False"
                            },
                            {
                                   "object_id": 51,
                                   "object_label": "bowl",
                                   "object_states": [
                                          {
                                                 "state_id": 54,
                                                 "state_label": "empty"
                                          }
                                   ],
                                   "ingredients": [],
                                   "object_in_motion": "0",
                                   "has_portions": "False"
                            }
                     ],
                     "motion_node": {
                            "motion_id": "40",
                            "motion_label": "pour",
                            "start_time": "Assumed",
                            "end_time": "Assumed",
                            "weight_success": 0.0
                     },
                     "output_nodes": [
                            {
                                   "object_id": 51,
                                   "object_label": "bowl",
                                   "object_states": [
                                          {
                                                 "state_id": 139,
                                                 "state_label": "ingredients inside"
                                          }
                                   ],
                                   "ingredients": [
                                          "scallion"
                                   ],
                                   "object_in_motion": "0",
                                   "has_portions": "False"
                            },
                            {
                                   "object_id": 468,
                                   "object_label": "scallion",
                                   "object_states": [
                                          {
                                                 "state_id": 21,
                                                 "state_label": "chopped"
                                          },
                                          {
                                                 "state_id": 84,
                                                 "state_label": "in bowl"
                                          }
                                   ],
                                   "ingredients": [],
                                   "object_in_motion": "1",
                                   "has_portions": "False"
                            }
                     ]
              },
              {
                     "input_nodes": [
                            {
                                   "object_id": 180,
                                   "object_label": "cutting board",
                                   "object_states": [
                                          {
                                                 "state_id": 54,
                                                 "state_label": "empty"
                                          }
                                   ],
                                   "ingredients": [],
                                   "object_in_motion": "0",
                                   "has_portions": "False"
                            },
                            {
                                   "object_id": 537,
                                   "object_label": "tofu",
                                   "object_states": [
                                          {
                                                 "state_id": 262,
                                                 "state_label": "whole"
                                          }
                                   ],
                                   "ingredients": [],
                                   "object_in_motion": "1",
                                   "has_portions": "False"
                            }
                     ],
                     "motion_node": {
                            "motion_id": "38",
                            "motion_label": "pick-and-place",
                            "start_time": "Assumed",
                            "end_time": "Assumed",
                            "weight_success": 0.0
                     },
                     "output_nodes": [
                            {
                                   "object_id": 180,
                                   "object_label": "cutting board",
                                   "object_states": [
                                          {
                                                 "state_id": 145,
                                                 "state_label": "ingredients on top"
                                          }
                                   ],
                                   "ingredients": [
                                          "tofu"
                                   ],
                                   "object_in_motion": "0",
                                   "has_portions": "False"
                            },
                            {
                                   "object_id": 537,
                                   "object_label": "tofu",
                                   "object_states": [
                                          {
                                                 "state_id": 176,
                                                 "state_label": "on cutting board"
                                          },
                                          {
                                                 "state_id": 262,
                                                 "state_label": "whole"
                                          }
                                   ],
                                   "ingredients": [],
                                   "object_in_motion": "1",
                                   "has_portions": "False"
                            }
                     ]
              },
              {
                     "input_nodes": [
                            {
                                   "object_id": 180,
                                   "object_label": "cutting board",
                                   "object_states": [
                                          {
                                                 "state_id": 145,
                                                 "state_label": "ingredients on top"
                                          }
                                   ],
                                   "ingredients": [
                                          "tofu"
                                   ],
                                   "object_in_motion": "0",
                                   "has_portions": "False"
                            },
                            {
                                   "object_id": 537,
                                   "object_label": "tofu",
                                   "object_states": [
                                          {
                                                 "state_id": 176,
                                                 "state_label": "on cutting board"
                                          },
                                          {
                                                 "state_id": 262,
                                                 "state_label": "whole"
                                          }
                                   ],
                                   "ingredients": [],
                                   "object_in_motion": "0",
                                   "has_portions": "False"
                            },
                            {
                                   "object_id": 293,
                                   "object_label": "knife",
                                   "object_states": [
                                          {
                                                 "state_id": 23,
                                                 "state_label": "clean"
                                          }
                                   ],
                                   "ingredients": [],
                                   "object_in_motion": "1",
                                   "has_portions": "False"
                            }
                     ],
                     "motion_node": {
                            "motion_id": "15",
                            "motion_label": "cut",
                            "start_time": "0:28",
                            "end_time": "0:44",
                            "weight_success": 0.0
                     },
                     "output_nodes": [
                            {
                                   "object_id": 537,
                                   "object_label": "tofu",
                                   "object_states": [
                                          {
                                                 "state_id": 44,
                                                 "state_label": "diced"
                                          },
                                          {
                                                 "state_id": 176,
                                                 "state_label": "on cutting board"
                                          }
                                   ],
                                   "ingredients": [],
                                   "object_in_motion": "0",
                                   "has_portions": "False"
                            }
                     ]
              },
              {
                     "input_nodes": [
                            {
                                   "object_id": 180,
                                   "object_label": "cutting board",
                                   "object_states": [
                                          {
                                                 "state_id": 145,
                                                 "state_label": "ingredients on top"
                                          }
                                   ],
                                   "ingredients": [
                                          "tofu"
                                   ],
                                   "object_in_motion": "1",
                                   "has_portions": "False"
                            },
                            {
                                   "object_id": 537,
                                   "object_label": "tofu",
                                   "object_states": [
                                          {
                                                 "state_id": 44,
                                                 "state_label": "diced"
                                          },
                                          {
                                                 "state_id": 176,
                                                 "state_label": "on cutting board"
                                          }
                                   ],
                                   "ingredients": [],
                                   "object_in_motion": "1",
                                   "has_portions": "False"
                            },
                            {
                                   "object_id": 51,
                                   "object_label": "bowl",
                                   "object_states": [
                                          {
                                                 "state_id": 54,
                                                 "state_label": "empty"
                                          }
                                   ],
                                   "ingredients": [],
                                   "object_in_motion": "0",
                                   "has_portions": "False"
                            }
                     ],
                     "motion_node": {
                            "motion_id": "53",
                            "motion_label": "scrape",
                            "start_time": "Assumed",
                            "end_time": "Assumed",
                            "weight_success": 0.0
                     },
                     "output_nodes": [
                            {
                                   "object_id": 51,
                                   "object_label": "bowl",
                                   "object_states": [
                                          {
                                                 "state_id": 139,
                                                 "state_label": "ingredients inside"
                                          }
                                   ],
                                   "ingredients": [
                                          "tofu"
                                   ],
                                   "object_in_motion": "0",
                                   "has_portions": "False"
                            },
                            {
                                   "object_id": 537,
                                   "object_label": "tofu",
                                   "object_states": [
                                          {
                                                 "state_id": 44,
                                                 "state_label": "diced"
                                          },
                                          {
                                                 "state_id": 84,
                                                 "state_label": "in bowl"
                                          }
                                   ],
                                   "ingredients": [],
                                   "object_in_motion": "0",
                                   "has_portions": "False"
                            }
                     ]
              },
              {
                     "input_nodes": [
                            {
                                   "object_id": 516,
                                   "object_label": "stove",
                                   "object_states": [
                                          {
                                                 "state_id": 168,
                                                 "state_label": "on"
                                          }
                                   ],
                                   "ingredients": [],
                                   "object_in_motion": "0",
                                   "has_portions": "False"
                            },
                            {
                                   "object_id": 420,
                                   "object_label": "pot",
                                   "object_states": [
                                          {
                                                 "state_id": 54,
                                                 "state_label": "empty"
                                          }
                                   ],
                                   "ingredients": [],
                                   "object_in_motion": "0",
                                   "has_portions": "False"
                            }
                     ],
                     "motion_node": {
                            "motion_id": "30",
                            "motion_label": "heat",
                            "start_time": "Assumed",
                            "end_time": "Assumed",
                            "weight_success": 0.0
                     },
                     "output_nodes": [
                            {
                                   "object_id": 516,
                                   "object_label": "stove",
                                   "object_states": [
                                          {
                                                 "state_id": 168,
                                                 "state_label": "on"
                                          },
                                          {
                                                 "state_id": 220,
                                                 "state_label": "pot on top"
                                          }
                                   ],
                                   "ingredients": [],
                                   "object_in_motion": "0",
                                   "has_portions": "False"
                            },
                            {
                                   "object_id": 420,
                                   "object_label": "pot",
                                   "object_states": [
                                          {
                                                 "state_id": 75,
                                                 "state_label": "heated"
                                          },
                                          {
                                                 "state_id": 198,
                                                 "state_label": "on stove"
                                          }
                                   ],
                                   "ingredients": [],
                                   "object_in_motion": "0",
                                   "has_portions": "False"
                            }
                     ]
              },
              {
                     "input_nodes": [
                            {
                                   "object_id": 420,
                                   "object_label": "pot",
                                   "object_states": [
                                          {
                                                 "state_id": 75,
                                                 "state_label": "heated"
                                          },
                                          {
                                                 "state_id": 198,
                                                 "state_label": "on stove"
                                          }
                                   ],
                                   "ingredients": [],
                                   "object_in_motion": "0",
                                   "has_portions": "False"
                            },
                            {
                                   "object_id": 334,
                                   "object_label": "measuring cup",
                                   "object_states": [
                                          {
                                                 "state_id": 139,
                                                 "state_label": "ingredients inside"
                                          }
                                   ],
                                   "ingredients": [
                                          "water"
                                   ],
                                   "object_in_motion": "1",
                                   "has_portions": "False"
                            },
                            {
                                   "object_id": 567,
                                   "object_label": "water",
                                   "object_states": [
                                          {
                                                 "state_id": 103,
                                                 "state_label": "in measuring cup"
                                          }
                                   ],
                                   "ingredients": [],
                                   "object_in_motion": "1",
                                   "has_portions": "False"
                            }
                     ],
                     "motion_node": {
                            "motion_id": "40",
                            "motion_label": "pour",
                            "start_time": "0:51",
                            "end_time": "0:55",
                            "weight_success": 0.0
                     },
                     "output_nodes": [
                            {
                                   "object_id": 420,
                                   "object_label": "pot",
                                   "object_states": [
                                          {
                                                 "state_id": 138,
                                                 "state_label": "ingredients heated inside"
                                          },
                                          {
                                                 "state_id": 198,
                                                 "state_label": "on stove"
                                          }
                                   ],
                                   "ingredients": [
                                          "water"
                                   ],
                                   "object_in_motion": "0",
                                   "has_portions": "False"
                            },
                            {
                                   "object_id": 567,
                                   "object_label": "water",
                                   "object_states": [
                                          {
                                                 "state_id": 116,
                                                 "state_label": "in pot"
                                          }
                                   ],
                                   "ingredients": [],
                                   "object_in_motion": "1",
                                   "has_portions": "False"
                            }
                     ]
              },
              {
                     "input_nodes": [
                            {
                                   "object_id": 420,
                                   "object_label": "pot",
                                   "object_states": [
                                          {
                                                 "state_id": 138,
                                                 "state_label": "ingredients heated inside"
                                          },
                                          {
                                                 "state_id": 198,
                                                 "state_label": "on stove"
                                          }
                                   ],
                                   "ingredients": [
                                          "water"
                                   ],
                                   "object_in_motion": "0",
                                   "has_portions": "False"
                            },
                            {
                                   "object_id": 51,
                                   "object_label": "bowl",
                                   "object_states": [
                                          {
                                                 "state_id": 139,
                                                 "state_label": "ingredients inside"
                                          }
                                   ],
                                   "ingredients": [
                                          "dashi"
                                   ],
                                   "object_in_motion": "1",
                                   "has_portions": "False"
                            },
                            {
                                   "object_id": 183,
                                   "object_label": "dashi",
                                   "object_states": [
                                          {
                                                 "state_id": 84,
                                                 "state_label": "in bowl"
                                          }
                                   ],
                                   "ingredients": [],
                                   "object_in_motion": "1",
                                   "has_portions": "False"
                            }
                     ],
                     "motion_node": {
                            "motion_id": "40",
                            "motion_label": "pour",
                            "start_time": "1:02",
                            "end_time": "1:05",
                            "weight_success": 0.0
                     },
                     "output_nodes": [
                            {
                                   "object_id": 420,
                                   "object_label": "pot",
                                   "object_states": [
                                          {
                                                 "state_id": 138,
                                                 "state_label": "ingredients heated inside"
                                          },
                                          {
                                                 "state_id": 198,
                                                 "state_label": "on stove"
                                          }
                                   ],
                                   "ingredients": [
                                          "dashi",
                                          "water"
                                   ],
                                   "object_in_motion": "0",
                                   "has_portions": "False"
                            },
                            {
                                   "object_id": 183,
                                   "object_label": "dashi",
                                   "object_states": [
                                          {
                                                 "state_id": 116,
                                                 "state_label": "in pot"
                                          }
                                   ],
                                   "ingredients": [],
                                   "object_in_motion": "1",
                                   "has_portions": "False"
                            }
                     ]
              },
              {
                     "input_nodes": [
                            {
                                   "object_id": 420,
                                   "object_label": "pot",
                                   "object_states": [
                                          {
                                                 "state_id": 138,
                                                 "state_label": "ingredients heated inside"
                                          },
                                          {
                                                 "state_id": 198,
                                                 "state_label": "on stove"
                                          }
                                   ],
                                   "ingredients": [
                                          "water"
                                   ],
                                   "object_in_motion": "0",
                                   "has_portions": "False"
                            },
                            {
                                   "object_id": 183,
                                   "object_label": "dashi",
                                   "object_states": [
                                          {
                                                 "state_id": 116,
                                                 "state_label": "in pot"
                                          }
                                   ],
                                   "ingredients": [],
                                   "object_in_motion": "0",
                                   "has_portions": "False"
                            },
                            {
                                   "object_id": 507,
                                   "object_label": "spoon",
                                   "object_states": [
                                          {
                                                 "state_id": 23,
                                                 "state_label": "clean"
                                          }
                                   ],
                                   "ingredients": [],
                                   "object_in_motion": "1",
                                   "has_portions": "False"
                            }
                     ],
                     "motion_node": {
                            "motion_id": "66",
                            "motion_label": "stir",
                            "start_time": "1:11",
                            "end_time": "1:15:50",
                            "weight_success": 0.0
                     },
                     "output_nodes": [
                            {
                                   "object_id": 420,
                                   "object_label": "pot",
                                   "object_states": [
                                          {
                                                 "state_id": 143,
                                                 "state_label": "ingredients mixed inside"
                                          },
                                          {
                                                 "state_id": 198,
                                                 "state_label": "on stove"
                                          }
                                   ],
                                   "ingredients": [
                                          "soup stock"
                                   ],
                                   "object_in_motion": "0",
                                   "has_portions": "False"
                            },
                            {
                                   "object_id": 494,
                                   "object_label": "soup stock",
                                   "object_states": [
                                          {
                                                 "state_id": 116,
                                                 "state_label": "in pot"
                                          },
                                          {
                                                 "state_id": 139,
                                                 "state_label": "ingredients inside"
                                          }
                                   ],
                                   "ingredients": [
                                          "dashi"
                                   ],
                                   "object_in_motion": "0",
                                   "has_portions": "False"
                            }
                     ]
              },
              {
                     "input_nodes": [
                            {
                                   "object_id": 420,
                                   "object_label": "pot",
                                   "object_states": [
                                          {
                                                 "state_id": 143,
                                                 "state_label": "ingredients mixed inside"
                                          },
                                          {
                                                 "state_id": 198,
                                                 "state_label": "on stove"
                                          }
                                   ],
                                   "ingredients": [
                                          "soup stock"
                                   ],
                                   "object_in_motion": "0",
                                   "has_portions": "False"
                            },
                            {
                                   "object_id": 341,
                                   "object_label": "miso",
                                   "object_states": [
                                          {
                                                 "state_id": 84,
                                                 "state_label": "in bowl"
                                          }
                                   ],
                                   "ingredients": [],
                                   "object_in_motion": "1",
                                   "has_portions": "False"
                            },
                            {
                                   "object_id": 51,
                                   "object_label": "bowl",
                                   "object_states": [
                                          {
                                                 "state_id": 139,
                                                 "state_label": "ingredients inside"
                                          }
                                   ],
                                   "ingredients": [
                                          "miso"
                                   ],
                                   "object_in_motion": "0",
                                   "has_portions": "False"
                            },
                            {
                                   "object_id": 507,
                                   "object_label": "spoon",
                                   "object_states": [
                                          {
                                                 "state_id": 23,
                                                 "state_label": "clean"
                                          }
                                   ],
                                   "ingredients": [],
                                   "object_in_motion": "1",
                                   "has_portions": "False"
                            }
                     ],
                     "motion_node": {
                            "motion_id": "40",
                            "motion_label": "pour",
                            "start_time": "1:30",
                            "end_time": "1:34",
                            "weight_success": 0.0
                     },
                     "output_nodes": [
                            {
                                   "object_id": 420,
                                   "object_label": "pot",
                                   "object_states": [
                                          {
                                                 "state_id": 139,
                                                 "state_label": "ingredients inside"
                                          },
                                          {
                                                 "state_id": 198,
                                                 "state_label": "on stove"
                                          }
                                   ],
                                   "ingredients": [
                                          "miso",
                                          "soup stock"
                                   ],
                                   "object_in_motion": "0",
                                   "has_portions": "False"
                            },
                            {
                                   "object_id": 341,
                                   "object_label": "miso",
                                   "object_states": [
                                          {
                                                 "state_id": 116,
                                                 "state_label": "in pot"
                                          }
                                   ],
                                   "ingredients": [],
                                   "object_in_motion": "1",
                                   "has_portions": "False"
                            }
                     ]
              },
              {
                     "input_nodes": [
                            {
                                   "object_id": 420,
                                   "object_label": "pot",
                                   "object_states": [
                                          {
                                                 "state_id": 139,
                                                 "state_label": "ingredients inside"
                                          },
                                          {
                                                 "state_id": 198,
                                                 "state_label": "on stove"
                                          }
                                   ],
                                   "ingredients": [
                                          "miso",
                                          "soup stock"
                                   ],
                                   "object_in_motion": "0",
                                   "has_portions": "False"
                            },
                            {
                                   "object_id": 341,
                                   "object_label": "miso",
                                   "object_states": [
                                          {
                                                 "state_id": 116,
                                                 "state_label": "in pot"
                                          }
                                   ],
                                   "ingredients": [],
                                   "object_in_motion": "0",
                                   "has_portions": "False"
                            },
                            {
                                   "object_id": 507,
                                   "object_label": "spoon",
                                   "object_states": [
                                          {
                                                 "state_id": 23,
                                                 "state_label": "clean"
                                          }
                                   ],
                                   "ingredients": [],
                                   "object_in_motion": "1",
                                   "has_portions": "False"
                            }
                     ],
                     "motion_node": {
                            "motion_id": "66",
                            "motion_label": "stir",
                            "start_time": "1:36",
                            "end_time": "1:48",
                            "weight_success": 0.0
                     },
                     "output_nodes": [
                            {
                                   "object_id": 494,
                                   "object_label": "soup stock",
                                   "object_states": [
                                          {
                                                 "state_id": 116,
                                                 "state_label": "in pot"
                                          },
                                          {
                                                 "state_id": 139,
                                                 "state_label": "ingredients inside"
                                          }
                                   ],
                                   "ingredients": [
                                          "dashi",
                                          "miso"
                                   ],
                                   "object_in_motion": "0",
                                   "has_portions": "False"
                            },
                            {
                                   "object_id": 420,
                                   "object_label": "pot",
                                   "object_states": [
                                          {
                                                 "state_id": 143,
                                                 "state_label": "ingredients mixed inside"
                                          },
                                          {
                                                 "state_id": 198,
                                                 "state_label": "on stove"
                                          }
                                   ],
                                   "ingredients": [
                                          "miso",
                                          "soup stock"
                                   ],
                                   "object_in_motion": "0",
                                   "has_portions": "False"
                            }
                     ]
              },
              {
                     "input_nodes": [
                            {
                                   "object_id": 420,
                                   "object_label": "pot",
                                   "object_states": [
                                          {
                                                 "state_id": 143,
                                                 "state_label": "ingredients mixed inside"
                                          },
                                          {
                                                 "state_id": 198,
                                                 "state_label": "on stove"
                                          }
                                   ],
                                   "ingredients": [
                                          "miso",
                                          "soup stock"
                                   ],
                                   "object_in_motion": "0",
                                   "has_portions": "False"
                            },
                            {
                                   "object_id": 51,
                                   "object_label": "bowl",
                                   "object_states": [
                                          {
                                                 "state_id": 139,
                                                 "state_label": "ingredients inside"
                                          }
                                   ],
                                   "ingredients": [
                                          "tofu"
                                   ],
                                   "object_in_motion": "1",
                                   "has_portions": "False"
                            },
                            {
                                   "object_id": 537,
                                   "object_label": "tofu",
                                   "object_states": [
                                          {
                                                 "state_id": 44,
                                                 "state_label": "diced"
                                          },
                                          {
                                                 "state_id": 84,
                                                 "state_label": "in bowl"
                                          }
                                   ],
                                   "ingredients": [],
                                   "object_in_motion": "1",
                                   "has_portions": "False"
                            }
                     ],
                     "motion_node": {
                            "motion_id": "40",
                            "motion_label": "pour",
                            "start_time": "1:53",
                            "end_time": "1:57",
                            "weight_success": 0.0
                     },
                     "output_nodes": [
                            {
                                   "object_id": 420,
                                   "object_label": "pot",
                                   "object_states": [
                                          {
                                                 "state_id": 139,
                                                 "state_label": "ingredients inside"
                                          },
                                          {
                                                 "state_id": 198,
                                                 "state_label": "on stove"
                                          }
                                   ],
                                   "ingredients": [
                                          "soup stock",
                                          "tofu"
                                   ],
                                   "object_in_motion": "0",
                                   "has_portions": "False"
                            },
                            {
                                   "object_id": 537,
                                   "object_label": "tofu",
                                   "object_states": [
                                          {
                                                 "state_id": 44,
                                                 "state_label": "diced"
                                          },
                                          {
                                                 "state_id": 116,
                                                 "state_label": "in pot"
                                          }
                                   ],
                                   "ingredients": [],
                                   "object_in_motion": "1",
                                   "has_portions": "False"
                            }
                     ]
              },
              {
                     "input_nodes": [
                            {
                                   "object_id": 420,
                                   "object_label": "pot",
                                   "object_states": [
                                          {
                                                 "state_id": 139,
                                                 "state_label": "ingredients inside"
                                          },
                                          {
                                                 "state_id": 198,
                                                 "state_label": "on stove"
                                          }
                                   ],
                                   "ingredients": [
                                          "soup stock",
                                          "tofu"
                                   ],
                                   "object_in_motion": "0",
                                   "has_portions": "False"
                            },
                            {
                                   "object_id": 51,
                                   "object_label": "bowl",
                                   "object_states": [
                                          {
                                                 "state_id": 139,
                                                 "state_label": "ingredients inside"
                                          }
                                   ],
                                   "ingredients": [
                                          "scallion"
                                   ],
                                   "object_in_motion": "1",
                                   "has_portions": "False"
                            },
                            {
                                   "object_id": 468,
                                   "object_label": "scallion",
                                   "object_states": [
                                          {
                                                 "state_id": 21,
                                                 "state_label": "chopped"
                                          },
                                          {
                                                 "state_id": 84,
                                                 "state_label": "in bowl"
                                          }
                                   ],
                                   "ingredients": [],
                                   "object_in_motion": "1",
                                   "has_portions": "False"
                            }
                     ],
                     "motion_node": {
                            "motion_id": "40",
                            "motion_label": "pour",
                            "start_time": "2:04",
                            "end_time": "2:06",
                            "weight_success": 0.0
                     },
                     "output_nodes": [
                            {
                                   "object_id": 420,
                                   "object_label": "pot",
                                   "object_states": [
                                          {
                                                 "state_id": 139,
                                                 "state_label": "ingredients inside"
                                          },
                                          {
                                                 "state_id": 198,
                                                 "state_label": "on stove"
                                          }
                                   ],
                                   "ingredients": [
                                          "scallion",
                                          "soup stock",
                                          "tofu"
                                   ],
                                   "object_in_motion": "0",
                                   "has_portions": "False"
                            },
                            {
                                   "object_id": 468,
                                   "object_label": "scallion",
                                   "object_states": [
                                          {
                                                 "state_id": 21,
                                                 "state_label": "chopped"
                                          },
                                          {
                                                 "state_id": 116,
                                                 "state_label": "in pot"
                                          }
                                   ],
                                   "ingredients": [],
                                   "object_in_motion": "1",
                                   "has_portions": "False"
                            }
                     ]
              },
              {
                     "input_nodes": [
                            {
                                   "object_id": 420,
                                   "object_label": "pot",
                                   "object_states": [
                                          {
                                                 "state_id": 139,
                                                 "state_label": "ingredients inside"
                                          },
                                          {
                                                 "state_id": 198,
                                                 "state_label": "on stove"
                                          }
                                   ],
                                   "ingredients": [
                                          "scallion",
                                          "soup stock",
                                          "tofu"
                                   ],
                                   "object_in_motion": "0",
                                   "has_portions": "False"
                            },
                            {
                                   "object_id": 507,
                                   "object_label": "spoon",
                                   "object_states": [
                                          {
                                                 "state_id": 23,
                                                 "state_label": "clean"
                                          }
                                   ],
                                   "ingredients": [],
                                   "object_in_motion": "1",
                                   "has_portions": "False"
                            }
                     ],
                     "motion_node": {
                            "motion_id": "66",
                            "motion_label": "stir",
                            "start_time": "2:08",
                            "end_time": "2:11",
                            "weight_success": 0.0
                     },
                     "output_nodes": [
                            {
                                   "object_id": 420,
                                   "object_label": "pot",
                                   "object_states": [
                                          {
                                                 "state_id": 143,
                                                 "state_label": "ingredients mixed inside"
                                          },
                                          {
                                                 "state_id": 198,
                                                 "state_label": "on stove"
                                          }
                                   ],
                                   "ingredients": [
                                          "scallion",
                                          "soup stock",
                                          "tofu"
                                   ],
                                   "object_in_motion": "0",
                                   "has_portions": "False"
                            }
                     ]
              },
              {
                     "input_nodes": [
                            {
                                   "object_id": 420,
                                   "object_label": "pot",
                                   "object_states": [
                                          {
                                                 "state_id": 143,
                                                 "state_label": "ingredients mixed inside"
                                          },
                                          {
                                                 "state_id": 198,
                                                 "state_label": "on stove"
                                          }
                                   ],
                                   "ingredients": [
                                          "scallion",
                                          "soup stock",
                                          "tofu"
                                   ],
                                   "object_in_motion": "0",
                                   "has_portions": "False"
                            },
                            {
                                   "object_id": 494,
                                   "object_label": "soup stock",
                                   "object_states": [
                                          {
                                                 "state_id": 116,
                                                 "state_label": "in pot"
                                          },
                                          {
                                                 "state_id": 139,
                                                 "state_label": "ingredients inside"
                                          }
                                   ],
                                   "ingredients": [
                                          "dashi",
                                          "miso"
                                   ],
                                   "object_in_motion": "0",
                                   "has_portions": "False"
                            },
                            {
                                   "object_id": 516,
                                   "object_label": "stove",
                                   "object_states": [
                                          {
                                                 "state_id": 168,
                                                 "state_label": "on"
                                          },
                                          {
                                                 "state_id": 220,
                                                 "state_label": "pot on top"
                                          }
                                   ],
                                   "ingredients": [],
                                   "object_in_motion": "0",
                                   "has_portions": "False"
                            }
                     ],
                     "motion_node": {
                            "motion_id": "10",
                            "motion_label": "cook",
                            "start_time": "Assumed",
                            "end_time": "Assumed",
                            "weight_success": 0.0
                     },
                     "output_nodes": [
                            {
                                   "object_id": 420,
                                   "object_label": "pot",
                                   "object_states": [
                                          {
                                                 "state_id": 48,
                                                 "state_label": "dish inside"
                                          },
                                          {
                                                 "state_id": 198,
                                                 "state_label": "on stove"
                                          }
                                   ],
                                   "ingredients": [
                                          "miso soup"
                                   ],
                                   "object_in_motion": "0",
                                   "has_portions": "False"
                            },
                            {
                                   "object_id": 342,
                                   "object_label": "miso soup",
                                   "object_states": [
                                          {
                                                 "state_id": 116,
                                                 "state_label": "in pot"
                                          },
                                          {
                                                 "state_id": 139,
                                                 "state_label": "ingredients inside"
                                          }
                                   ],
                                   "ingredients": [
                                          "dashi",
                                          "miso"
                                   ],
                                   "object_in_motion": "0",
                                   "has_portions": "False"
                            }
                     ]
              },
              {
                     "input_nodes": [
                            {
                                   "object_id": 420,
                                   "object_label": "pot",
                                   "object_states": [
                                          {
                                                 "state_id": 48,
                                                 "state_label": "dish inside"
                                          },
                                          {
                                                 "state_id": 198,
                                                 "state_label": "on stove"
                                          }
                                   ],
                                   "ingredients": [
                                          "miso soup"
                                   ],
                                   "object_in_motion": "0",
                                   "has_portions": "False"
                            },
                            {
                                   "object_id": 342,
                                   "object_label": "miso soup",
                                   "object_states": [
                                          {
                                                 "state_id": 116,
                                                 "state_label": "in pot"
                                          },
                                          {
                                                 "state_id": 139,
                                                 "state_label": "ingredients inside"
                                          }
                                   ],
                                   "ingredients": [
                                          "dashi",
                                          "miso"
                                   ],
                                   "object_in_motion": "1",
                                   "has_portions": "False"
                            },
                            {
                                   "object_id": 51,
                                   "object_label": "bowl",
                                   "object_states": [
                                          {
                                                 "state_id": 54,
                                                 "state_label": "empty"
                                          }
                                   ],
                                   "ingredients": [],
                                   "object_in_motion": "0",
                                   "has_portions": "False"
                            },
                            {
                                   "object_id": 297,
                                   "object_label": "ladle",
                                   "object_states": [
                                          {
                                                 "state_id": 23,
                                                 "state_label": "clean"
                                          }
                                   ],
                                   "ingredients": [],
                                   "object_in_motion": "1",
                                   "has_portions": "False"
                            }
                     ],
                     "motion_node": {
                            "motion_id": "51",
                            "motion_label": "scoop and pour",
                            "start_time": "Assumed",
                            "end_time": "Assumed",
                            "weight_success": 0.0
                     },
                     "output_nodes": [
                            {
                                   "object_id": 51,
                                   "object_label": "bowl",
                                   "object_states": [
                                          {
                                                 "state_id": 48,
                                                 "state_label": "dish inside"
                                          }
                                   ],
                                   "ingredients": [
                                          "miso soup"
                                   ],
                                   "object_in_motion": "0",
                                   "has_portions": "False"
                            },
                            {
                                   "object_id": 342,
                                   "object_label": "miso soup",
                                   "object_states": [
                                          {
                                                 "state_id": 84,
                                                 "state_label": "in bowl"
                                          },
                                          {
                                                 "state_id": 139,
                                                 "state_label": "ingredients inside"
                                          }
                                   ],
                                   "ingredients": [
                                          "dashi",
                                          "miso"
                                   ],
                                   "object_in_motion": "1",
                                   "has_portions": "False"
                            }
                     ]
              }
       ]
}