{
       "functional_units": [
              {
                     "input_nodes": [
                            {
                                   "object_id": 522,
                                   "object_label": "sweet potato",
                                   "object_states": [
                                          {
                                                 "state_id": 262,
                                                 "state_label": "whole"
                                          }
                                   ],
                                   "ingredients": [],
                                   "object_in_motion": "0",
                                   "has_portions": "False"
                            },
                            {
                                   "object_id": 293,
                                   "object_label": "knife",
                                   "object_states": [
                                          {
                                                 "state_id": 23,
                                                 "state_label": "clean"
                                          }
                                   ],
                                   "ingredients": [],
                                   "object_in_motion": "1",
                                   "has_portions": "False"
                            }
                     ],
                     "motion_node": {
                            "motion_id": "37",
                            "motion_label": "peel",
                            "start_time": "0:31",
                            "end_time": "0:36",
                            "weight_success": 0.0
                     },
                     "output_nodes": [
                            {
                                   "object_id": 522,
                                   "object_label": "sweet potato",
                                   "object_states": [
                                          {
                                                 "state_id": 217,
                                                 "state_label": "peeled"
                                          }
                                   ],
                                   "ingredients": [],
                                   "object_in_motion": "0",
                                   "has_portions": "False"
                            }
                     ]
              },
              {
                     "input_nodes": [
                            {
                                   "object_id": 180,
                                   "object_label": "cutting board",
                                   "object_states": [
                                          {
                                                 "state_id": 54,
                                                 "state_label": "empty"
                                          }
                                   ],
                                   "ingredients": [],
                                   "object_in_motion": "0",
                                   "has_portions": "False"
                            },
                            {
                                   "object_id": 522,
                                   "object_label": "sweet potato",
                                   "object_states": [
                                          {
                                                 "state_id": 217,
                                                 "state_label": "peeled"
                                          }
                                   ],
                                   "ingredients": [],
                                   "object_in_motion": "1",
                                   "has_portions": "False"
                            }
                     ],
                     "motion_node": {
                            "motion_id": "38",
                            "motion_label": "pick-and-place",
                            "start_time": "Assumed",
                            "end_time": "Assumed",
                            "weight_success": 0.0
                     },
                     "output_nodes": [
                            {
                                   "object_id": 180,
                                   "object_label": "cutting board",
                                   "object_states": [
                                          {
                                                 "state_id": 145,
                                                 "state_label": "ingredients on top"
                                          }
                                   ],
                                   "ingredients": [
                                          "sweet potato"
                                   ],
                                   "object_in_motion": "0",
                                   "has_portions": "False"
                            },
                            {
                                   "object_id": 522,
                                   "object_label": "sweet potato",
                                   "object_states": [
                                          {
                                                 "state_id": 176,
                                                 "state_label": "on cutting board"
                                          },
                                          {
                                                 "state_id": 217,
                                                 "state_label": "peeled"
                                          }
                                   ],
                                   "ingredients": [],
                                   "object_in_motion": "1",
                                   "has_portions": "False"
                            }
                     ]
              },
              {
                     "input_nodes": [
                            {
                                   "object_id": 180,
                                   "object_label": "cutting board",
                                   "object_states": [
                                          {
                                                 "state_id": 145,
                                                 "state_label": "ingredients on top"
                                          }
                                   ],
                                   "ingredients": [
                                          "sweet potato"
                                   ],
                                   "object_in_motion": "0",
                                   "has_portions": "False"
                            },
                            {
                                   "object_id": 522,
                                   "object_label": "sweet potato",
                                   "object_states": [
                                          {
                                                 "state_id": 176,
                                                 "state_label": "on cutting board"
                                          },
                                          {
                                                 "state_id": 217,
                                                 "state_label": "peeled"
                                          }
                                   ],
                                   "ingredients": [],
                                   "object_in_motion": "0",
                                   "has_portions": "False"
                            },
                            {
                                   "object_id": 293,
                                   "object_label": "knife",
                                   "object_states": [
                                          {
                                                 "state_id": 23,
                                                 "state_label": "clean"
                                          }
                                   ],
                                   "ingredients": [],
                                   "object_in_motion": "1",
                                   "has_portions": "False"
                            }
                     ],
                     "motion_node": {
                            "motion_id": "15",
                            "motion_label": "cut",
                            "start_time": "0:37",
                            "end_time": "1:01",
                            "weight_success": 0.0
                     },
                     "output_nodes": [
                            {
                                   "object_id": 522,
                                   "object_label": "sweet potato",
                                   "object_states": [
                                          {
                                                 "state_id": 21,
                                                 "state_label": "chopped"
                                          },
                                          {
                                                 "state_id": 176,
                                                 "state_label": "on cutting board"
                                          }
                                   ],
                                   "ingredients": [],
                                   "object_in_motion": "0",
                                   "has_portions": "False"
                            }
                     ]
              },
              {
                     "input_nodes": [
                            {
                                   "object_id": 413,
                                   "object_label": "plastic bag",
                                   "object_states": [
                                          {
                                                 "state_id": 54,
                                                 "state_label": "empty"
                                          }
                                   ],
                                   "ingredients": [],
                                   "object_in_motion": "0",
                                   "has_portions": "False"
                            }
                     ],
                     "motion_node": {
                            "motion_id": "36",
                            "motion_label": "open",
                            "start_time": "1:02",
                            "end_time": "1:07",
                            "weight_success": 0.0
                     },
                     "output_nodes": [
                            {
                                   "object_id": 413,
                                   "object_label": "plastic bag",
                                   "object_states": [
                                          {
                                                 "state_id": 205,
                                                 "state_label": "opened"
                                          }
                                   ],
                                   "ingredients": [],
                                   "object_in_motion": "0",
                                   "has_portions": "False"
                            }
                     ]
              },
              {
                     "input_nodes": [
                            {
                                   "object_id": 522,
                                   "object_label": "sweet potato",
                                   "object_states": [
                                          {
                                                 "state_id": 21,
                                                 "state_label": "chopped"
                                          },
                                          {
                                                 "state_id": 176,
                                                 "state_label": "on cutting board"
                                          }
                                   ],
                                   "ingredients": [],
                                   "object_in_motion": "1",
                                   "has_portions": "False"
                            },
                            {
                                   "object_id": 180,
                                   "object_label": "cutting board",
                                   "object_states": [
                                          {
                                                 "state_id": 145,
                                                 "state_label": "ingredients on top"
                                          }
                                   ],
                                   "ingredients": [
                                          "sweet potato"
                                   ],
                                   "object_in_motion": "0",
                                   "has_portions": "False"
                            },
                            {
                                   "object_id": 413,
                                   "object_label": "plastic bag",
                                   "object_states": [
                                          {
                                                 "state_id": 205,
                                                 "state_label": "opened"
                                          }
                                   ],
                                   "ingredients": [],
                                   "object_in_motion": "0",
                                   "has_portions": "False"
                            }
                     ],
                     "motion_node": {
                            "motion_id": "38",
                            "motion_label": "pick-and-place",
                            "start_time": "1:06",
                            "end_time": "1:11",
                            "weight_success": 0.0
                     },
                     "output_nodes": [
                            {
                                   "object_id": 413,
                                   "object_label": "plastic bag",
                                   "object_states": [
                                          {
                                                 "state_id": 139,
                                                 "state_label": "ingredients inside"
                                          }
                                   ],
                                   "ingredients": [
                                          "sweet potato"
                                   ],
                                   "object_in_motion": "0",
                                   "has_portions": "False"
                            },
                            {
                                   "object_id": 522,
                                   "object_label": "sweet potato",
                                   "object_states": [
                                          {
                                                 "state_id": 21,
                                                 "state_label": "chopped"
                                          },
                                          {
                                                 "state_id": 77,
                                                 "state_label": "in bag"
                                          }
                                   ],
                                   "ingredients": [],
                                   "object_in_motion": "1",
                                   "has_portions": "False"
                            }
                     ]
              },
              {
                     "input_nodes": [
                            {
                                   "object_id": 413,
                                   "object_label": "plastic bag",
                                   "object_states": [
                                          {
                                                 "state_id": 139,
                                                 "state_label": "ingredients inside"
                                          }
                                   ],
                                   "ingredients": [
                                          "sweet potato"
                                   ],
                                   "object_in_motion": "0",
                                   "has_portions": "False"
                            },
                            {
                                   "object_id": 51,
                                   "object_label": "bowl",
                                   "object_states": [
                                          {
                                                 "state_id": 139,
                                                 "state_label": "ingredients inside"
                                          }
                                   ],
                                   "ingredients": [
                                          "flour"
                                   ],
                                   "object_in_motion": "1",
                                   "has_portions": "False"
                            },
                            {
                                   "object_id": 215,
                                   "object_label": "flour",
                                   "object_states": [
                                          {
                                                 "state_id": 84,
                                                 "state_label": "in bowl"
                                          },
                                          {
                                                 "state_id": 222,
                                                 "state_label": "powder"
                                          }
                                   ],
                                   "ingredients": [],
                                   "object_in_motion": "1",
                                   "has_portions": "False"
                            }
                     ],
                     "motion_node": {
                            "motion_id": "40",
                            "motion_label": "pour",
                            "start_time": "1:12",
                            "end_time": "1:16",
                            "weight_success": 0.0
                     },
                     "output_nodes": [
                            {
                                   "object_id": 413,
                                   "object_label": "plastic bag",
                                   "object_states": [
                                          {
                                                 "state_id": 139,
                                                 "state_label": "ingredients inside"
                                          }
                                   ],
                                   "ingredients": [
                                          "flour",
                                          "sweet potato"
                                   ],
                                   "object_in_motion": "0",
                                   "has_portions": "False"
                            },
                            {
                                   "object_id": 215,
                                   "object_label": "flour",
                                   "object_states": [
                                          {
                                                 "state_id": 77,
                                                 "state_label": "in bag"
                                          },
                                          {
                                                 "state_id": 222,
                                                 "state_label": "powder"
                                          }
                                   ],
                                   "ingredients": [],
                                   "object_in_motion": "1",
                                   "has_portions": "False"
                            }
                     ]
              },
              {
                     "input_nodes": [
                            {
                                   "object_id": 413,
                                   "object_label": "plastic bag",
                                   "object_states": [
                                          {
                                                 "state_id": 139,
                                                 "state_label": "ingredients inside"
                                          }
                                   ],
                                   "ingredients": [
                                          "flour",
                                          "sweet potato"
                                   ],
                                   "object_in_motion": "1",
                                   "has_portions": "False"
                            }
                     ],
                     "motion_node": {
                            "motion_id": "9",
                            "motion_label": "close",
                            "start_time": "1:17",
                            "end_time": "1:22",
                            "weight_success": 0.0
                     },
                     "output_nodes": [
                            {
                                   "object_id": 413,
                                   "object_label": "plastic bag",
                                   "object_states": [
                                          {
                                                 "state_id": 24,
                                                 "state_label": "closed"
                                          }
                                   ],
                                   "ingredients": [
                                          "flour",
                                          "sweet potato"
                                   ],
                                   "object_in_motion": "1",
                                   "has_portions": "False"
                            }
                     ]
              },
              {
                     "input_nodes": [
                            {
                                   "object_id": 413,
                                   "object_label": "plastic bag",
                                   "object_states": [
                                          {
                                                 "state_id": 24,
                                                 "state_label": "closed"
                                          }
                                   ],
                                   "ingredients": [
                                          "flour",
                                          "sweet potato"
                                   ],
                                   "object_in_motion": "1",
                                   "has_portions": "False"
                            },
                            {
                                   "object_id": 522,
                                   "object_label": "sweet potato",
                                   "object_states": [
                                          {
                                                 "state_id": 21,
                                                 "state_label": "chopped"
                                          },
                                          {
                                                 "state_id": 77,
                                                 "state_label": "in bag"
                                          }
                                   ],
                                   "ingredients": [],
                                   "object_in_motion": "1",
                                   "has_portions": "False"
                            }
                     ],
                     "motion_node": {
                            "motion_id": "54",
                            "motion_label": "shake",
                            "start_time": "1:23",
                            "end_time": "1:48",
                            "weight_success": 0.0
                     },
                     "output_nodes": [
                            {
                                   "object_id": 413,
                                   "object_label": "plastic bag",
                                   "object_states": [
                                          {
                                                 "state_id": 143,
                                                 "state_label": "ingredients mixed inside"
                                          }
                                   ],
                                   "ingredients": [
                                          "flour",
                                          "sweet potato"
                                   ],
                                   "object_in_motion": "1",
                                   "has_portions": "False"
                            },
                            {
                                   "object_id": 522,
                                   "object_label": "sweet potato",
                                   "object_states": [
                                          {
                                                 "state_id": 59,
                                                 "state_label": "floured"
                                          },
                                          {
                                                 "state_id": 77,
                                                 "state_label": "in bag"
                                          }
                                   ],
                                   "ingredients": [],
                                   "object_in_motion": "1",
                                   "has_portions": "False"
                            }
                     ]
              },
              {
                     "input_nodes": [
                            {
                                   "object_id": 413,
                                   "object_label": "plastic bag",
                                   "object_states": [
                                          {
                                                 "state_id": 143,
                                                 "state_label": "ingredients mixed inside"
                                          }
                                   ],
                                   "ingredients": [
                                          "flour",
                                          "sweet potato"
                                   ],
                                   "object_in_motion": "1",
                                   "has_portions": "False"
                            },
                            {
                                   "object_id": 522,
                                   "object_label": "sweet potato",
                                   "object_states": [
                                          {
                                                 "state_id": 59,
                                                 "state_label": "floured"
                                          },
                                          {
                                                 "state_id": 77,
                                                 "state_label": "in bag"
                                          }
                                   ],
                                   "ingredients": [],
                                   "object_in_motion": "1",
                                   "has_portions": "False"
                            },
                            {
                                   "object_id": 51,
                                   "object_label": "bowl",
                                   "object_states": [
                                          {
                                                 "state_id": 54,
                                                 "state_label": "empty"
                                          }
                                   ],
                                   "ingredients": [],
                                   "object_in_motion": "0",
                                   "has_portions": "False"
                            }
                     ],
                     "motion_node": {
                            "motion_id": "40",
                            "motion_label": "pour",
                            "start_time": "Assumed",
                            "end_time": "Assumed",
                            "weight_success": 0.0
                     },
                     "output_nodes": [
                            {
                                   "object_id": 413,
                                   "object_label": "plastic bag",
                                   "object_states": [
                                          {
                                                 "state_id": 45,
                                                 "state_label": "dirty"
                                          }
                                   ],
                                   "ingredients": [],
                                   "object_in_motion": "1",
                                   "has_portions": "False"
                            },
                            {
                                   "object_id": 51,
                                   "object_label": "bowl",
                                   "object_states": [
                                          {
                                                 "state_id": 139,
                                                 "state_label": "ingredients inside"
                                          }
                                   ],
                                   "ingredients": [
                                          "sweet potato"
                                   ],
                                   "object_in_motion": "0",
                                   "has_portions": "False"
                            },
                            {
                                   "object_id": 522,
                                   "object_label": "sweet potato",
                                   "object_states": [
                                          {
                                                 "state_id": 59,
                                                 "state_label": "floured"
                                          },
                                          {
                                                 "state_id": 84,
                                                 "state_label": "in bowl"
                                          }
                                   ],
                                   "ingredients": [],
                                   "object_in_motion": "1",
                                   "has_portions": "False"
                            }
                     ]
              },
              {
                     "input_nodes": [
                            {
                                   "object_id": 51,
                                   "object_label": "bowl",
                                   "object_states": [
                                          {
                                                 "state_id": 139,
                                                 "state_label": "ingredients inside"
                                          }
                                   ],
                                   "ingredients": [
                                          "sweet potato"
                                   ],
                                   "object_in_motion": "0",
                                   "has_portions": "False"
                            },
                            {
                                   "object_id": 51,
                                   "object_label": "bowl",
                                   "object_states": [
                                          {
                                                 "state_id": 139,
                                                 "state_label": "ingredients inside"
                                          }
                                   ],
                                   "ingredients": [
                                          "vegetable oil"
                                   ],
                                   "object_in_motion": "1",
                                   "has_portions": "False"
                            },
                            {
                                   "object_id": 522,
                                   "object_label": "sweet potato",
                                   "object_states": [
                                          {
                                                 "state_id": 59,
                                                 "state_label": "floured"
                                          },
                                          {
                                                 "state_id": 84,
                                                 "state_label": "in bowl"
                                          }
                                   ],
                                   "ingredients": [],
                                   "object_in_motion": "1",
                                   "has_portions": "False"
                            },
                            {
                                   "object_id": 558,
                                   "object_label": "vegetable oil",
                                   "object_states": [
                                          {
                                                 "state_id": 84,
                                                 "state_label": "in bowl"
                                          }
                                   ],
                                   "ingredients": [],
                                   "object_in_motion": "1",
                                   "has_portions": "False"
                            }
                     ],
                     "motion_node": {
                            "motion_id": "40",
                            "motion_label": "pour",
                            "start_time": "1:50",
                            "end_time": "1:58",
                            "weight_success": 0.0
                     },
                     "output_nodes": [
                            {
                                   "object_id": 51,
                                   "object_label": "bowl",
                                   "object_states": [
                                          {
                                                 "state_id": 139,
                                                 "state_label": "ingredients inside"
                                          }
                                   ],
                                   "ingredients": [
                                          "sweet potato",
                                          "vegetable oil"
                                   ],
                                   "object_in_motion": "0",
                                   "has_portions": "False"
                            }
                     ]
              },
              {
                     "input_nodes": [
                            {
                                   "object_id": 51,
                                   "object_label": "bowl",
                                   "object_states": [
                                          {
                                                 "state_id": 139,
                                                 "state_label": "ingredients inside"
                                          }
                                   ],
                                   "ingredients": [
                                          "sweet potato",
                                          "vegetable oil"
                                   ],
                                   "object_in_motion": "0",
                                   "has_portions": "False"
                            },
                            {
                                   "object_id": 51,
                                   "object_label": "bowl",
                                   "object_states": [
                                          {
                                                 "state_id": 139,
                                                 "state_label": "ingredients inside"
                                          }
                                   ],
                                   "ingredients": [
                                          "garlic powder"
                                   ],
                                   "object_in_motion": "1",
                                   "has_portions": "False"
                            },
                            {
                                   "object_id": 234,
                                   "object_label": "garlic powder",
                                   "object_states": [
                                          {
                                                 "state_id": 84,
                                                 "state_label": "in bowl"
                                          }
                                   ],
                                   "ingredients": [],
                                   "object_in_motion": "1",
                                   "has_portions": "False"
                            }
                     ],
                     "motion_node": {
                            "motion_id": "64",
                            "motion_label": "sprinkle",
                            "start_time": "2:00",
                            "end_time": "2:03",
                            "weight_success": 0.0
                     },
                     "output_nodes": [
                            {
                                   "object_id": 51,
                                   "object_label": "bowl",
                                   "object_states": [
                                          {
                                                 "state_id": 139,
                                                 "state_label": "ingredients inside"
                                          }
                                   ],
                                   "ingredients": [
                                          "garlic powder",
                                          "sweet potato",
                                          "vegetable oil"
                                   ],
                                   "object_in_motion": "0",
                                   "has_portions": "False"
                            }
                     ]
              },
              {
                     "input_nodes": [
                            {
                                   "object_id": 51,
                                   "object_label": "bowl",
                                   "object_states": [
                                          {
                                                 "state_id": 139,
                                                 "state_label": "ingredients inside"
                                          }
                                   ],
                                   "ingredients": [
                                          "garlic powder",
                                          "sweet potato",
                                          "vegetable oil"
                                   ],
                                   "object_in_motion": "0",
                                   "has_portions": "False"
                            },
                            {
                                   "object_id": 459,
                                   "object_label": "salt",
                                   "object_states": [
                                          {
                                                 "state_id": 67,
                                                 "state_label": "granulated"
                                          },
                                          {
                                                 "state_id": 84,
                                                 "state_label": "in bowl"
                                          }
                                   ],
                                   "ingredients": [],
                                   "object_in_motion": "1",
                                   "has_portions": "False"
                            }
                     ],
                     "motion_node": {
                            "motion_id": "64",
                            "motion_label": "sprinkle",
                            "start_time": "2:06",
                            "end_time": "2:11",
                            "weight_success": 0.0
                     },
                     "output_nodes": [
                            {
                                   "object_id": 51,
                                   "object_label": "bowl",
                                   "object_states": [
                                          {
                                                 "state_id": 139,
                                                 "state_label": "ingredients inside"
                                          }
                                   ],
                                   "ingredients": [
                                          "flour",
                                          "garlic powder",
                                          "salt",
                                          "sweet potato",
                                          "vegetable oil"
                                   ],
                                   "object_in_motion": "0",
                                   "has_portions": "False"
                            }
                     ]
              },
              {
                     "input_nodes": [
                            {
                                   "object_id": 51,
                                   "object_label": "bowl",
                                   "object_states": [
                                          {
                                                 "state_id": 139,
                                                 "state_label": "ingredients inside"
                                          }
                                   ],
                                   "ingredients": [
                                          "flour",
                                          "garlic powder",
                                          "salt",
                                          "sweet potato",
                                          "vegetable oil"
                                   ],
                                   "object_in_motion": "0",
                                   "has_portions": "False"
                            },
                            {
                                   "object_id": 38,
                                   "object_label": "black pepper",
                                   "object_states": [
                                          {
                                                 "state_id": 71,
                                                 "state_label": "ground"
                                          },
                                          {
                                                 "state_id": 84,
                                                 "state_label": "in bowl"
                                          }
                                   ],
                                   "ingredients": [],
                                   "object_in_motion": "1",
                                   "has_portions": "False"
                            }
                     ],
                     "motion_node": {
                            "motion_id": "64",
                            "motion_label": "sprinkle",
                            "start_time": "Assumed",
                            "end_time": "Assumed",
                            "weight_success": 0.0
                     },
                     "output_nodes": [
                            {
                                   "object_id": 51,
                                   "object_label": "bowl",
                                   "object_states": [
                                          {
                                                 "state_id": 139,
                                                 "state_label": "ingredients inside"
                                          }
                                   ],
                                   "ingredients": [
                                          "black pepper",
                                          "flour",
                                          "garlic powder",
                                          "salt",
                                          "sweet potato",
                                          "vegetable oil"
                                   ],
                                   "object_in_motion": "0",
                                   "has_portions": "False"
                            }
                     ]
              },
              {
                     "input_nodes": [
                            {
                                   "object_id": 51,
                                   "object_label": "bowl",
                                   "object_states": [
                                          {
                                                 "state_id": 139,
                                                 "state_label": "ingredients inside"
                                          }
                                   ],
                                   "ingredients": [
                                          "black pepper",
                                          "flour",
                                          "garlic powder",
                                          "salt",
                                          "sweet potato",
                                          "vegetable oil"
                                   ],
                                   "object_in_motion": "0",
                                   "has_portions": "False"
                            },
                            {
                                   "object_id": 380,
                                   "object_label": "paprika",
                                   "object_states": [
                                          {
                                                 "state_id": 71,
                                                 "state_label": "ground"
                                          },
                                          {
                                                 "state_id": 84,
                                                 "state_label": "in bowl"
                                          }
                                   ],
                                   "ingredients": [],
                                   "object_in_motion": "1",
                                   "has_portions": "False"
                            }
                     ],
                     "motion_node": {
                            "motion_id": "64",
                            "motion_label": "sprinkle",
                            "start_time": "2:14",
                            "end_time": "2:17",
                            "weight_success": 0.0
                     },
                     "output_nodes": [
                            {
                                   "object_id": 51,
                                   "object_label": "bowl",
                                   "object_states": [
                                          {
                                                 "state_id": 139,
                                                 "state_label": "ingredients inside"
                                          }
                                   ],
                                   "ingredients": [
                                          "black pepper",
                                          "flour",
                                          "garlic powder",
                                          "paprika",
                                          "salt",
                                          "sweet potato",
                                          "vegetable oil"
                                   ],
                                   "object_in_motion": "0",
                                   "has_portions": "False"
                            }
                     ]
              },
              {
                     "input_nodes": [
                            {
                                   "object_id": 51,
                                   "object_label": "bowl",
                                   "object_states": [
                                          {
                                                 "state_id": 139,
                                                 "state_label": "ingredients inside"
                                          }
                                   ],
                                   "ingredients": [
                                          "black pepper",
                                          "flour",
                                          "garlic powder",
                                          "paprika",
                                          "salt",
                                          "sweet potato",
                                          "vegetable oil"
                                   ],
                                   "object_in_motion": "0",
                                   "has_portions": "False"
                            },
                            {
                                   "object_id": 502,
                                   "object_label": "spatula",
                                   "object_states": [
                                          {
                                                 "state_id": 23,
                                                 "state_label": "clean"
                                          }
                                   ],
                                   "ingredients": [],
                                   "object_in_motion": "1",
                                   "has_portions": "False"
                            },
                            {
                                   "object_id": 522,
                                   "object_label": "sweet potato",
                                   "object_states": [
                                          {
                                                 "state_id": 59,
                                                 "state_label": "floured"
                                          },
                                          {
                                                 "state_id": 84,
                                                 "state_label": "in bowl"
                                          }
                                   ],
                                   "ingredients": [],
                                   "object_in_motion": "1",
                                   "has_portions": "False"
                            }
                     ],
                     "motion_node": {
                            "motion_id": "35",
                            "motion_label": "mix",
                            "start_time": "2:19",
                            "end_time": "2:25",
                            "weight_success": 0.0
                     },
                     "output_nodes": [
                            {
                                   "object_id": 51,
                                   "object_label": "bowl",
                                   "object_states": [
                                          {
                                                 "state_id": 143,
                                                 "state_label": "ingredients mixed inside"
                                          }
                                   ],
                                   "ingredients": [
                                          "sweet potato fries"
                                   ],
                                   "object_in_motion": "0",
                                   "has_portions": "False"
                            },
                            {
                                   "object_id": 523,
                                   "object_label": "sweet potato fries",
                                   "object_states": [
                                          {
                                                 "state_id": 84,
                                                 "state_label": "in bowl"
                                          },
                                          {
                                                 "state_id": 231,
                                                 "state_label": "seasoned"
                                          },
                                          {
                                                 "state_id": 258,
                                                 "state_label": "uncooked"
                                          }
                                   ],
                                   "ingredients": [
                                          "black pepper",
                                          "flour",
                                          "garlic powder",
                                          "paprika",
                                          "salt",
                                          "vegetable oil"
                                   ],
                                   "object_in_motion": "1",
                                   "has_portions": "False"
                            }
                     ]
              },
              {
                     "input_nodes": [
                            {
                                   "object_id": 16,
                                   "object_label": "baking tray",
                                   "object_states": [
                                          {
                                                 "state_id": 237,
                                                 "state_label": "sheet on top"
                                          }
                                   ],
                                   "ingredients": [
                                          "foil"
                                   ],
                                   "object_in_motion": "0",
                                   "has_portions": "False"
                            },
                            {
                                   "object_id": 51,
                                   "object_label": "bowl",
                                   "object_states": [
                                          {
                                                 "state_id": 143,
                                                 "state_label": "ingredients mixed inside"
                                          }
                                   ],
                                   "ingredients": [
                                          "sweet potato fries"
                                   ],
                                   "object_in_motion": "0",
                                   "has_portions": "False"
                            },
                            {
                                   "object_id": 523,
                                   "object_label": "sweet potato fries",
                                   "object_states": [
                                          {
                                                 "state_id": 84,
                                                 "state_label": "in bowl"
                                          },
                                          {
                                                 "state_id": 231,
                                                 "state_label": "seasoned"
                                          },
                                          {
                                                 "state_id": 258,
                                                 "state_label": "uncooked"
                                          }
                                   ],
                                   "ingredients": [
                                          "black pepper",
                                          "flour",
                                          "garlic powder",
                                          "paprika",
                                          "salt",
                                          "vegetable oil"
                                   ],
                                   "object_in_motion": "1",
                                   "has_portions": "False"
                            }
                     ],
                     "motion_node": {
                            "motion_id": "38",
                            "motion_label": "pick-and-place",
                            "start_time": "2:36",
                            "end_time": "2:59",
                            "weight_success": 0.0
                     },
                     "output_nodes": [
                            {
                                   "object_id": 16,
                                   "object_label": "baking tray",
                                   "object_states": [
                                          {
                                                 "state_id": 145,
                                                 "state_label": "ingredients on top"
                                          }
                                   ],
                                   "ingredients": [
                                          "sweet potato fries"
                                   ],
                                   "object_in_motion": "0",
                                   "has_portions": "False"
                            },
                            {
                                   "object_id": 523,
                                   "object_label": "sweet potato fries",
                                   "object_states": [
                                          {
                                                 "state_id": 78,
                                                 "state_label": "in baking tray"
                                          },
                                          {
                                                 "state_id": 231,
                                                 "state_label": "seasoned"
                                          },
                                          {
                                                 "state_id": 258,
                                                 "state_label": "uncooked"
                                          }
                                   ],
                                   "ingredients": [
                                          "black pepper",
                                          "flour",
                                          "garlic powder",
                                          "paprika",
                                          "salt",
                                          "vegetable oil"
                                   ],
                                   "object_in_motion": "1",
                                   "has_portions": "False"
                            }
                     ]
              },
              {
                     "input_nodes": [
                            {
                                   "object_id": 16,
                                   "object_label": "baking tray",
                                   "object_states": [
                                          {
                                                 "state_id": 145,
                                                 "state_label": "ingredients on top"
                                          }
                                   ],
                                   "ingredients": [
                                          "sweet potato fries"
                                   ],
                                   "object_in_motion": "0",
                                   "has_portions": "False"
                            },
                            {
                                   "object_id": 371,
                                   "object_label": "oven",
                                   "object_states": [
                                          {
                                                 "state_id": 168,
                                                 "state_label": "on"
                                          }
                                   ],
                                   "ingredients": [],
                                   "object_in_motion": "0",
                                   "has_portions": "False"
                            }
                     ],
                     "motion_node": {
                            "motion_id": "45",
                            "motion_label": "put inside",
                            "start_time": "Assumed",
                            "end_time": "Assumed",
                            "weight_success": 0.0
                     },
                     "output_nodes": [
                            {
                                   "object_id": 371,
                                   "object_label": "oven",
                                   "object_states": [
                                          {
                                                 "state_id": 4,
                                                 "state_label": "baking tray inside"
                                          },
                                          {
                                                 "state_id": 168,
                                                 "state_label": "on"
                                          }
                                   ],
                                   "ingredients": [],
                                   "object_in_motion": "0",
                                   "has_portions": "False"
                            },
                            {
                                   "object_id": 16,
                                   "object_label": "baking tray",
                                   "object_states": [
                                          {
                                                 "state_id": 112,
                                                 "state_label": "in oven"
                                          },
                                          {
                                                 "state_id": 145,
                                                 "state_label": "ingredients on top"
                                          }
                                   ],
                                   "ingredients": [
                                          "sweet potato fries"
                                   ],
                                   "object_in_motion": "0",
                                   "has_portions": "False"
                            }
                     ]
              },
              {
                     "input_nodes": [
                            {
                                   "object_id": 16,
                                   "object_label": "baking tray",
                                   "object_states": [
                                          {
                                                 "state_id": 112,
                                                 "state_label": "in oven"
                                          },
                                          {
                                                 "state_id": 145,
                                                 "state_label": "ingredients on top"
                                          }
                                   ],
                                   "ingredients": [
                                          "sweet potato fries"
                                   ],
                                   "object_in_motion": "0",
                                   "has_portions": "False"
                            },
                            {
                                   "object_id": 371,
                                   "object_label": "oven",
                                   "object_states": [
                                          {
                                                 "state_id": 4,
                                                 "state_label": "baking tray inside"
                                          },
                                          {
                                                 "state_id": 168,
                                                 "state_label": "on"
                                          }
                                   ],
                                   "ingredients": [],
                                   "object_in_motion": "0",
                                   "has_portions": "False"
                            },
                            {
                                   "object_id": 523,
                                   "object_label": "sweet potato fries",
                                   "object_states": [
                                          {
                                                 "state_id": 78,
                                                 "state_label": "in baking tray"
                                          },
                                          {
                                                 "state_id": 231,
                                                 "state_label": "seasoned"
                                          },
                                          {
                                                 "state_id": 258,
                                                 "state_label": "uncooked"
                                          }
                                   ],
                                   "ingredients": [
                                          "black pepper",
                                          "flour",
                                          "garlic powder",
                                          "paprika",
                                          "salt",
                                          "vegetable oil"
                                   ],
                                   "object_in_motion": "1",
                                   "has_portions": "False"
                            }
                     ],
                     "motion_node": {
                            "motion_id": "1",
                            "motion_label": "bake",
                            "start_time": "Assumed",
                            "end_time": "Assumed",
                            "weight_success": 0.0
                     },
                     "output_nodes": [
                            {
                                   "object_id": 16,
                                   "object_label": "baking tray",
                                   "object_states": [
                                          {
                                                 "state_id": 49,
                                                 "state_label": "dish on top"
                                          },
                                          {
                                                 "state_id": 112,
                                                 "state_label": "in oven"
                                          }
                                   ],
                                   "ingredients": [
                                          "sweet potato fries"
                                   ],
                                   "object_in_motion": "0",
                                   "has_portions": "False"
                            },
                            {
                                   "object_id": 523,
                                   "object_label": "sweet potato fries",
                                   "object_states": [
                                          {
                                                 "state_id": 29,
                                                 "state_label": "cooked"
                                          },
                                          {
                                                 "state_id": 78,
                                                 "state_label": "in baking tray"
                                          },
                                          {
                                                 "state_id": 231,
                                                 "state_label": "seasoned"
                                          }
                                   ],
                                   "ingredients": [
                                          "black pepper",
                                          "flour",
                                          "garlic powder",
                                          "paprika",
                                          "salt",
                                          "vegetable oil"
                                   ],
                                   "object_in_motion": "1",
                                   "has_portions": "False"
                            }
                     ]
              },
              {
                     "input_nodes": [
                            {
                                   "object_id": 16,
                                   "object_label": "baking tray",
                                   "object_states": [
                                          {
                                                 "state_id": 49,
                                                 "state_label": "dish on top"
                                          },
                                          {
                                                 "state_id": 112,
                                                 "state_label": "in oven"
                                          }
                                   ],
                                   "ingredients": [
                                          "sweet potato fries"
                                   ],
                                   "object_in_motion": "0",
                                   "has_portions": "False"
                            },
                            {
                                   "object_id": 371,
                                   "object_label": "oven",
                                   "object_states": [
                                          {
                                                 "state_id": 4,
                                                 "state_label": "baking tray inside"
                                          },
                                          {
                                                 "state_id": 168,
                                                 "state_label": "on"
                                          }
                                   ],
                                   "ingredients": [],
                                   "object_in_motion": "0",
                                   "has_portions": "False"
                            }
                     ],
                     "motion_node": {
                            "motion_id": "46",
                            "motion_label": "remove",
                            "start_time": "Assumed",
                            "end_time": "Assumed",
                            "weight_success": 0.0
                     },
                     "output_nodes": [
                            {
                                   "object_id": 16,
                                   "object_label": "baking tray",
                                   "object_states": [
                                          {
                                                 "state_id": 49,
                                                 "state_label": "dish on top"
                                          }
                                   ],
                                   "ingredients": [
                                          "sweet potato fries"
                                   ],
                                   "object_in_motion": "0",
                                   "has_portions": "False"
                            },
                            {
                                   "object_id": 371,
                                   "object_label": "oven",
                                   "object_states": [
                                          {
                                                 "state_id": 166,
                                                 "state_label": "off"
                                          }
                                   ],
                                   "ingredients": [],
                                   "object_in_motion": "0",
                                   "has_portions": "False"
                            }
                     ]
              },
              {
                     "input_nodes": [
                            {
                                   "object_id": 16,
                                   "object_label": "baking tray",
                                   "object_states": [
                                          {
                                                 "state_id": 49,
                                                 "state_label": "dish on top"
                                          }
                                   ],
                                   "ingredients": [
                                          "sweet potato fries"
                                   ],
                                   "object_in_motion": "0",
                                   "has_portions": "False"
                            },
                            {
                                   "object_id": 523,
                                   "object_label": "sweet potato fries",
                                   "object_states": [
                                          {
                                                 "state_id": 29,
                                                 "state_label": "cooked"
                                          },
                                          {
                                                 "state_id": 78,
                                                 "state_label": "in baking tray"
                                          },
                                          {
                                                 "state_id": 231,
                                                 "state_label": "seasoned"
                                          }
                                   ],
                                   "ingredients": [
                                          "black pepper",
                                          "flour",
                                          "garlic powder",
                                          "paprika",
                                          "salt",
                                          "vegetable oil"
                                   ],
                                   "object_in_motion": "1",
                                   "has_portions": "False"
                            },
                            {
                                   "object_id": 553,
                                   "object_label": "turner",
                                   "object_states": [
                                          {
                                                 "state_id": 23,
                                                 "state_label": "clean"
                                          }
                                   ],
                                   "ingredients": [],
                                   "object_in_motion": "1",
                                   "has_portions": "False"
                            },
                            {
                                   "object_id": 415,
                                   "object_label": "plate",
                                   "object_states": [
                                          {
                                                 "state_id": 54,
                                                 "state_label": "empty"
                                          }
                                   ],
                                   "ingredients": [],
                                   "object_in_motion": "0",
                                   "has_portions": "False"
                            }
                     ],
                     "motion_node": {
                            "motion_id": "38",
                            "motion_label": "pick-and-place",
                            "start_time": "Assumed",
                            "end_time": "Assumed",
                            "weight_success": 0.0
                     },
                     "output_nodes": [
                            {
                                   "object_id": 415,
                                   "object_label": "plate",
                                   "object_states": [
                                          {
                                                 "state_id": 49,
                                                 "state_label": "dish on top"
                                          }
                                   ],
                                   "ingredients": [
                                          "sweet potato fries"
                                   ],
                                   "object_in_motion": "0",
                                   "has_portions": "False"
                            },
                            {
                                   "object_id": 523,
                                   "object_label": "sweet potato fries",
                                   "object_states": [
                                          {
                                                 "state_id": 29,
                                                 "state_label": "cooked"
                                          },
                                          {
                                                 "state_id": 189,
                                                 "state_label": "on plate"
                                          },
                                          {
                                                 "state_id": 231,
                                                 "state_label": "seasoned"
                                          }
                                   ],
                                   "ingredients": [
                                          "black pepper",
                                          "flour",
                                          "garlic powder",
                                          "paprika",
                                          "salt",
                                          "vegetable oil"
                                   ],
                                   "object_in_motion": "1",
                                   "has_portions": "False"
                            }
                     ]
              }
       ]
}