{
       "functional_units": [
              {
                     "input_nodes": [
                            {
                                   "object_id": 149,
                                   "object_label": "corn",
                                   "object_states": [
                                          {
                                                 "state_id": 262,
                                                 "state_label": "whole"
                                          }
                                   ],
                                   "ingredients": [],
                                   "object_in_motion": "1",
                                   "has_portions": "False"
                            },
                            {
                                   "object_id": 180,
                                   "object_label": "cutting board",
                                   "object_states": [
                                          {
                                                 "state_id": 54,
                                                 "state_label": "empty"
                                          }
                                   ],
                                   "ingredients": [],
                                   "object_in_motion": "0",
                                   "has_portions": "False"
                            }
                     ],
                     "motion_node": {
                            "motion_id": "38",
                            "motion_label": "pick-and-place",
                            "start_time": "Assumed",
                            "end_time": "Assumed",
                            "weight_success": 0.0
                     },
                     "output_nodes": [
                            {
                                   "object_id": 180,
                                   "object_label": "cutting board",
                                   "object_states": [
                                          {
                                                 "state_id": 145,
                                                 "state_label": "ingredients on top"
                                          }
                                   ],
                                   "ingredients": [
                                          "corn"
                                   ],
                                   "object_in_motion": "0",
                                   "has_portions": "False"
                            },
                            {
                                   "object_id": 149,
                                   "object_label": "corn",
                                   "object_states": [
                                          {
                                                 "state_id": 176,
                                                 "state_label": "on cutting board"
                                          },
                                          {
                                                 "state_id": 262,
                                                 "state_label": "whole"
                                          }
                                   ],
                                   "ingredients": [],
                                   "object_in_motion": "1",
                                   "has_portions": "False"
                            }
                     ]
              },
              {
                     "input_nodes": [
                            {
                                   "object_id": 180,
                                   "object_label": "cutting board",
                                   "object_states": [
                                          {
                                                 "state_id": 145,
                                                 "state_label": "ingredients on top"
                                          }
                                   ],
                                   "ingredients": [
                                          "corn"
                                   ],
                                   "object_in_motion": "0",
                                   "has_portions": "False"
                            },
                            {
                                   "object_id": 149,
                                   "object_label": "corn",
                                   "object_states": [
                                          {
                                                 "state_id": 176,
                                                 "state_label": "on cutting board"
                                          },
                                          {
                                                 "state_id": 262,
                                                 "state_label": "whole"
                                          }
                                   ],
                                   "ingredients": [],
                                   "object_in_motion": "1",
                                   "has_portions": "False"
                            },
                            {
                                   "object_id": 293,
                                   "object_label": "knife",
                                   "object_states": [
                                          {
                                                 "state_id": 23,
                                                 "state_label": "clean"
                                          }
                                   ],
                                   "ingredients": [],
                                   "object_in_motion": "1",
                                   "has_portions": "False"
                            }
                     ],
                     "motion_node": {
                            "motion_id": "56",
                            "motion_label": "shave",
                            "start_time": "0:04",
                            "end_time": "0:46",
                            "weight_success": 0.0
                     },
                     "output_nodes": [
                            {
                                   "object_id": 152,
                                   "object_label": "corn kernels",
                                   "object_states": [
                                          {
                                                 "state_id": 176,
                                                 "state_label": "on cutting board"
                                          },
                                          {
                                                 "state_id": 258,
                                                 "state_label": "uncooked"
                                          }
                                   ],
                                   "ingredients": [],
                                   "object_in_motion": "1",
                                   "has_portions": "False"
                            },
                            {
                                   "object_id": 149,
                                   "object_label": "corn",
                                   "object_states": [
                                          {
                                                 "state_id": 176,
                                                 "state_label": "on cutting board"
                                          },
                                          {
                                                 "state_id": 235,
                                                 "state_label": "shaved"
                                          }
                                   ],
                                   "ingredients": [],
                                   "object_in_motion": "1",
                                   "has_portions": "False"
                            }
                     ]
              },
              {
                     "input_nodes": [
                            {
                                   "object_id": 180,
                                   "object_label": "cutting board",
                                   "object_states": [
                                          {
                                                 "state_id": 145,
                                                 "state_label": "ingredients on top"
                                          }
                                   ],
                                   "ingredients": [
                                          "corn"
                                   ],
                                   "object_in_motion": "0",
                                   "has_portions": "False"
                            },
                            {
                                   "object_id": 152,
                                   "object_label": "corn kernels",
                                   "object_states": [
                                          {
                                                 "state_id": 176,
                                                 "state_label": "on cutting board"
                                          },
                                          {
                                                 "state_id": 258,
                                                 "state_label": "uncooked"
                                          }
                                   ],
                                   "ingredients": [],
                                   "object_in_motion": "1",
                                   "has_portions": "False"
                            },
                            {
                                   "object_id": 420,
                                   "object_label": "pot",
                                   "object_states": [
                                          {
                                                 "state_id": 54,
                                                 "state_label": "empty"
                                          }
                                   ],
                                   "ingredients": [],
                                   "object_in_motion": "0",
                                   "has_portions": "False"
                            },
                            {
                                   "object_id": 293,
                                   "object_label": "knife",
                                   "object_states": [
                                          {
                                                 "state_id": 23,
                                                 "state_label": "clean"
                                          }
                                   ],
                                   "ingredients": [],
                                   "object_in_motion": "1",
                                   "has_portions": "False"
                            }
                     ],
                     "motion_node": {
                            "motion_id": "51",
                            "motion_label": "scoop and pour",
                            "start_time": "0:48",
                            "end_time": "0:58",
                            "weight_success": 0.0
                     },
                     "output_nodes": [
                            {
                                   "object_id": 420,
                                   "object_label": "pot",
                                   "object_states": [
                                          {
                                                 "state_id": 139,
                                                 "state_label": "ingredients inside"
                                          }
                                   ],
                                   "ingredients": [
                                          "corn kernels"
                                   ],
                                   "object_in_motion": "0",
                                   "has_portions": "False"
                            },
                            {
                                   "object_id": 152,
                                   "object_label": "corn kernels",
                                   "object_states": [
                                          {
                                                 "state_id": 116,
                                                 "state_label": "in pot"
                                          },
                                          {
                                                 "state_id": 258,
                                                 "state_label": "uncooked"
                                          }
                                   ],
                                   "ingredients": [],
                                   "object_in_motion": "1",
                                   "has_portions": "False"
                            },
                            {
                                   "object_id": 149,
                                   "object_label": "corn",
                                   "object_states": [
                                          {
                                                 "state_id": 176,
                                                 "state_label": "on cutting board"
                                          },
                                          {
                                                 "state_id": 235,
                                                 "state_label": "shaved"
                                          }
                                   ],
                                   "ingredients": [],
                                   "object_in_motion": "1",
                                   "has_portions": "False"
                            }
                     ]
              },
              {
                     "input_nodes": [
                            {
                                   "object_id": 420,
                                   "object_label": "pot",
                                   "object_states": [
                                          {
                                                 "state_id": 139,
                                                 "state_label": "ingredients inside"
                                          }
                                   ],
                                   "ingredients": [
                                          "corn kernels"
                                   ],
                                   "object_in_motion": "0",
                                   "has_portions": "False"
                            },
                            {
                                   "object_id": 149,
                                   "object_label": "corn",
                                   "object_states": [
                                          {
                                                 "state_id": 176,
                                                 "state_label": "on cutting board"
                                          },
                                          {
                                                 "state_id": 235,
                                                 "state_label": "shaved"
                                          }
                                   ],
                                   "ingredients": [],
                                   "object_in_motion": "1",
                                   "has_portions": "False"
                            },
                            {
                                   "object_id": 293,
                                   "object_label": "knife",
                                   "object_states": [
                                          {
                                                 "state_id": 23,
                                                 "state_label": "clean"
                                          }
                                   ],
                                   "ingredients": [],
                                   "object_in_motion": "1",
                                   "has_portions": "False"
                            }
                     ],
                     "motion_node": {
                            "motion_id": "53",
                            "motion_label": "scrape",
                            "start_time": "1:12",
                            "end_time": "1:30",
                            "weight_success": 0.0
                     },
                     "output_nodes": [
                            {
                                   "object_id": 420,
                                   "object_label": "pot",
                                   "object_states": [
                                          {
                                                 "state_id": 139,
                                                 "state_label": "ingredients inside"
                                          }
                                   ],
                                   "ingredients": [
                                          "corn"
                                   ],
                                   "object_in_motion": "0",
                                   "has_portions": "False"
                            },
                            {
                                   "object_id": 152,
                                   "object_label": "corn kernels",
                                   "object_states": [
                                          {
                                                 "state_id": 116,
                                                 "state_label": "in pot"
                                          },
                                          {
                                                 "state_id": 258,
                                                 "state_label": "uncooked"
                                          }
                                   ],
                                   "ingredients": [],
                                   "object_in_motion": "1",
                                   "has_portions": "False"
                            },
                            {
                                   "object_id": 150,
                                   "object_label": "corn cob",
                                   "object_states": [
                                          {
                                                 "state_id": 235,
                                                 "state_label": "shaved"
                                          }
                                   ],
                                   "ingredients": [],
                                   "object_in_motion": "1",
                                   "has_portions": "False"
                            }
                     ]
              },
              {
                     "input_nodes": [
                            {
                                   "object_id": 420,
                                   "object_label": "pot",
                                   "object_states": [
                                          {
                                                 "state_id": 139,
                                                 "state_label": "ingredients inside"
                                          }
                                   ],
                                   "ingredients": [
                                          "corn"
                                   ],
                                   "object_in_motion": "0",
                                   "has_portions": "False"
                            },
                            {
                                   "object_id": 150,
                                   "object_label": "corn cob",
                                   "object_states": [
                                          {
                                                 "state_id": 235,
                                                 "state_label": "shaved"
                                          }
                                   ],
                                   "ingredients": [],
                                   "object_in_motion": "1",
                                   "has_portions": "False"
                            }
                     ],
                     "motion_node": {
                            "motion_id": "65",
                            "motion_label": "squeeze",
                            "start_time": "1:33",
                            "end_time": "1:41",
                            "weight_success": 0.0
                     },
                     "output_nodes": [
                            {
                                   "object_id": 150,
                                   "object_label": "corn cob",
                                   "object_states": [
                                          {
                                                 "state_id": 247,
                                                 "state_label": "squeezed"
                                          }
                                   ],
                                   "ingredients": [],
                                   "object_in_motion": "1",
                                   "has_portions": "False"
                            }
                     ]
              },
              {
                     "input_nodes": [
                            {
                                   "object_id": 420,
                                   "object_label": "pot",
                                   "object_states": [
                                          {
                                                 "state_id": 139,
                                                 "state_label": "ingredients inside"
                                          }
                                   ],
                                   "ingredients": [
                                          "corn"
                                   ],
                                   "object_in_motion": "1",
                                   "has_portions": "False"
                            },
                            {
                                   "object_id": 420,
                                   "object_label": "pot",
                                   "object_states": [
                                          {
                                                 "state_id": 139,
                                                 "state_label": "ingredients inside"
                                          }
                                   ],
                                   "ingredients": [
                                          "water"
                                   ],
                                   "object_in_motion": "0",
                                   "has_portions": "False"
                            },
                            {
                                   "object_id": 567,
                                   "object_label": "water",
                                   "object_states": [
                                          {
                                                 "state_id": 116,
                                                 "state_label": "in pot"
                                          }
                                   ],
                                   "ingredients": [],
                                   "object_in_motion": "1",
                                   "has_portions": "False"
                            },
                            {
                                   "object_id": 507,
                                   "object_label": "spoon",
                                   "object_states": [
                                          {
                                                 "state_id": 23,
                                                 "state_label": "clean"
                                          }
                                   ],
                                   "ingredients": [],
                                   "object_in_motion": "1",
                                   "has_portions": "False"
                            }
                     ],
                     "motion_node": {
                            "motion_id": "40",
                            "motion_label": "pour",
                            "start_time": "1:44",
                            "end_time": "1:54",
                            "weight_success": 0.0
                     },
                     "output_nodes": [
                            {
                                   "object_id": 420,
                                   "object_label": "pot",
                                   "object_states": [
                                          {
                                                 "state_id": 139,
                                                 "state_label": "ingredients inside"
                                          }
                                   ],
                                   "ingredients": [
                                          "corn",
                                          "water"
                                   ],
                                   "object_in_motion": "0",
                                   "has_portions": "False"
                            }
                     ]
              },
              {
                     "input_nodes": [
                            {
                                   "object_id": 420,
                                   "object_label": "pot",
                                   "object_states": [
                                          {
                                                 "state_id": 139,
                                                 "state_label": "ingredients inside"
                                          }
                                   ],
                                   "ingredients": [
                                          "corn",
                                          "water"
                                   ],
                                   "object_in_motion": "0",
                                   "has_portions": "False"
                            },
                            {
                                   "object_id": 334,
                                   "object_label": "measuring cup",
                                   "object_states": [
                                          {
                                                 "state_id": 139,
                                                 "state_label": "ingredients inside"
                                          }
                                   ],
                                   "ingredients": [
                                          "milk"
                                   ],
                                   "object_in_motion": "1",
                                   "has_portions": "False"
                            },
                            {
                                   "object_id": 507,
                                   "object_label": "spoon",
                                   "object_states": [
                                          {
                                                 "state_id": 23,
                                                 "state_label": "clean"
                                          }
                                   ],
                                   "ingredients": [],
                                   "object_in_motion": "1",
                                   "has_portions": "False"
                            },
                            {
                                   "object_id": 338,
                                   "object_label": "milk",
                                   "object_states": [
                                          {
                                                 "state_id": 103,
                                                 "state_label": "in measuring cup"
                                          }
                                   ],
                                   "ingredients": [],
                                   "object_in_motion": "1",
                                   "has_portions": "False"
                            }
                     ],
                     "motion_node": {
                            "motion_id": "40",
                            "motion_label": "pour",
                            "start_time": "1:57",
                            "end_time": "2:04",
                            "weight_success": 0.0
                     },
                     "output_nodes": [
                            {
                                   "object_id": 420,
                                   "object_label": "pot",
                                   "object_states": [
                                          {
                                                 "state_id": 139,
                                                 "state_label": "ingredients inside"
                                          }
                                   ],
                                   "ingredients": [
                                          "corn",
                                          "milk",
                                          "water"
                                   ],
                                   "object_in_motion": "0",
                                   "has_portions": "False"
                            },
                            {
                                   "object_id": 338,
                                   "object_label": "milk",
                                   "object_states": [
                                          {
                                                 "state_id": 116,
                                                 "state_label": "in pot"
                                          }
                                   ],
                                   "ingredients": [],
                                   "object_in_motion": "1",
                                   "has_portions": "False"
                            }
                     ]
              },
              {
                     "input_nodes": [
                            {
                                   "object_id": 420,
                                   "object_label": "pot",
                                   "object_states": [
                                          {
                                                 "state_id": 139,
                                                 "state_label": "ingredients inside"
                                          }
                                   ],
                                   "ingredients": [
                                          "corn",
                                          "milk",
                                          "water"
                                   ],
                                   "object_in_motion": "0",
                                   "has_portions": "False"
                            },
                            {
                                   "object_id": 66,
                                   "object_label": "butter",
                                   "object_states": [
                                          {
                                                 "state_id": 34,
                                                 "state_label": "cubed"
                                          },
                                          {
                                                 "state_id": 113,
                                                 "state_label": "in packet"
                                          }
                                   ],
                                   "ingredients": [],
                                   "object_in_motion": "1",
                                   "has_portions": "False"
                            }
                     ],
                     "motion_node": {
                            "motion_id": "38",
                            "motion_label": "pick-and-place",
                            "start_time": "2:08",
                            "end_time": "2:11",
                            "weight_success": 0.0
                     },
                     "output_nodes": [
                            {
                                   "object_id": 420,
                                   "object_label": "pot",
                                   "object_states": [
                                          {
                                                 "state_id": 139,
                                                 "state_label": "ingredients inside"
                                          }
                                   ],
                                   "ingredients": [
                                          "butter",
                                          "corn",
                                          "milk",
                                          "water"
                                   ],
                                   "object_in_motion": "0",
                                   "has_portions": "False"
                            },
                            {
                                   "object_id": 66,
                                   "object_label": "butter",
                                   "object_states": [
                                          {
                                                 "state_id": 34,
                                                 "state_label": "cubed"
                                          },
                                          {
                                                 "state_id": 116,
                                                 "state_label": "in pot"
                                          }
                                   ],
                                   "ingredients": [],
                                   "object_in_motion": "1",
                                   "has_portions": "False"
                            }
                     ]
              },
              {
                     "input_nodes": [
                            {
                                   "object_id": 420,
                                   "object_label": "pot",
                                   "object_states": [
                                          {
                                                 "state_id": 139,
                                                 "state_label": "ingredients inside"
                                          }
                                   ],
                                   "ingredients": [
                                          "butter",
                                          "corn",
                                          "milk",
                                          "water"
                                   ],
                                   "object_in_motion": "0",
                                   "has_portions": "False"
                            },
                            {
                                   "object_id": 51,
                                   "object_label": "bowl",
                                   "object_states": [
                                          {
                                                 "state_id": 139,
                                                 "state_label": "ingredients inside"
                                          }
                                   ],
                                   "ingredients": [
                                          "sugar"
                                   ],
                                   "object_in_motion": "1",
                                   "has_portions": "False"
                            },
                            {
                                   "object_id": 519,
                                   "object_label": "sugar",
                                   "object_states": [
                                          {
                                                 "state_id": 67,
                                                 "state_label": "granulated"
                                          },
                                          {
                                                 "state_id": 84,
                                                 "state_label": "in bowl"
                                          }
                                   ],
                                   "ingredients": [],
                                   "object_in_motion": "1",
                                   "has_portions": "False"
                            }
                     ],
                     "motion_node": {
                            "motion_id": "40",
                            "motion_label": "pour",
                            "start_time": "2:12",
                            "end_time": "2:15",
                            "weight_success": 0.0
                     },
                     "output_nodes": [
                            {
                                   "object_id": 420,
                                   "object_label": "pot",
                                   "object_states": [
                                          {
                                                 "state_id": 139,
                                                 "state_label": "ingredients inside"
                                          }
                                   ],
                                   "ingredients": [
                                          "butter",
                                          "corn",
                                          "milk",
                                          "sugar",
                                          "water"
                                   ],
                                   "object_in_motion": "0",
                                   "has_portions": "False"
                            },
                            {
                                   "object_id": 519,
                                   "object_label": "sugar",
                                   "object_states": [
                                          {
                                                 "state_id": 67,
                                                 "state_label": "granulated"
                                          },
                                          {
                                                 "state_id": 116,
                                                 "state_label": "in pot"
                                          }
                                   ],
                                   "ingredients": [],
                                   "object_in_motion": "1",
                                   "has_portions": "False"
                            }
                     ]
              },
              {
                     "input_nodes": [
                            {
                                   "object_id": 420,
                                   "object_label": "pot",
                                   "object_states": [
                                          {
                                                 "state_id": 139,
                                                 "state_label": "ingredients inside"
                                          }
                                   ],
                                   "ingredients": [
                                          "butter",
                                          "corn",
                                          "milk",
                                          "sugar",
                                          "water"
                                   ],
                                   "object_in_motion": "0",
                                   "has_portions": "False"
                            },
                            {
                                   "object_id": 51,
                                   "object_label": "bowl",
                                   "object_states": [
                                          {
                                                 "state_id": 139,
                                                 "state_label": "ingredients inside"
                                          }
                                   ],
                                   "ingredients": [
                                          "salt"
                                   ],
                                   "object_in_motion": "1",
                                   "has_portions": "False"
                            },
                            {
                                   "object_id": 459,
                                   "object_label": "salt",
                                   "object_states": [
                                          {
                                                 "state_id": 67,
                                                 "state_label": "granulated"
                                          },
                                          {
                                                 "state_id": 84,
                                                 "state_label": "in bowl"
                                          }
                                   ],
                                   "ingredients": [],
                                   "object_in_motion": "1",
                                   "has_portions": "False"
                            }
                     ],
                     "motion_node": {
                            "motion_id": "64",
                            "motion_label": "sprinkle",
                            "start_time": "2:18",
                            "end_time": "2:22",
                            "weight_success": 0.0
                     },
                     "output_nodes": [
                            {
                                   "object_id": 420,
                                   "object_label": "pot",
                                   "object_states": [
                                          {
                                                 "state_id": 139,
                                                 "state_label": "ingredients inside"
                                          }
                                   ],
                                   "ingredients": [
                                          "butter",
                                          "corn",
                                          "milk",
                                          "salt",
                                          "sugar",
                                          "water"
                                   ],
                                   "object_in_motion": "0",
                                   "has_portions": "False"
                            },
                            {
                                   "object_id": 459,
                                   "object_label": "salt",
                                   "object_states": [
                                          {
                                                 "state_id": 67,
                                                 "state_label": "granulated"
                                          },
                                          {
                                                 "state_id": 116,
                                                 "state_label": "in pot"
                                          }
                                   ],
                                   "ingredients": [],
                                   "object_in_motion": "1",
                                   "has_portions": "False"
                            }
                     ]
              },
              {
                     "input_nodes": [
                            {
                                   "object_id": 420,
                                   "object_label": "pot",
                                   "object_states": [
                                          {
                                                 "state_id": 139,
                                                 "state_label": "ingredients inside"
                                          }
                                   ],
                                   "ingredients": [
                                          "butter",
                                          "corn",
                                          "milk",
                                          "salt",
                                          "sugar",
                                          "water"
                                   ],
                                   "object_in_motion": "0",
                                   "has_portions": "False"
                            },
                            {
                                   "object_id": 477,
                                   "object_label": "shaker",
                                   "object_states": [
                                          {
                                                 "state_id": 139,
                                                 "state_label": "ingredients inside"
                                          }
                                   ],
                                   "ingredients": [
                                          "black pepper"
                                   ],
                                   "object_in_motion": "1",
                                   "has_portions": "False"
                            },
                            {
                                   "object_id": 38,
                                   "object_label": "black pepper",
                                   "object_states": [
                                          {
                                                 "state_id": 71,
                                                 "state_label": "ground"
                                          },
                                          {
                                                 "state_id": 122,
                                                 "state_label": "in shaker"
                                          }
                                   ],
                                   "ingredients": [],
                                   "object_in_motion": "1",
                                   "has_portions": "False"
                            }
                     ],
                     "motion_node": {
                            "motion_id": "64",
                            "motion_label": "sprinkle",
                            "start_time": "2:24",
                            "end_time": "2:27",
                            "weight_success": 0.0
                     },
                     "output_nodes": [
                            {
                                   "object_id": 420,
                                   "object_label": "pot",
                                   "object_states": [
                                          {
                                                 "state_id": 139,
                                                 "state_label": "ingredients inside"
                                          }
                                   ],
                                   "ingredients": [
                                          "black pepper",
                                          "butter",
                                          "corn",
                                          "milk",
                                          "salt",
                                          "sugar",
                                          "water"
                                   ],
                                   "object_in_motion": "0",
                                   "has_portions": "False"
                            },
                            {
                                   "object_id": 38,
                                   "object_label": "black pepper",
                                   "object_states": [
                                          {
                                                 "state_id": 71,
                                                 "state_label": "ground"
                                          },
                                          {
                                                 "state_id": 116,
                                                 "state_label": "in pot"
                                          }
                                   ],
                                   "ingredients": [],
                                   "object_in_motion": "1",
                                   "has_portions": "False"
                            }
                     ]
              },
              {
                     "input_nodes": [
                            {
                                   "object_id": 420,
                                   "object_label": "pot",
                                   "object_states": [
                                          {
                                                 "state_id": 139,
                                                 "state_label": "ingredients inside"
                                          }
                                   ],
                                   "ingredients": [
                                          "black pepper",
                                          "butter",
                                          "corn",
                                          "milk",
                                          "salt",
                                          "sugar",
                                          "water"
                                   ],
                                   "object_in_motion": "0",
                                   "has_portions": "False"
                            },
                            {
                                   "object_id": 507,
                                   "object_label": "spoon",
                                   "object_states": [
                                          {
                                                 "state_id": 23,
                                                 "state_label": "clean"
                                          }
                                   ],
                                   "ingredients": [],
                                   "object_in_motion": "1",
                                   "has_portions": "False"
                            },
                            {
                                   "object_id": 152,
                                   "object_label": "corn kernels",
                                   "object_states": [
                                          {
                                                 "state_id": 116,
                                                 "state_label": "in pot"
                                          },
                                          {
                                                 "state_id": 258,
                                                 "state_label": "uncooked"
                                          }
                                   ],
                                   "ingredients": [],
                                   "object_in_motion": "1",
                                   "has_portions": "False"
                            }
                     ],
                     "motion_node": {
                            "motion_id": "66",
                            "motion_label": "stir",
                            "start_time": "2:28",
                            "end_time": "2:35",
                            "weight_success": 0.0
                     },
                     "output_nodes": [
                            {
                                   "object_id": 420,
                                   "object_label": "pot",
                                   "object_states": [
                                          {
                                                 "state_id": 143,
                                                 "state_label": "ingredients mixed inside"
                                          }
                                   ],
                                   "ingredients": [
                                          "corn mixture"
                                   ],
                                   "object_in_motion": "0",
                                   "has_portions": "False"
                            },
                            {
                                   "object_id": 153,
                                   "object_label": "corn mixture",
                                   "object_states": [
                                          {
                                                 "state_id": 116,
                                                 "state_label": "in pot"
                                          },
                                          {
                                                 "state_id": 258,
                                                 "state_label": "uncooked"
                                          }
                                   ],
                                   "ingredients": [],
                                   "object_in_motion": "1",
                                   "has_portions": "False"
                            }
                     ]
              },
              {
                     "input_nodes": [
                            {
                                   "object_id": 420,
                                   "object_label": "pot",
                                   "object_states": [
                                          {
                                                 "state_id": 143,
                                                 "state_label": "ingredients mixed inside"
                                          }
                                   ],
                                   "ingredients": [
                                          "corn mixture"
                                   ],
                                   "object_in_motion": "1",
                                   "has_portions": "False"
                            },
                            {
                                   "object_id": 516,
                                   "object_label": "stove",
                                   "object_states": [
                                          {
                                                 "state_id": 168,
                                                 "state_label": "on"
                                          }
                                   ],
                                   "ingredients": [],
                                   "object_in_motion": "0",
                                   "has_portions": "False"
                            }
                     ],
                     "motion_node": {
                            "motion_id": "38",
                            "motion_label": "pick-and-place",
                            "start_time": "Assumed",
                            "end_time": "Assumed",
                            "weight_success": 0.0
                     },
                     "output_nodes": [
                            {
                                   "object_id": 420,
                                   "object_label": "pot",
                                   "object_states": [
                                          {
                                                 "state_id": 143,
                                                 "state_label": "ingredients mixed inside"
                                          },
                                          {
                                                 "state_id": 198,
                                                 "state_label": "on stove"
                                          }
                                   ],
                                   "ingredients": [
                                          "corn mixture"
                                   ],
                                   "object_in_motion": "1",
                                   "has_portions": "False"
                            },
                            {
                                   "object_id": 516,
                                   "object_label": "stove",
                                   "object_states": [
                                          {
                                                 "state_id": 168,
                                                 "state_label": "on"
                                          },
                                          {
                                                 "state_id": 220,
                                                 "state_label": "pot on top"
                                          }
                                   ],
                                   "ingredients": [],
                                   "object_in_motion": "1",
                                   "has_portions": "False"
                            }
                     ]
              },
              {
                     "input_nodes": [
                            {
                                   "object_id": 420,
                                   "object_label": "pot",
                                   "object_states": [
                                          {
                                                 "state_id": 143,
                                                 "state_label": "ingredients mixed inside"
                                          },
                                          {
                                                 "state_id": 198,
                                                 "state_label": "on stove"
                                          }
                                   ],
                                   "ingredients": [
                                          "corn mixture"
                                   ],
                                   "object_in_motion": "1",
                                   "has_portions": "False"
                            },
                            {
                                   "object_id": 516,
                                   "object_label": "stove",
                                   "object_states": [
                                          {
                                                 "state_id": 168,
                                                 "state_label": "on"
                                          },
                                          {
                                                 "state_id": 220,
                                                 "state_label": "pot on top"
                                          }
                                   ],
                                   "ingredients": [],
                                   "object_in_motion": "1",
                                   "has_portions": "False"
                            },
                            {
                                   "object_id": 153,
                                   "object_label": "corn mixture",
                                   "object_states": [
                                          {
                                                 "state_id": 116,
                                                 "state_label": "in pot"
                                          },
                                          {
                                                 "state_id": 258,
                                                 "state_label": "uncooked"
                                          }
                                   ],
                                   "ingredients": [],
                                   "object_in_motion": "1",
                                   "has_portions": "False"
                            }
                     ],
                     "motion_node": {
                            "motion_id": "4",
                            "motion_label": "boil",
                            "start_time": "3:07",
                            "end_time": "3:13",
                            "weight_success": 0.0
                     },
                     "output_nodes": [
                            {
                                   "object_id": 153,
                                   "object_label": "corn mixture",
                                   "object_states": [
                                          {
                                                 "state_id": 116,
                                                 "state_label": "in pot"
                                          },
                                          {
                                                 "state_id": 210,
                                                 "state_label": "partly cooked"
                                          }
                                   ],
                                   "ingredients": [],
                                   "object_in_motion": "1",
                                   "has_portions": "False"
                            }
                     ]
              },
              {
                     "input_nodes": [
                            {
                                   "object_id": 334,
                                   "object_label": "measuring cup",
                                   "object_states": [
                                          {
                                                 "state_id": 139,
                                                 "state_label": "ingredients inside"
                                          }
                                   ],
                                   "ingredients": [
                                          "milk"
                                   ],
                                   "object_in_motion": "1",
                                   "has_portions": "False"
                            },
                            {
                                   "object_id": 51,
                                   "object_label": "bowl",
                                   "object_states": [
                                          {
                                                 "state_id": 139,
                                                 "state_label": "ingredients inside"
                                          }
                                   ],
                                   "ingredients": [
                                          "corn starch"
                                   ],
                                   "object_in_motion": "1",
                                   "has_portions": "False"
                            },
                            {
                                   "object_id": 154,
                                   "object_label": "corn starch",
                                   "object_states": [
                                          {
                                                 "state_id": 84,
                                                 "state_label": "in bowl"
                                          }
                                   ],
                                   "ingredients": [],
                                   "object_in_motion": "1",
                                   "has_portions": "False"
                            },
                            {
                                   "object_id": 507,
                                   "object_label": "spoon",
                                   "object_states": [
                                          {
                                                 "state_id": 23,
                                                 "state_label": "clean"
                                          }
                                   ],
                                   "ingredients": [],
                                   "object_in_motion": "1",
                                   "has_portions": "False"
                            }
                     ],
                     "motion_node": {
                            "motion_id": "50",
                            "motion_label": "scoop",
                            "start_time": "3:22",
                            "end_time": "3:27",
                            "weight_success": 0.0
                     },
                     "output_nodes": [
                            {
                                   "object_id": 334,
                                   "object_label": "measuring cup",
                                   "object_states": [
                                          {
                                                 "state_id": 139,
                                                 "state_label": "ingredients inside"
                                          }
                                   ],
                                   "ingredients": [
                                          "corn starch",
                                          "milk"
                                   ],
                                   "object_in_motion": "1",
                                   "has_portions": "False"
                            },
                            {
                                   "object_id": 154,
                                   "object_label": "corn starch",
                                   "object_states": [
                                          {
                                                 "state_id": 103,
                                                 "state_label": "in measuring cup"
                                          }
                                   ],
                                   "ingredients": [],
                                   "object_in_motion": "1",
                                   "has_portions": "False"
                            }
                     ]
              },
              {
                     "input_nodes": [
                            {
                                   "object_id": 334,
                                   "object_label": "measuring cup",
                                   "object_states": [
                                          {
                                                 "state_id": 139,
                                                 "state_label": "ingredients inside"
                                          }
                                   ],
                                   "ingredients": [
                                          "corn starch",
                                          "milk"
                                   ],
                                   "object_in_motion": "1",
                                   "has_portions": "False"
                            },
                            {
                                   "object_id": 507,
                                   "object_label": "spoon",
                                   "object_states": [
                                          {
                                                 "state_id": 23,
                                                 "state_label": "clean"
                                          }
                                   ],
                                   "ingredients": [],
                                   "object_in_motion": "1",
                                   "has_portions": "False"
                            }
                     ],
                     "motion_node": {
                            "motion_id": "35",
                            "motion_label": "mix",
                            "start_time": "3:30",
                            "end_time": "3:36",
                            "weight_success": 0.0
                     },
                     "output_nodes": [
                            {
                                   "object_id": 334,
                                   "object_label": "measuring cup",
                                   "object_states": [
                                          {
                                                 "state_id": 143,
                                                 "state_label": "ingredients mixed inside"
                                          }
                                   ],
                                   "ingredients": [
                                          "corn starch",
                                          "milk"
                                   ],
                                   "object_in_motion": "1",
                                   "has_portions": "False"
                            }
                     ]
              },
              {
                     "input_nodes": [
                            {
                                   "object_id": 334,
                                   "object_label": "measuring cup",
                                   "object_states": [
                                          {
                                                 "state_id": 143,
                                                 "state_label": "ingredients mixed inside"
                                          }
                                   ],
                                   "ingredients": [
                                          "corn starch",
                                          "milk"
                                   ],
                                   "object_in_motion": "1",
                                   "has_portions": "False"
                            },
                            {
                                   "object_id": 153,
                                   "object_label": "corn mixture",
                                   "object_states": [
                                          {
                                                 "state_id": 116,
                                                 "state_label": "in pot"
                                          },
                                          {
                                                 "state_id": 210,
                                                 "state_label": "partly cooked"
                                          }
                                   ],
                                   "ingredients": [],
                                   "object_in_motion": "1",
                                   "has_portions": "False"
                            },
                            {
                                   "object_id": 420,
                                   "object_label": "pot",
                                   "object_states": [
                                          {
                                                 "state_id": 143,
                                                 "state_label": "ingredients mixed inside"
                                          },
                                          {
                                                 "state_id": 198,
                                                 "state_label": "on stove"
                                          }
                                   ],
                                   "ingredients": [
                                          "corn mixture"
                                   ],
                                   "object_in_motion": "0",
                                   "has_portions": "False"
                            },
                            {
                                   "object_id": 507,
                                   "object_label": "spoon",
                                   "object_states": [
                                          {
                                                 "state_id": 23,
                                                 "state_label": "clean"
                                          }
                                   ],
                                   "ingredients": [],
                                   "object_in_motion": "1",
                                   "has_portions": "False"
                            }
                     ],
                     "motion_node": {
                            "motion_id": "40",
                            "motion_label": "pour",
                            "start_time": "3:50",
                            "end_time": "3:54",
                            "weight_success": 0.0
                     },
                     "output_nodes": [
                            {
                                   "object_id": 420,
                                   "object_label": "pot",
                                   "object_states": [
                                          {
                                                 "state_id": 139,
                                                 "state_label": "ingredients inside"
                                          },
                                          {
                                                 "state_id": 198,
                                                 "state_label": "on stove"
                                          }
                                   ],
                                   "ingredients": [
                                          "corn mixture",
                                          "corn starch",
                                          "milk"
                                   ],
                                   "object_in_motion": "0",
                                   "has_portions": "False"
                            }
                     ]
              },
              {
                     "input_nodes": [
                            {
                                   "object_id": 420,
                                   "object_label": "pot",
                                   "object_states": [
                                          {
                                                 "state_id": 139,
                                                 "state_label": "ingredients inside"
                                          },
                                          {
                                                 "state_id": 198,
                                                 "state_label": "on stove"
                                          }
                                   ],
                                   "ingredients": [
                                          "corn mixture",
                                          "corn starch",
                                          "milk"
                                   ],
                                   "object_in_motion": "0",
                                   "has_portions": "False"
                            },
                            {
                                   "object_id": 153,
                                   "object_label": "corn mixture",
                                   "object_states": [
                                          {
                                                 "state_id": 116,
                                                 "state_label": "in pot"
                                          },
                                          {
                                                 "state_id": 210,
                                                 "state_label": "partly cooked"
                                          }
                                   ],
                                   "ingredients": [],
                                   "object_in_motion": "1",
                                   "has_portions": "False"
                            },
                            {
                                   "object_id": 507,
                                   "object_label": "spoon",
                                   "object_states": [
                                          {
                                                 "state_id": 23,
                                                 "state_label": "clean"
                                          }
                                   ],
                                   "ingredients": [],
                                   "object_in_motion": "1",
                                   "has_portions": "False"
                            }
                     ],
                     "motion_node": {
                            "motion_id": "12",
                            "motion_label": "cook and stir",
                            "start_time": "3:58",
                            "end_time": "4:28",
                            "weight_success": 0.0
                     },
                     "output_nodes": [
                            {
                                   "object_id": 420,
                                   "object_label": "pot",
                                   "object_states": [
                                          {
                                                 "state_id": 48,
                                                 "state_label": "dish inside"
                                          },
                                          {
                                                 "state_id": 198,
                                                 "state_label": "on stove"
                                          }
                                   ],
                                   "ingredients": [
                                          "creamed corn"
                                   ],
                                   "object_in_motion": "0",
                                   "has_portions": "False"
                            },
                            {
                                   "object_id": 166,
                                   "object_label": "creamed corn",
                                   "object_states": [
                                          {
                                                 "state_id": 29,
                                                 "state_label": "cooked"
                                          },
                                          {
                                                 "state_id": 116,
                                                 "state_label": "in pot"
                                          }
                                   ],
                                   "ingredients": [],
                                   "object_in_motion": "1",
                                   "has_portions": "False"
                            }
                     ]
              },
              {
                     "input_nodes": [
                            {
                                   "object_id": 420,
                                   "object_label": "pot",
                                   "object_states": [
                                          {
                                                 "state_id": 48,
                                                 "state_label": "dish inside"
                                          },
                                          {
                                                 "state_id": 198,
                                                 "state_label": "on stove"
                                          }
                                   ],
                                   "ingredients": [
                                          "creamed corn"
                                   ],
                                   "object_in_motion": "0",
                                   "has_portions": "False"
                            },
                            {
                                   "object_id": 166,
                                   "object_label": "creamed corn",
                                   "object_states": [
                                          {
                                                 "state_id": 29,
                                                 "state_label": "cooked"
                                          },
                                          {
                                                 "state_id": 116,
                                                 "state_label": "in pot"
                                          }
                                   ],
                                   "ingredients": [],
                                   "object_in_motion": "1",
                                   "has_portions": "False"
                            },
                            {
                                   "object_id": 51,
                                   "object_label": "bowl",
                                   "object_states": [
                                          {
                                                 "state_id": 139,
                                                 "state_label": "ingredients inside"
                                          }
                                   ],
                                   "ingredients": [
                                          "parmesan"
                                   ],
                                   "object_in_motion": "1",
                                   "has_portions": "False"
                            },
                            {
                                   "object_id": 382,
                                   "object_label": "parmesan",
                                   "object_states": [
                                          {
                                                 "state_id": 68,
                                                 "state_label": "grated"
                                          },
                                          {
                                                 "state_id": 84,
                                                 "state_label": "in bowl"
                                          }
                                   ],
                                   "ingredients": [],
                                   "object_in_motion": "1",
                                   "has_portions": "False"
                            }
                     ],
                     "motion_node": {
                            "motion_id": "64",
                            "motion_label": "sprinkle",
                            "start_time": "4:32",
                            "end_time": "4:35",
                            "weight_success": 0.0
                     },
                     "output_nodes": [
                            {
                                   "object_id": 382,
                                   "object_label": "parmesan",
                                   "object_states": [
                                          {
                                                 "state_id": 68,
                                                 "state_label": "grated"
                                          },
                                          {
                                                 "state_id": 116,
                                                 "state_label": "in pot"
                                          }
                                   ],
                                   "ingredients": [],
                                   "object_in_motion": "1",
                                   "has_portions": "False"
                            }
                     ]
              },
              {
                     "input_nodes": [
                            {
                                   "object_id": 420,
                                   "object_label": "pot",
                                   "object_states": [
                                          {
                                                 "state_id": 48,
                                                 "state_label": "dish inside"
                                          },
                                          {
                                                 "state_id": 198,
                                                 "state_label": "on stove"
                                          }
                                   ],
                                   "ingredients": [
                                          "creamed corn"
                                   ],
                                   "object_in_motion": "0",
                                   "has_portions": "False"
                            },
                            {
                                   "object_id": 166,
                                   "object_label": "creamed corn",
                                   "object_states": [
                                          {
                                                 "state_id": 29,
                                                 "state_label": "cooked"
                                          },
                                          {
                                                 "state_id": 116,
                                                 "state_label": "in pot"
                                          }
                                   ],
                                   "ingredients": [],
                                   "object_in_motion": "1",
                                   "has_portions": "False"
                            },
                            {
                                   "object_id": 507,
                                   "object_label": "spoon",
                                   "object_states": [
                                          {
                                                 "state_id": 23,
                                                 "state_label": "clean"
                                          }
                                   ],
                                   "ingredients": [],
                                   "object_in_motion": "1",
                                   "has_portions": "False"
                            },
                            {
                                   "object_id": 382,
                                   "object_label": "parmesan",
                                   "object_states": [
                                          {
                                                 "state_id": 68,
                                                 "state_label": "grated"
                                          },
                                          {
                                                 "state_id": 116,
                                                 "state_label": "in pot"
                                          }
                                   ],
                                   "ingredients": [],
                                   "object_in_motion": "1",
                                   "has_portions": "False"
                            }
                     ],
                     "motion_node": {
                            "motion_id": "35",
                            "motion_label": "mix",
                            "start_time": "4:36",
                            "end_time": "4:48",
                            "weight_success": 0.0
                     },
                     "output_nodes": [
                            {
                                   "object_id": 166,
                                   "object_label": "creamed corn",
                                   "object_states": [
                                          {
                                                 "state_id": 29,
                                                 "state_label": "cooked"
                                          },
                                          {
                                                 "state_id": 116,
                                                 "state_label": "in pot"
                                          }
                                   ],
                                   "ingredients": [
                                          "parmesan cheese"
                                   ],
                                   "object_in_motion": "1",
                                   "has_portions": "False"
                            }
                     ]
              },
              {
                     "input_nodes": [
                            {
                                   "object_id": 420,
                                   "object_label": "pot",
                                   "object_states": [
                                          {
                                                 "state_id": 48,
                                                 "state_label": "dish inside"
                                          },
                                          {
                                                 "state_id": 198,
                                                 "state_label": "on stove"
                                          }
                                   ],
                                   "ingredients": [
                                          "creamed corn"
                                   ],
                                   "object_in_motion": "0",
                                   "has_portions": "False"
                            },
                            {
                                   "object_id": 166,
                                   "object_label": "creamed corn",
                                   "object_states": [
                                          {
                                                 "state_id": 29,
                                                 "state_label": "cooked"
                                          },
                                          {
                                                 "state_id": 116,
                                                 "state_label": "in pot"
                                          }
                                   ],
                                   "ingredients": [
                                          "parmesan cheese"
                                   ],
                                   "object_in_motion": "1",
                                   "has_portions": "False"
                            },
                            {
                                   "object_id": 51,
                                   "object_label": "bowl",
                                   "object_states": [
                                          {
                                                 "state_id": 54,
                                                 "state_label": "empty"
                                          }
                                   ],
                                   "ingredients": [],
                                   "object_in_motion": "0",
                                   "has_portions": "False"
                            },
                            {
                                   "object_id": 297,
                                   "object_label": "ladle",
                                   "object_states": [
                                          {
                                                 "state_id": 23,
                                                 "state_label": "clean"
                                          }
                                   ],
                                   "ingredients": [],
                                   "object_in_motion": "1",
                                   "has_portions": "False"
                            }
                     ],
                     "motion_node": {
                            "motion_id": "51",
                            "motion_label": "scoop and pour",
                            "start_time": "Assumed",
                            "end_time": "Assumed",
                            "weight_success": 0.0
                     },
                     "output_nodes": [
                            {
                                   "object_id": 51,
                                   "object_label": "bowl",
                                   "object_states": [
                                          {
                                                 "state_id": 48,
                                                 "state_label": "dish inside"
                                          }
                                   ],
                                   "ingredients": [
                                          "creamed corn"
                                   ],
                                   "object_in_motion": "0",
                                   "has_portions": "False"
                            },
                            {
                                   "object_id": 166,
                                   "object_label": "creamed corn",
                                   "object_states": [
                                          {
                                                 "state_id": 29,
                                                 "state_label": "cooked"
                                          },
                                          {
                                                 "state_id": 84,
                                                 "state_label": "in bowl"
                                          }
                                   ],
                                   "ingredients": [
                                          "parmesan cheese"
                                   ],
                                   "object_in_motion": "1",
                                   "has_portions": "False"
                            }
                     ]
              }
       ]
}