{
       "functional_units": [
              {
                     "input_nodes": [
                            {
                                   "object_id": 415,
                                   "object_label": "plate",
                                   "object_states": [
                                          {
                                                 "state_id": 54,
                                                 "state_label": "empty"
                                          }
                                   ],
                                   "ingredients": [],
                                   "object_in_motion": "0",
                                   "has_portions": "False"
                            },
                            {
                                   "object_id": 419,
                                   "object_label": "porkchop",
                                   "object_states": [
                                          {
                                                 "state_id": 258,
                                                 "state_label": "uncooked"
                                          }
                                   ],
                                   "ingredients": [],
                                   "object_in_motion": "1",
                                   "has_portions": "False"
                            }
                     ],
                     "motion_node": {
                            "motion_id": "38",
                            "motion_label": "pick-and-place",
                            "start_time": "Assumed",
                            "end_time": "Assumed",
                            "weight_success": 0.0
                     },
                     "output_nodes": [
                            {
                                   "object_id": 415,
                                   "object_label": "plate",
                                   "object_states": [
                                          {
                                                 "state_id": 145,
                                                 "state_label": "ingredients on top"
                                          }
                                   ],
                                   "ingredients": [
                                          "porkchop"
                                   ],
                                   "object_in_motion": "0",
                                   "has_portions": "False"
                            },
                            {
                                   "object_id": 419,
                                   "object_label": "porkchop",
                                   "object_states": [
                                          {
                                                 "state_id": 189,
                                                 "state_label": "on plate"
                                          },
                                          {
                                                 "state_id": 258,
                                                 "state_label": "uncooked"
                                          }
                                   ],
                                   "ingredients": [],
                                   "object_in_motion": "1",
                                   "has_portions": "False"
                            }
                     ]
              },
              {
                     "input_nodes": [
                            {
                                   "object_id": 51,
                                   "object_label": "bowl",
                                   "object_states": [
                                          {
                                                 "state_id": 139,
                                                 "state_label": "ingredients inside"
                                          }
                                   ],
                                   "ingredients": [
                                          "black pepper",
                                          "salt"
                                   ],
                                   "object_in_motion": "0",
                                   "has_portions": "False"
                            },
                            {
                                   "object_id": 38,
                                   "object_label": "black pepper",
                                   "object_states": [
                                          {
                                                 "state_id": 71,
                                                 "state_label": "ground"
                                          },
                                          {
                                                 "state_id": 84,
                                                 "state_label": "in bowl"
                                          }
                                   ],
                                   "ingredients": [],
                                   "object_in_motion": "1",
                                   "has_portions": "False"
                            },
                            {
                                   "object_id": 459,
                                   "object_label": "salt",
                                   "object_states": [
                                          {
                                                 "state_id": 67,
                                                 "state_label": "granulated"
                                          },
                                          {
                                                 "state_id": 84,
                                                 "state_label": "in bowl"
                                          }
                                   ],
                                   "ingredients": [],
                                   "object_in_motion": "1",
                                   "has_portions": "False"
                            },
                            {
                                   "object_id": 415,
                                   "object_label": "plate",
                                   "object_states": [
                                          {
                                                 "state_id": 145,
                                                 "state_label": "ingredients on top"
                                          }
                                   ],
                                   "ingredients": [
                                          "porkchop"
                                   ],
                                   "object_in_motion": "0",
                                   "has_portions": "False"
                            },
                            {
                                   "object_id": 419,
                                   "object_label": "porkchop",
                                   "object_states": [
                                          {
                                                 "state_id": 189,
                                                 "state_label": "on plate"
                                          },
                                          {
                                                 "state_id": 258,
                                                 "state_label": "uncooked"
                                          }
                                   ],
                                   "ingredients": [],
                                   "object_in_motion": "1",
                                   "has_portions": "False"
                            }
                     ],
                     "motion_node": {
                            "motion_id": "64",
                            "motion_label": "sprinkle",
                            "start_time": "0:22",
                            "end_time": "0:24",
                            "weight_success": 0.0
                     },
                     "output_nodes": [
                            {
                                   "object_id": 419,
                                   "object_label": "porkchop",
                                   "object_states": [
                                          {
                                                 "state_id": 189,
                                                 "state_label": "on plate"
                                          },
                                          {
                                                 "state_id": 231,
                                                 "state_label": "seasoned"
                                          }
                                   ],
                                   "ingredients": [
                                          "black pepper",
                                          "salt"
                                   ],
                                   "object_in_motion": "0",
                                   "has_portions": "False"
                            }
                     ]
              },
              {
                     "input_nodes": [
                            {
                                   "object_id": 144,
                                   "object_label": "cooking pan",
                                   "object_states": [
                                          {
                                                 "state_id": 54,
                                                 "state_label": "empty"
                                          }
                                   ],
                                   "ingredients": [],
                                   "object_in_motion": "1",
                                   "has_portions": "False"
                            },
                            {
                                   "object_id": 516,
                                   "object_label": "stove",
                                   "object_states": [
                                          {
                                                 "state_id": 168,
                                                 "state_label": "on"
                                          }
                                   ],
                                   "ingredients": [],
                                   "object_in_motion": "0",
                                   "has_portions": "False"
                            }
                     ],
                     "motion_node": {
                            "motion_id": "38",
                            "motion_label": "pick-and-place",
                            "start_time": "Assumed",
                            "end_time": "Assumed",
                            "weight_success": 0.0
                     },
                     "output_nodes": [
                            {
                                   "object_id": 516,
                                   "object_label": "stove",
                                   "object_states": [
                                          {
                                                 "state_id": 168,
                                                 "state_label": "on"
                                          },
                                          {
                                                 "state_id": 209,
                                                 "state_label": "pan on top"
                                          }
                                   ],
                                   "ingredients": [],
                                   "object_in_motion": "1",
                                   "has_portions": "False"
                            },
                            {
                                   "object_id": 144,
                                   "object_label": "cooking pan",
                                   "object_states": [
                                          {
                                                 "state_id": 75,
                                                 "state_label": "heated"
                                          },
                                          {
                                                 "state_id": 198,
                                                 "state_label": "on stove"
                                          }
                                   ],
                                   "ingredients": [],
                                   "object_in_motion": "0",
                                   "has_portions": "False"
                            }
                     ]
              },
              {
                     "input_nodes": [
                            {
                                   "object_id": 144,
                                   "object_label": "cooking pan",
                                   "object_states": [
                                          {
                                                 "state_id": 75,
                                                 "state_label": "heated"
                                          },
                                          {
                                                 "state_id": 198,
                                                 "state_label": "on stove"
                                          }
                                   ],
                                   "ingredients": [],
                                   "object_in_motion": "0",
                                   "has_portions": "False"
                            },
                            {
                                   "object_id": 293,
                                   "object_label": "knife",
                                   "object_states": [
                                          {
                                                 "state_id": 23,
                                                 "state_label": "clean"
                                          }
                                   ],
                                   "ingredients": [],
                                   "object_in_motion": "1",
                                   "has_portions": "False"
                            },
                            {
                                   "object_id": 415,
                                   "object_label": "plate",
                                   "object_states": [
                                          {
                                                 "state_id": 145,
                                                 "state_label": "ingredients on top"
                                          }
                                   ],
                                   "ingredients": [
                                          "butter"
                                   ],
                                   "object_in_motion": "0",
                                   "has_portions": "False"
                            },
                            {
                                   "object_id": 66,
                                   "object_label": "butter",
                                   "object_states": [
                                          {
                                                 "state_id": 189,
                                                 "state_label": "on plate"
                                          },
                                          {
                                                 "state_id": 249,
                                                 "state_label": "stick"
                                          }
                                   ],
                                   "ingredients": [],
                                   "object_in_motion": "1",
                                   "has_portions": "False"
                            }
                     ],
                     "motion_node": {
                            "motion_id": "51",
                            "motion_label": "scoop and pour",
                            "start_time": "0:46",
                            "end_time": "0:50",
                            "weight_success": 0.0
                     },
                     "output_nodes": [
                            {
                                   "object_id": 144,
                                   "object_label": "cooking pan",
                                   "object_states": [
                                          {
                                                 "state_id": 139,
                                                 "state_label": "ingredients inside"
                                          },
                                          {
                                                 "state_id": 198,
                                                 "state_label": "on stove"
                                          }
                                   ],
                                   "ingredients": [
                                          "butter"
                                   ],
                                   "object_in_motion": "0",
                                   "has_portions": "False"
                            },
                            {
                                   "object_id": 66,
                                   "object_label": "butter",
                                   "object_states": [
                                          {
                                                 "state_id": 34,
                                                 "state_label": "cubed"
                                          },
                                          {
                                                 "state_id": 114,
                                                 "state_label": "in pan"
                                          }
                                   ],
                                   "ingredients": [],
                                   "object_in_motion": "1",
                                   "has_portions": "False"
                            }
                     ]
              },
              {
                     "input_nodes": [
                            {
                                   "object_id": 144,
                                   "object_label": "cooking pan",
                                   "object_states": [
                                          {
                                                 "state_id": 139,
                                                 "state_label": "ingredients inside"
                                          },
                                          {
                                                 "state_id": 198,
                                                 "state_label": "on stove"
                                          }
                                   ],
                                   "ingredients": [
                                          "butter"
                                   ],
                                   "object_in_motion": "0",
                                   "has_portions": "False"
                            },
                            {
                                   "object_id": 48,
                                   "object_label": "bottle",
                                   "object_states": [
                                          {
                                                 "state_id": 139,
                                                 "state_label": "ingredients inside"
                                          }
                                   ],
                                   "ingredients": [
                                          "vegetable oil"
                                   ],
                                   "object_in_motion": "1",
                                   "has_portions": "False"
                            },
                            {
                                   "object_id": 558,
                                   "object_label": "vegetable oil",
                                   "object_states": [
                                          {
                                                 "state_id": 83,
                                                 "state_label": "in bottle"
                                          }
                                   ],
                                   "ingredients": [],
                                   "object_in_motion": "1",
                                   "has_portions": "False"
                            }
                     ],
                     "motion_node": {
                            "motion_id": "40",
                            "motion_label": "pour",
                            "start_time": "0:54",
                            "end_time": "0:57",
                            "weight_success": 0.0
                     },
                     "output_nodes": [
                            {
                                   "object_id": 144,
                                   "object_label": "cooking pan",
                                   "object_states": [
                                          {
                                                 "state_id": 139,
                                                 "state_label": "ingredients inside"
                                          },
                                          {
                                                 "state_id": 198,
                                                 "state_label": "on stove"
                                          }
                                   ],
                                   "ingredients": [
                                          "butter",
                                          "vegetable oil"
                                   ],
                                   "object_in_motion": "0",
                                   "has_portions": "False"
                            },
                            {
                                   "object_id": 558,
                                   "object_label": "vegetable oil",
                                   "object_states": [
                                          {
                                                 "state_id": 114,
                                                 "state_label": "in pan"
                                          }
                                   ],
                                   "ingredients": [],
                                   "object_in_motion": "1",
                                   "has_portions": "False"
                            }
                     ]
              },
              {
                     "input_nodes": [
                            {
                                   "object_id": 144,
                                   "object_label": "cooking pan",
                                   "object_states": [
                                          {
                                                 "state_id": 139,
                                                 "state_label": "ingredients inside"
                                          },
                                          {
                                                 "state_id": 198,
                                                 "state_label": "on stove"
                                          }
                                   ],
                                   "ingredients": [
                                          "butter",
                                          "vegetable oil"
                                   ],
                                   "object_in_motion": "1",
                                   "has_portions": "False"
                            },
                            {
                                   "object_id": 66,
                                   "object_label": "butter",
                                   "object_states": [
                                          {
                                                 "state_id": 34,
                                                 "state_label": "cubed"
                                          },
                                          {
                                                 "state_id": 114,
                                                 "state_label": "in pan"
                                          }
                                   ],
                                   "ingredients": [],
                                   "object_in_motion": "1",
                                   "has_portions": "False"
                            },
                            {
                                   "object_id": 558,
                                   "object_label": "vegetable oil",
                                   "object_states": [
                                          {
                                                 "state_id": 114,
                                                 "state_label": "in pan"
                                          }
                                   ],
                                   "ingredients": [],
                                   "object_in_motion": "1",
                                   "has_portions": "False"
                            }
                     ],
                     "motion_node": {
                            "motion_id": "63",
                            "motion_label": "spread",
                            "start_time": "1:01",
                            "end_time": "1:06",
                            "weight_success": 0.0
                     },
                     "output_nodes": [
                            {
                                   "object_id": 144,
                                   "object_label": "cooking pan",
                                   "object_states": [
                                          {
                                                 "state_id": 69,
                                                 "state_label": "greased"
                                          },
                                          {
                                                 "state_id": 198,
                                                 "state_label": "on stove"
                                          }
                                   ],
                                   "ingredients": [
                                          "butter",
                                          "vegetable oil"
                                   ],
                                   "object_in_motion": "1",
                                   "has_portions": "False"
                            }
                     ]
              },
              {
                     "input_nodes": [
                            {
                                   "object_id": 144,
                                   "object_label": "cooking pan",
                                   "object_states": [
                                          {
                                                 "state_id": 69,
                                                 "state_label": "greased"
                                          },
                                          {
                                                 "state_id": 198,
                                                 "state_label": "on stove"
                                          }
                                   ],
                                   "ingredients": [
                                          "butter",
                                          "vegetable oil"
                                   ],
                                   "object_in_motion": "0",
                                   "has_portions": "False"
                            },
                            {
                                   "object_id": 415,
                                   "object_label": "plate",
                                   "object_states": [
                                          {
                                                 "state_id": 145,
                                                 "state_label": "ingredients on top"
                                          }
                                   ],
                                   "ingredients": [
                                          "porkchop"
                                   ],
                                   "object_in_motion": "0",
                                   "has_portions": "False"
                            },
                            {
                                   "object_id": 419,
                                   "object_label": "porkchop",
                                   "object_states": [
                                          {
                                                 "state_id": 189,
                                                 "state_label": "on plate"
                                          },
                                          {
                                                 "state_id": 231,
                                                 "state_label": "seasoned"
                                          }
                                   ],
                                   "ingredients": [
                                          "black pepper",
                                          "salt"
                                   ],
                                   "object_in_motion": "1",
                                   "has_portions": "False"
                            },
                            {
                                   "object_id": 541,
                                   "object_label": "tongs",
                                   "object_states": [
                                          {
                                                 "state_id": 23,
                                                 "state_label": "clean"
                                          }
                                   ],
                                   "ingredients": [],
                                   "object_in_motion": "1",
                                   "has_portions": "False"
                            }
                     ],
                     "motion_node": {
                            "motion_id": "38",
                            "motion_label": "pick-and-place",
                            "start_time": "1:42",
                            "end_time": "1:48",
                            "weight_success": 0.0
                     },
                     "output_nodes": [
                            {
                                   "object_id": 144,
                                   "object_label": "cooking pan",
                                   "object_states": [
                                          {
                                                 "state_id": 139,
                                                 "state_label": "ingredients inside"
                                          },
                                          {
                                                 "state_id": 198,
                                                 "state_label": "on stove"
                                          }
                                   ],
                                   "ingredients": [
                                          "porkchop"
                                   ],
                                   "object_in_motion": "0",
                                   "has_portions": "False"
                            },
                            {
                                   "object_id": 419,
                                   "object_label": "porkchop",
                                   "object_states": [
                                          {
                                                 "state_id": 114,
                                                 "state_label": "in pan"
                                          },
                                          {
                                                 "state_id": 231,
                                                 "state_label": "seasoned"
                                          }
                                   ],
                                   "ingredients": [
                                          "black pepper",
                                          "salt"
                                   ],
                                   "object_in_motion": "1",
                                   "has_portions": "False"
                            },
                            {
                                   "object_id": 415,
                                   "object_label": "plate",
                                   "object_states": [
                                          {
                                                 "state_id": 45,
                                                 "state_label": "dirty"
                                          }
                                   ],
                                   "ingredients": [],
                                   "object_in_motion": "0",
                                   "has_portions": "False"
                            }
                     ]
              },
              {
                     "input_nodes": [
                            {
                                   "object_id": 144,
                                   "object_label": "cooking pan",
                                   "object_states": [
                                          {
                                                 "state_id": 139,
                                                 "state_label": "ingredients inside"
                                          },
                                          {
                                                 "state_id": 198,
                                                 "state_label": "on stove"
                                          }
                                   ],
                                   "ingredients": [
                                          "porkchop"
                                   ],
                                   "object_in_motion": "0",
                                   "has_portions": "False"
                            },
                            {
                                   "object_id": 419,
                                   "object_label": "porkchop",
                                   "object_states": [
                                          {
                                                 "state_id": 114,
                                                 "state_label": "in pan"
                                          },
                                          {
                                                 "state_id": 231,
                                                 "state_label": "seasoned"
                                          }
                                   ],
                                   "ingredients": [
                                          "black pepper",
                                          "salt"
                                   ],
                                   "object_in_motion": "1",
                                   "has_portions": "False"
                            },
                            {
                                   "object_id": 541,
                                   "object_label": "tongs",
                                   "object_states": [
                                          {
                                                 "state_id": 23,
                                                 "state_label": "clean"
                                          }
                                   ],
                                   "ingredients": [],
                                   "object_in_motion": "1",
                                   "has_portions": "False"
                            }
                     ],
                     "motion_node": {
                            "motion_id": "25",
                            "motion_label": "flip",
                            "start_time": "2:00",
                            "end_time": "2:03",
                            "weight_success": 0.0
                     },
                     "output_nodes": [
                            {
                                   "object_id": 419,
                                   "object_label": "porkchop",
                                   "object_states": [
                                          {
                                                 "state_id": 114,
                                                 "state_label": "in pan"
                                          },
                                          {
                                                 "state_id": 210,
                                                 "state_label": "partly cooked"
                                          },
                                          {
                                                 "state_id": 231,
                                                 "state_label": "seasoned"
                                          }
                                   ],
                                   "ingredients": [
                                          "black pepper",
                                          "salt"
                                   ],
                                   "object_in_motion": "1",
                                   "has_portions": "False"
                            }
                     ]
              },
              {
                     "input_nodes": [
                            {
                                   "object_id": 144,
                                   "object_label": "cooking pan",
                                   "object_states": [
                                          {
                                                 "state_id": 139,
                                                 "state_label": "ingredients inside"
                                          },
                                          {
                                                 "state_id": 198,
                                                 "state_label": "on stove"
                                          }
                                   ],
                                   "ingredients": [
                                          "porkchop"
                                   ],
                                   "object_in_motion": "0",
                                   "has_portions": "False"
                            },
                            {
                                   "object_id": 16,
                                   "object_label": "baking tray",
                                   "object_states": [
                                          {
                                                 "state_id": 54,
                                                 "state_label": "empty"
                                          }
                                   ],
                                   "ingredients": [],
                                   "object_in_motion": "1",
                                   "has_portions": "False"
                            }
                     ],
                     "motion_node": {
                            "motion_id": "13",
                            "motion_label": "cover",
                            "start_time": "2:30",
                            "end_time": "2:33",
                            "weight_success": 0.0
                     },
                     "output_nodes": [
                            {
                                   "object_id": 144,
                                   "object_label": "cooking pan",
                                   "object_states": [
                                          {
                                                 "state_id": 31,
                                                 "state_label": "covered"
                                          },
                                          {
                                                 "state_id": 139,
                                                 "state_label": "ingredients inside"
                                          },
                                          {
                                                 "state_id": 198,
                                                 "state_label": "on stove"
                                          }
                                   ],
                                   "ingredients": [
                                          "porkchop"
                                   ],
                                   "object_in_motion": "0",
                                   "has_portions": "False"
                            },
                            {
                                   "object_id": 16,
                                   "object_label": "baking tray",
                                   "object_states": [
                                          {
                                                 "state_id": 186,
                                                 "state_label": "on pan"
                                          }
                                   ],
                                   "ingredients": [],
                                   "object_in_motion": "1",
                                   "has_portions": "False"
                            }
                     ]
              },
              {
                     "input_nodes": [
                            {
                                   "object_id": 144,
                                   "object_label": "cooking pan",
                                   "object_states": [
                                          {
                                                 "state_id": 31,
                                                 "state_label": "covered"
                                          },
                                          {
                                                 "state_id": 139,
                                                 "state_label": "ingredients inside"
                                          },
                                          {
                                                 "state_id": 198,
                                                 "state_label": "on stove"
                                          }
                                   ],
                                   "ingredients": [
                                          "porkchop"
                                   ],
                                   "object_in_motion": "0",
                                   "has_portions": "False"
                            },
                            {
                                   "object_id": 419,
                                   "object_label": "porkchop",
                                   "object_states": [
                                          {
                                                 "state_id": 114,
                                                 "state_label": "in pan"
                                          },
                                          {
                                                 "state_id": 210,
                                                 "state_label": "partly cooked"
                                          },
                                          {
                                                 "state_id": 231,
                                                 "state_label": "seasoned"
                                          }
                                   ],
                                   "ingredients": [
                                          "black pepper",
                                          "salt"
                                   ],
                                   "object_in_motion": "0",
                                   "has_portions": "False"
                            }
                     ],
                     "motion_node": {
                            "motion_id": "10",
                            "motion_label": "cook",
                            "start_time": "Assumed",
                            "end_time": "Assumed",
                            "weight_success": 0.0
                     },
                     "output_nodes": [
                            {
                                   "object_id": 419,
                                   "object_label": "porkchop",
                                   "object_states": [
                                          {
                                                 "state_id": 29,
                                                 "state_label": "cooked"
                                          },
                                          {
                                                 "state_id": 114,
                                                 "state_label": "in pan"
                                          }
                                   ],
                                   "ingredients": [],
                                   "object_in_motion": "0",
                                   "has_portions": "False"
                            }
                     ]
              },
              {
                     "input_nodes": [
                            {
                                   "object_id": 144,
                                   "object_label": "cooking pan",
                                   "object_states": [
                                          {
                                                 "state_id": 31,
                                                 "state_label": "covered"
                                          },
                                          {
                                                 "state_id": 139,
                                                 "state_label": "ingredients inside"
                                          },
                                          {
                                                 "state_id": 198,
                                                 "state_label": "on stove"
                                          }
                                   ],
                                   "ingredients": [
                                          "porkchop"
                                   ],
                                   "object_in_motion": "0",
                                   "has_portions": "False"
                            },
                            {
                                   "object_id": 16,
                                   "object_label": "baking tray",
                                   "object_states": [
                                          {
                                                 "state_id": 186,
                                                 "state_label": "on pan"
                                          }
                                   ],
                                   "ingredients": [],
                                   "object_in_motion": "1",
                                   "has_portions": "False"
                            }
                     ],
                     "motion_node": {
                            "motion_id": "70",
                            "motion_label": "uncover",
                            "start_time": "Assumed",
                            "end_time": "Assumed",
                            "weight_success": 0.0
                     },
                     "output_nodes": [
                            {
                                   "object_id": 144,
                                   "object_label": "cooking pan",
                                   "object_states": [
                                          {
                                                 "state_id": 48,
                                                 "state_label": "dish inside"
                                          },
                                          {
                                                 "state_id": 198,
                                                 "state_label": "on stove"
                                          }
                                   ],
                                   "ingredients": [
                                          "porkchop"
                                   ],
                                   "object_in_motion": "0",
                                   "has_portions": "False"
                            },
                            {
                                   "object_id": 16,
                                   "object_label": "baking tray",
                                   "object_states": [
                                          {
                                                 "state_id": 45,
                                                 "state_label": "dirty"
                                          }
                                   ],
                                   "ingredients": [],
                                   "object_in_motion": "1",
                                   "has_portions": "False"
                            }
                     ]
              },
              {
                     "input_nodes": [
                            {
                                   "object_id": 144,
                                   "object_label": "cooking pan",
                                   "object_states": [
                                          {
                                                 "state_id": 48,
                                                 "state_label": "dish inside"
                                          },
                                          {
                                                 "state_id": 198,
                                                 "state_label": "on stove"
                                          }
                                   ],
                                   "ingredients": [
                                          "porkchop"
                                   ],
                                   "object_in_motion": "0",
                                   "has_portions": "False"
                            },
                            {
                                   "object_id": 415,
                                   "object_label": "plate",
                                   "object_states": [
                                          {
                                                 "state_id": 54,
                                                 "state_label": "empty"
                                          }
                                   ],
                                   "ingredients": [],
                                   "object_in_motion": "0",
                                   "has_portions": "False"
                            },
                            {
                                   "object_id": 419,
                                   "object_label": "porkchop",
                                   "object_states": [
                                          {
                                                 "state_id": 29,
                                                 "state_label": "cooked"
                                          },
                                          {
                                                 "state_id": 114,
                                                 "state_label": "in pan"
                                          }
                                   ],
                                   "ingredients": [],
                                   "object_in_motion": "1",
                                   "has_portions": "False"
                            },
                            {
                                   "object_id": 541,
                                   "object_label": "tongs",
                                   "object_states": [
                                          {
                                                 "state_id": 23,
                                                 "state_label": "clean"
                                          }
                                   ],
                                   "ingredients": [],
                                   "object_in_motion": "1",
                                   "has_portions": "False"
                            }
                     ],
                     "motion_node": {
                            "motion_id": "38",
                            "motion_label": "pick-and-place",
                            "start_time": "3:28",
                            "end_time": "3:31",
                            "weight_success": 0.0
                     },
                     "output_nodes": [
                            {
                                   "object_id": 144,
                                   "object_label": "cooking pan",
                                   "object_states": [
                                          {
                                                 "state_id": 45,
                                                 "state_label": "dirty"
                                          }
                                   ],
                                   "ingredients": [],
                                   "object_in_motion": "0",
                                   "has_portions": "False"
                            },
                            {
                                   "object_id": 415,
                                   "object_label": "plate",
                                   "object_states": [
                                          {
                                                 "state_id": 48,
                                                 "state_label": "dish inside"
                                          },
                                          {
                                                 "state_id": 198,
                                                 "state_label": "on stove"
                                          }
                                   ],
                                   "ingredients": [
                                          "porkchop"
                                   ],
                                   "object_in_motion": "0",
                                   "has_portions": "False"
                            },
                            {
                                   "object_id": 419,
                                   "object_label": "porkchop",
                                   "object_states": [
                                          {
                                                 "state_id": 29,
                                                 "state_label": "cooked"
                                          },
                                          {
                                                 "state_id": 189,
                                                 "state_label": "on plate"
                                          }
                                   ],
                                   "ingredients": [],
                                   "object_in_motion": "1",
                                   "has_portions": "False"
                            }
                     ]
              }
       ]
}