{
       "functional_units": [
              {
                     "input_nodes": [
                            {
                                   "object_id": 367,
                                   "object_label": "orange",
                                   "object_states": [
                                          {
                                                 "state_id": 262,
                                                 "state_label": "whole"
                                          }
                                   ],
                                   "ingredients": [],
                                   "object_in_motion": "1",
                                   "has_portions": "False"
                            },
                            {
                                   "object_id": 138,
                                   "object_label": "colander",
                                   "object_states": [
                                          {
                                                 "state_id": 54,
                                                 "state_label": "empty"
                                          }
                                   ],
                                   "ingredients": [],
                                   "object_in_motion": "0",
                                   "has_portions": "False"
                            }
                     ],
                     "motion_node": {
                            "motion_id": "38",
                            "motion_label": "pick-and-place",
                            "start_time": "Assumed",
                            "end_time": "Assumed",
                            "weight_success": 0.0
                     },
                     "output_nodes": [
                            {
                                   "object_id": 367,
                                   "object_label": "orange",
                                   "object_states": [
                                          {
                                                 "state_id": 88,
                                                 "state_label": "in colander"
                                          },
                                          {
                                                 "state_id": 262,
                                                 "state_label": "whole"
                                          }
                                   ],
                                   "ingredients": [],
                                   "object_in_motion": "1",
                                   "has_portions": "False"
                            },
                            {
                                   "object_id": 138,
                                   "object_label": "colander",
                                   "object_states": [
                                          {
                                                 "state_id": 139,
                                                 "state_label": "ingredients inside"
                                          }
                                   ],
                                   "ingredients": [
                                          "orange"
                                   ],
                                   "object_in_motion": "0",
                                   "has_portions": "False"
                            }
                     ]
              },
              {
                     "input_nodes": [
                            {
                                   "object_id": 207,
                                   "object_label": "faucet",
                                   "object_states": [
                                          {
                                                 "state_id": 166,
                                                 "state_label": "off"
                                          }
                                   ],
                                   "ingredients": [],
                                   "object_in_motion": "1",
                                   "has_portions": "False"
                            }
                     ],
                     "motion_node": {
                            "motion_id": "69",
                            "motion_label": "turn on",
                            "start_time": "Assumed",
                            "end_time": "Assumed",
                            "weight_success": 0.0
                     },
                     "output_nodes": [
                            {
                                   "object_id": 207,
                                   "object_label": "faucet",
                                   "object_states": [
                                          {
                                                 "state_id": 168,
                                                 "state_label": "on"
                                          }
                                   ],
                                   "ingredients": [],
                                   "object_in_motion": "1",
                                   "has_portions": "False"
                            },
                            {
                                   "object_id": 567,
                                   "object_label": "water",
                                   "object_states": [
                                          {
                                                 "state_id": 63,
                                                 "state_label": "from faucet"
                                          }
                                   ],
                                   "ingredients": [],
                                   "object_in_motion": "1",
                                   "has_portions": "False"
                            }
                     ]
              },
              {
                     "input_nodes": [
                            {
                                   "object_id": 207,
                                   "object_label": "faucet",
                                   "object_states": [
                                          {
                                                 "state_id": 168,
                                                 "state_label": "on"
                                          }
                                   ],
                                   "ingredients": [],
                                   "object_in_motion": "0",
                                   "has_portions": "False"
                            },
                            {
                                   "object_id": 567,
                                   "object_label": "water",
                                   "object_states": [
                                          {
                                                 "state_id": 63,
                                                 "state_label": "from faucet"
                                          }
                                   ],
                                   "ingredients": [],
                                   "object_in_motion": "0",
                                   "has_portions": "False"
                            },
                            {
                                   "object_id": 138,
                                   "object_label": "colander",
                                   "object_states": [
                                          {
                                                 "state_id": 139,
                                                 "state_label": "ingredients inside"
                                          }
                                   ],
                                   "ingredients": [
                                          "orange"
                                   ],
                                   "object_in_motion": "1",
                                   "has_portions": "False"
                            },
                            {
                                   "object_id": 367,
                                   "object_label": "orange",
                                   "object_states": [
                                          {
                                                 "state_id": 88,
                                                 "state_label": "in colander"
                                          },
                                          {
                                                 "state_id": 262,
                                                 "state_label": "whole"
                                          }
                                   ],
                                   "ingredients": [],
                                   "object_in_motion": "1",
                                   "has_portions": "False"
                            }
                     ],
                     "motion_node": {
                            "motion_id": "72",
                            "motion_label": "wash",
                            "start_time": "Assumed",
                            "end_time": "Assumed",
                            "weight_success": 0.0
                     },
                     "output_nodes": [
                            {
                                   "object_id": 367,
                                   "object_label": "orange",
                                   "object_states": [
                                          {
                                                 "state_id": 88,
                                                 "state_label": "in colander"
                                          },
                                          {
                                                 "state_id": 260,
                                                 "state_label": "washed"
                                          },
                                          {
                                                 "state_id": 262,
                                                 "state_label": "whole"
                                          }
                                   ],
                                   "ingredients": [],
                                   "object_in_motion": "1",
                                   "has_portions": "False"
                            }
                     ]
              },
              {
                     "input_nodes": [
                            {
                                   "object_id": 207,
                                   "object_label": "faucet",
                                   "object_states": [
                                          {
                                                 "state_id": 168,
                                                 "state_label": "on"
                                          }
                                   ],
                                   "ingredients": [],
                                   "object_in_motion": "1",
                                   "has_portions": "False"
                            },
                            {
                                   "object_id": 567,
                                   "object_label": "water",
                                   "object_states": [
                                          {
                                                 "state_id": 63,
                                                 "state_label": "from faucet"
                                          }
                                   ],
                                   "ingredients": [],
                                   "object_in_motion": "1",
                                   "has_portions": "False"
                            }
                     ],
                     "motion_node": {
                            "motion_id": "68",
                            "motion_label": "turn off",
                            "start_time": "Assumed",
                            "end_time": "Assumed",
                            "weight_success": 0.0
                     },
                     "output_nodes": [
                            {
                                   "object_id": 207,
                                   "object_label": "faucet",
                                   "object_states": [
                                          {
                                                 "state_id": 166,
                                                 "state_label": "off"
                                          }
                                   ],
                                   "ingredients": [],
                                   "object_in_motion": "1",
                                   "has_portions": "False"
                            }
                     ]
              },
              {
                     "input_nodes": [
                            {
                                   "object_id": 180,
                                   "object_label": "cutting board",
                                   "object_states": [
                                          {
                                                 "state_id": 54,
                                                 "state_label": "empty"
                                          },
                                          {
                                                 "state_id": 199,
                                                 "state_label": "on surface"
                                          }
                                   ],
                                   "ingredients": [],
                                   "object_in_motion": "0",
                                   "has_portions": "False"
                            },
                            {
                                   "object_id": 367,
                                   "object_label": "orange",
                                   "object_states": [
                                          {
                                                 "state_id": 88,
                                                 "state_label": "in colander"
                                          },
                                          {
                                                 "state_id": 260,
                                                 "state_label": "washed"
                                          },
                                          {
                                                 "state_id": 262,
                                                 "state_label": "whole"
                                          }
                                   ],
                                   "ingredients": [],
                                   "object_in_motion": "1",
                                   "has_portions": "False"
                            }
                     ],
                     "motion_node": {
                            "motion_id": "38",
                            "motion_label": "pick-and-place",
                            "start_time": "0:29",
                            "end_time": "0:30",
                            "weight_success": 0.0
                     },
                     "output_nodes": [
                            {
                                   "object_id": 180,
                                   "object_label": "cutting board",
                                   "object_states": [
                                          {
                                                 "state_id": 145,
                                                 "state_label": "ingredients on top"
                                          },
                                          {
                                                 "state_id": 199,
                                                 "state_label": "on surface"
                                          }
                                   ],
                                   "ingredients": [
                                          "orange"
                                   ],
                                   "object_in_motion": "0",
                                   "has_portions": "False"
                            },
                            {
                                   "object_id": 367,
                                   "object_label": "orange",
                                   "object_states": [
                                          {
                                                 "state_id": 176,
                                                 "state_label": "on cutting board"
                                          },
                                          {
                                                 "state_id": 262,
                                                 "state_label": "whole"
                                          }
                                   ],
                                   "ingredients": [],
                                   "object_in_motion": "1",
                                   "has_portions": "False"
                            }
                     ]
              },
              {
                     "input_nodes": [
                            {
                                   "object_id": 180,
                                   "object_label": "cutting board",
                                   "object_states": [
                                          {
                                                 "state_id": 145,
                                                 "state_label": "ingredients on top"
                                          },
                                          {
                                                 "state_id": 199,
                                                 "state_label": "on surface"
                                          }
                                   ],
                                   "ingredients": [
                                          "orange"
                                   ],
                                   "object_in_motion": "0",
                                   "has_portions": "False"
                            },
                            {
                                   "object_id": 367,
                                   "object_label": "orange",
                                   "object_states": [
                                          {
                                                 "state_id": 176,
                                                 "state_label": "on cutting board"
                                          },
                                          {
                                                 "state_id": 262,
                                                 "state_label": "whole"
                                          }
                                   ],
                                   "ingredients": [],
                                   "object_in_motion": "1",
                                   "has_portions": "False"
                            },
                            {
                                   "object_id": 293,
                                   "object_label": "knife",
                                   "object_states": [
                                          {
                                                 "state_id": 23,
                                                 "state_label": "clean"
                                          }
                                   ],
                                   "ingredients": [],
                                   "object_in_motion": "1",
                                   "has_portions": "False"
                            }
                     ],
                     "motion_node": {
                            "motion_id": "15",
                            "motion_label": "cut",
                            "start_time": "0:32",
                            "end_time": "0:35",
                            "weight_success": 0.0
                     },
                     "output_nodes": [
                            {
                                   "object_id": 367,
                                   "object_label": "orange",
                                   "object_states": [
                                          {
                                                 "state_id": 73,
                                                 "state_label": "halved"
                                          },
                                          {
                                                 "state_id": 176,
                                                 "state_label": "on cutting board"
                                          }
                                   ],
                                   "ingredients": [],
                                   "object_in_motion": "1",
                                   "has_portions": "False"
                            }
                     ]
              },
              {
                     "input_nodes": [
                            {
                                   "object_id": 513,
                                   "object_label": "squeezer",
                                   "object_states": [
                                          {
                                                 "state_id": 23,
                                                 "state_label": "clean"
                                          },
                                          {
                                                 "state_id": 199,
                                                 "state_label": "on surface"
                                          }
                                   ],
                                   "ingredients": [],
                                   "object_in_motion": "0",
                                   "has_portions": "False"
                            },
                            {
                                   "object_id": 367,
                                   "object_label": "orange",
                                   "object_states": [
                                          {
                                                 "state_id": 73,
                                                 "state_label": "halved"
                                          },
                                          {
                                                 "state_id": 176,
                                                 "state_label": "on cutting board"
                                          }
                                   ],
                                   "ingredients": [],
                                   "object_in_motion": "1",
                                   "has_portions": "False"
                            }
                     ],
                     "motion_node": {
                            "motion_id": "65",
                            "motion_label": "squeeze",
                            "start_time": "0:53",
                            "end_time": "1:10",
                            "weight_success": 0.0
                     },
                     "output_nodes": [
                            {
                                   "object_id": 513,
                                   "object_label": "squeezer",
                                   "object_states": [
                                          {
                                                 "state_id": 139,
                                                 "state_label": "ingredients inside"
                                          },
                                          {
                                                 "state_id": 199,
                                                 "state_label": "on surface"
                                          }
                                   ],
                                   "ingredients": [
                                          "orange juice"
                                   ],
                                   "object_in_motion": "0",
                                   "has_portions": "False"
                            },
                            {
                                   "object_id": 368,
                                   "object_label": "orange juice",
                                   "object_states": [
                                          {
                                                 "state_id": 127,
                                                 "state_label": "in squeezer"
                                          }
                                   ],
                                   "ingredients": [],
                                   "object_in_motion": "1",
                                   "has_portions": "False"
                            },
                            {
                                   "object_id": 367,
                                   "object_label": "orange",
                                   "object_states": [
                                          {
                                                 "state_id": 247,
                                                 "state_label": "squeezed"
                                          }
                                   ],
                                   "ingredients": [],
                                   "object_in_motion": "1",
                                   "has_portions": "False"
                            }
                     ]
              },
              {
                     "input_nodes": [
                            {
                                   "object_id": 513,
                                   "object_label": "squeezer",
                                   "object_states": [
                                          {
                                                 "state_id": 139,
                                                 "state_label": "ingredients inside"
                                          },
                                          {
                                                 "state_id": 199,
                                                 "state_label": "on surface"
                                          }
                                   ],
                                   "ingredients": [
                                          "orange juice"
                                   ],
                                   "object_in_motion": "0",
                                   "has_portions": "False"
                            },
                            {
                                   "object_id": 368,
                                   "object_label": "orange juice",
                                   "object_states": [
                                          {
                                                 "state_id": 127,
                                                 "state_label": "in squeezer"
                                          }
                                   ],
                                   "ingredients": [],
                                   "object_in_motion": "1",
                                   "has_portions": "False"
                            },
                            {
                                   "object_id": 191,
                                   "object_label": "drinking glass",
                                   "object_states": [
                                          {
                                                 "state_id": 54,
                                                 "state_label": "empty"
                                          }
                                   ],
                                   "ingredients": [],
                                   "object_in_motion": "0",
                                   "has_portions": "False"
                            }
                     ],
                     "motion_node": {
                            "motion_id": "40",
                            "motion_label": "pour",
                            "start_time": "1:43",
                            "end_time": "1:54",
                            "weight_success": 0.0
                     },
                     "output_nodes": [
                            {
                                   "object_id": 513,
                                   "object_label": "squeezer",
                                   "object_states": [
                                          {
                                                 "state_id": 45,
                                                 "state_label": "dirty"
                                          }
                                   ],
                                   "ingredients": [],
                                   "object_in_motion": "0",
                                   "has_portions": "False"
                            },
                            {
                                   "object_id": 191,
                                   "object_label": "drinking glass",
                                   "object_states": [
                                          {
                                                 "state_id": 53,
                                                 "state_label": "drink inside"
                                          }
                                   ],
                                   "ingredients": [
                                          "orange juice"
                                   ],
                                   "object_in_motion": "0",
                                   "has_portions": "False"
                            },
                            {
                                   "object_id": 368,
                                   "object_label": "orange juice",
                                   "object_states": [
                                          {
                                                 "state_id": 90,
                                                 "state_label": "in cup"
                                          }
                                   ],
                                   "ingredients": [],
                                   "object_in_motion": "1",
                                   "has_portions": "False"
                            }
                     ]
              }
       ]
}