{
       "functional_units": [
              {
                     "input_nodes": [
                            {
                                   "object_id": 75,
                                   "object_label": "can",
                                   "object_states": [
                                          {
                                                 "state_id": 139,
                                                 "state_label": "ingredients inside"
                                          },
                                          {
                                                 "state_id": 230,
                                                 "state_label": "sealed"
                                          }
                                   ],
                                   "ingredients": [
                                          "tuna"
                                   ],
                                   "object_in_motion": "0",
                                   "has_portions": "False"
                            },
                            {
                                   "object_id": 76,
                                   "object_label": "can opener",
                                   "object_states": [
                                          {
                                                 "state_id": 23,
                                                 "state_label": "clean"
                                          }
                                   ],
                                   "ingredients": [],
                                   "object_in_motion": "1",
                                   "has_portions": "False"
                            }
                     ],
                     "motion_node": {
                            "motion_id": "36",
                            "motion_label": "open",
                            "start_time": "Assumed",
                            "end_time": "Assumed",
                            "weight_success": 0.0
                     },
                     "output_nodes": [
                            {
                                   "object_id": 75,
                                   "object_label": "can",
                                   "object_states": [
                                          {
                                                 "state_id": 139,
                                                 "state_label": "ingredients inside"
                                          },
                                          {
                                                 "state_id": 205,
                                                 "state_label": "opened"
                                          }
                                   ],
                                   "ingredients": [
                                          "tuna",
                                          "water"
                                   ],
                                   "object_in_motion": "0",
                                   "has_portions": "False"
                            }
                     ]
              },
              {
                     "input_nodes": [
                            {
                                   "object_id": 75,
                                   "object_label": "can",
                                   "object_states": [
                                          {
                                                 "state_id": 139,
                                                 "state_label": "ingredients inside"
                                          },
                                          {
                                                 "state_id": 205,
                                                 "state_label": "opened"
                                          }
                                   ],
                                   "ingredients": [
                                          "tuna",
                                          "water"
                                   ],
                                   "object_in_motion": "1",
                                   "has_portions": "False"
                            }
                     ],
                     "motion_node": {
                            "motion_id": "22",
                            "motion_label": "drain",
                            "start_time": "Assumed",
                            "end_time": "Assumed",
                            "weight_success": 0.0
                     },
                     "output_nodes": [
                            {
                                   "object_id": 75,
                                   "object_label": "can",
                                   "object_states": [
                                          {
                                                 "state_id": 139,
                                                 "state_label": "ingredients inside"
                                          }
                                   ],
                                   "ingredients": [
                                          "tuna"
                                   ],
                                   "object_in_motion": "1",
                                   "has_portions": "False"
                            }
                     ]
              },
              {
                     "input_nodes": [
                            {
                                   "object_id": 51,
                                   "object_label": "bowl",
                                   "object_states": [
                                          {
                                                 "state_id": 54,
                                                 "state_label": "empty"
                                          }
                                   ],
                                   "ingredients": [],
                                   "object_in_motion": "0",
                                   "has_portions": "False"
                            },
                            {
                                   "object_id": 75,
                                   "object_label": "can",
                                   "object_states": [
                                          {
                                                 "state_id": 139,
                                                 "state_label": "ingredients inside"
                                          }
                                   ],
                                   "ingredients": [
                                          "tuna"
                                   ],
                                   "object_in_motion": "1",
                                   "has_portions": "False"
                            },
                            {
                                   "object_id": 546,
                                   "object_label": "tuna",
                                   "object_states": [
                                          {
                                                 "state_id": 86,
                                                 "state_label": "in can"
                                          }
                                   ],
                                   "ingredients": [],
                                   "object_in_motion": "1",
                                   "has_portions": "False"
                            },
                            {
                                   "object_id": 219,
                                   "object_label": "fork",
                                   "object_states": [
                                          {
                                                 "state_id": 23,
                                                 "state_label": "clean"
                                          }
                                   ],
                                   "ingredients": [],
                                   "object_in_motion": "1",
                                   "has_portions": "False"
                            }
                     ],
                     "motion_node": {
                            "motion_id": "53",
                            "motion_label": "scrape",
                            "start_time": "0:02",
                            "end_time": "0:05",
                            "weight_success": 0.0
                     },
                     "output_nodes": [
                            {
                                   "object_id": 51,
                                   "object_label": "bowl",
                                   "object_states": [
                                          {
                                                 "state_id": 139,
                                                 "state_label": "ingredients inside"
                                          }
                                   ],
                                   "ingredients": [
                                          "tuna"
                                   ],
                                   "object_in_motion": "0",
                                   "has_portions": "False"
                            },
                            {
                                   "object_id": 546,
                                   "object_label": "tuna",
                                   "object_states": [
                                          {
                                                 "state_id": 84,
                                                 "state_label": "in bowl"
                                          }
                                   ],
                                   "ingredients": [],
                                   "object_in_motion": "1",
                                   "has_portions": "False"
                            }
                     ]
              },
              {
                     "input_nodes": [
                            {
                                   "object_id": 51,
                                   "object_label": "bowl",
                                   "object_states": [
                                          {
                                                 "state_id": 139,
                                                 "state_label": "ingredients inside"
                                          }
                                   ],
                                   "ingredients": [
                                          "mayonnaise",
                                          "onion"
                                   ],
                                   "object_in_motion": "0",
                                   "has_portions": "False"
                            },
                            {
                                   "object_id": 332,
                                   "object_label": "mayonnaise",
                                   "object_states": [
                                          {
                                                 "state_id": 84,
                                                 "state_label": "in bowl"
                                          }
                                   ],
                                   "ingredients": [],
                                   "object_in_motion": "1",
                                   "has_portions": "False"
                            },
                            {
                                   "object_id": 365,
                                   "object_label": "onion",
                                   "object_states": [
                                          {
                                                 "state_id": 21,
                                                 "state_label": "chopped"
                                          },
                                          {
                                                 "state_id": 84,
                                                 "state_label": "in bowl"
                                          }
                                   ],
                                   "ingredients": [],
                                   "object_in_motion": "1",
                                   "has_portions": "False"
                            },
                            {
                                   "object_id": 51,
                                   "object_label": "bowl",
                                   "object_states": [
                                          {
                                                 "state_id": 139,
                                                 "state_label": "ingredients inside"
                                          }
                                   ],
                                   "ingredients": [
                                          "tuna"
                                   ],
                                   "object_in_motion": "1",
                                   "has_portions": "False"
                            }
                     ],
                     "motion_node": {
                            "motion_id": "40",
                            "motion_label": "pour",
                            "start_time": "Assumed",
                            "end_time": "Assumed",
                            "weight_success": 0.0
                     },
                     "output_nodes": [
                            {
                                   "object_id": 51,
                                   "object_label": "bowl",
                                   "object_states": [
                                          {
                                                 "state_id": 139,
                                                 "state_label": "ingredients inside"
                                          }
                                   ],
                                   "ingredients": [
                                          "mayonnaise",
                                          "onion",
                                          "tuna"
                                   ],
                                   "object_in_motion": "0",
                                   "has_portions": "False"
                            }
                     ]
              },
              {
                     "input_nodes": [
                            {
                                   "object_id": 51,
                                   "object_label": "bowl",
                                   "object_states": [
                                          {
                                                 "state_id": 139,
                                                 "state_label": "ingredients inside"
                                          }
                                   ],
                                   "ingredients": [
                                          "mayonnaise",
                                          "onion",
                                          "tuna"
                                   ],
                                   "object_in_motion": "0",
                                   "has_portions": "False"
                            },
                            {
                                   "object_id": 332,
                                   "object_label": "mayonnaise",
                                   "object_states": [
                                          {
                                                 "state_id": 84,
                                                 "state_label": "in bowl"
                                          }
                                   ],
                                   "ingredients": [],
                                   "object_in_motion": "1",
                                   "has_portions": "False"
                            },
                            {
                                   "object_id": 365,
                                   "object_label": "onion",
                                   "object_states": [
                                          {
                                                 "state_id": 21,
                                                 "state_label": "chopped"
                                          },
                                          {
                                                 "state_id": 84,
                                                 "state_label": "in bowl"
                                          }
                                   ],
                                   "ingredients": [],
                                   "object_in_motion": "1",
                                   "has_portions": "False"
                            },
                            {
                                   "object_id": 546,
                                   "object_label": "tuna",
                                   "object_states": [
                                          {
                                                 "state_id": 84,
                                                 "state_label": "in bowl"
                                          }
                                   ],
                                   "ingredients": [],
                                   "object_in_motion": "1",
                                   "has_portions": "False"
                            },
                            {
                                   "object_id": 219,
                                   "object_label": "fork",
                                   "object_states": [
                                          {
                                                 "state_id": 23,
                                                 "state_label": "clean"
                                          }
                                   ],
                                   "ingredients": [],
                                   "object_in_motion": "1",
                                   "has_portions": "False"
                            }
                     ],
                     "motion_node": {
                            "motion_id": "35",
                            "motion_label": "mix",
                            "start_time": "0:09",
                            "end_time": "0:11",
                            "weight_success": 0.0
                     },
                     "output_nodes": [
                            {
                                   "object_id": 51,
                                   "object_label": "bowl",
                                   "object_states": [
                                          {
                                                 "state_id": 143,
                                                 "state_label": "ingredients mixed inside"
                                          }
                                   ],
                                   "ingredients": [
                                          "tuna spread"
                                   ],
                                   "object_in_motion": "0",
                                   "has_portions": "False"
                            },
                            {
                                   "object_id": 550,
                                   "object_label": "tuna spread",
                                   "object_states": [
                                          {
                                                 "state_id": 84,
                                                 "state_label": "in bowl"
                                          },
                                          {
                                                 "state_id": 139,
                                                 "state_label": "ingredients inside"
                                          }
                                   ],
                                   "ingredients": [
                                          "mayonnaise",
                                          "onion",
                                          "tuna"
                                   ],
                                   "object_in_motion": "1",
                                   "has_portions": "False"
                            }
                     ]
              },
              {
                     "input_nodes": [
                            {
                                   "object_id": 415,
                                   "object_label": "plate",
                                   "object_states": [
                                          {
                                                 "state_id": 54,
                                                 "state_label": "empty"
                                          }
                                   ],
                                   "ingredients": [],
                                   "object_in_motion": "0",
                                   "has_portions": "False"
                            },
                            {
                                   "object_id": 53,
                                   "object_label": "bread",
                                   "object_states": [
                                          {
                                                 "state_id": 130,
                                                 "state_label": "in toaster"
                                          },
                                          {
                                                 "state_id": 253,
                                                 "state_label": "toasted"
                                          }
                                   ],
                                   "ingredients": [],
                                   "object_in_motion": "1",
                                   "has_portions": "False"
                            },
                            {
                                   "object_id": 536,
                                   "object_label": "toaster",
                                   "object_states": [
                                          {
                                                 "state_id": 139,
                                                 "state_label": "ingredients inside"
                                          }
                                   ],
                                   "ingredients": [
                                          "bread"
                                   ],
                                   "object_in_motion": "0",
                                   "has_portions": "False"
                            }
                     ],
                     "motion_node": {
                            "motion_id": "46",
                            "motion_label": "remove",
                            "start_time": "Assumed",
                            "end_time": "Assumed",
                            "weight_success": 0.0
                     },
                     "output_nodes": [
                            {
                                   "object_id": 415,
                                   "object_label": "plate",
                                   "object_states": [
                                          {
                                                 "state_id": 145,
                                                 "state_label": "ingredients on top"
                                          }
                                   ],
                                   "ingredients": [
                                          "bread"
                                   ],
                                   "object_in_motion": "0",
                                   "has_portions": "False"
                            },
                            {
                                   "object_id": 53,
                                   "object_label": "bread",
                                   "object_states": [
                                          {
                                                 "state_id": 189,
                                                 "state_label": "on plate"
                                          },
                                          {
                                                 "state_id": 253,
                                                 "state_label": "toasted"
                                          }
                                   ],
                                   "ingredients": [],
                                   "object_in_motion": "1",
                                   "has_portions": "False"
                            }
                     ]
              },
              {
                     "input_nodes": [
                            {
                                   "object_id": 415,
                                   "object_label": "plate",
                                   "object_states": [
                                          {
                                                 "state_id": 145,
                                                 "state_label": "ingredients on top"
                                          }
                                   ],
                                   "ingredients": [
                                          "bread"
                                   ],
                                   "object_in_motion": "0",
                                   "has_portions": "False"
                            },
                            {
                                   "object_id": 53,
                                   "object_label": "bread",
                                   "object_states": [
                                          {
                                                 "state_id": 189,
                                                 "state_label": "on plate"
                                          },
                                          {
                                                 "state_id": 253,
                                                 "state_label": "toasted"
                                          }
                                   ],
                                   "ingredients": [],
                                   "object_in_motion": "0",
                                   "has_portions": "False"
                            },
                            {
                                   "object_id": 293,
                                   "object_label": "knife",
                                   "object_states": [
                                          {
                                                 "state_id": 23,
                                                 "state_label": "clean"
                                          }
                                   ],
                                   "ingredients": [],
                                   "object_in_motion": "1",
                                   "has_portions": "False"
                            },
                            {
                                   "object_id": 66,
                                   "object_label": "butter",
                                   "object_states": [
                                          {
                                                 "state_id": 89,
                                                 "state_label": "in container"
                                          }
                                   ],
                                   "ingredients": [],
                                   "object_in_motion": "0",
                                   "has_portions": "False"
                            }
                     ],
                     "motion_node": {
                            "motion_id": "63",
                            "motion_label": "spread",
                            "start_time": "0:13",
                            "end_time": "0:14",
                            "weight_success": 0.0
                     },
                     "output_nodes": [
                            {
                                   "object_id": 53,
                                   "object_label": "bread",
                                   "object_states": [
                                          {
                                                 "state_id": 16,
                                                 "state_label": "buttered"
                                          },
                                          {
                                                 "state_id": 189,
                                                 "state_label": "on plate"
                                          }
                                   ],
                                   "ingredients": [
                                          "butter"
                                   ],
                                   "object_in_motion": "0",
                                   "has_portions": "False"
                            },
                            {
                                   "object_id": 66,
                                   "object_label": "butter",
                                   "object_states": [
                                          {
                                                 "state_id": 174,
                                                 "state_label": "on bread"
                                          },
                                          {
                                                 "state_id": 244,
                                                 "state_label": "spread"
                                          }
                                   ],
                                   "ingredients": [],
                                   "object_in_motion": "0",
                                   "has_portions": "False"
                            }
                     ]
              },
              {
                     "input_nodes": [
                            {
                                   "object_id": 415,
                                   "object_label": "plate",
                                   "object_states": [
                                          {
                                                 "state_id": 145,
                                                 "state_label": "ingredients on top"
                                          }
                                   ],
                                   "ingredients": [
                                          "bread"
                                   ],
                                   "object_in_motion": "0",
                                   "has_portions": "False"
                            },
                            {
                                   "object_id": 51,
                                   "object_label": "bowl",
                                   "object_states": [
                                          {
                                                 "state_id": 143,
                                                 "state_label": "ingredients mixed inside"
                                          }
                                   ],
                                   "ingredients": [
                                          "tuna spread"
                                   ],
                                   "object_in_motion": "0",
                                   "has_portions": "False"
                            },
                            {
                                   "object_id": 550,
                                   "object_label": "tuna spread",
                                   "object_states": [
                                          {
                                                 "state_id": 84,
                                                 "state_label": "in bowl"
                                          },
                                          {
                                                 "state_id": 139,
                                                 "state_label": "ingredients inside"
                                          }
                                   ],
                                   "ingredients": [
                                          "mayonnaise",
                                          "onion",
                                          "tuna"
                                   ],
                                   "object_in_motion": "1",
                                   "has_portions": "False"
                            },
                            {
                                   "object_id": 53,
                                   "object_label": "bread",
                                   "object_states": [
                                          {
                                                 "state_id": 16,
                                                 "state_label": "buttered"
                                          },
                                          {
                                                 "state_id": 189,
                                                 "state_label": "on plate"
                                          }
                                   ],
                                   "ingredients": [
                                          "butter"
                                   ],
                                   "object_in_motion": "0",
                                   "has_portions": "False"
                            },
                            {
                                   "object_id": 219,
                                   "object_label": "fork",
                                   "object_states": [
                                          {
                                                 "state_id": 23,
                                                 "state_label": "clean"
                                          }
                                   ],
                                   "ingredients": [],
                                   "object_in_motion": "1",
                                   "has_portions": "False"
                            }
                     ],
                     "motion_node": {
                            "motion_id": "51",
                            "motion_label": "scoop and pour",
                            "start_time": "0:16",
                            "end_time": "0:19",
                            "weight_success": 0.0
                     },
                     "output_nodes": [
                            {
                                   "object_id": 53,
                                   "object_label": "bread",
                                   "object_states": [
                                          {
                                                 "state_id": 145,
                                                 "state_label": "ingredients on top"
                                          },
                                          {
                                                 "state_id": 189,
                                                 "state_label": "on plate"
                                          }
                                   ],
                                   "ingredients": [
                                          "butter",
                                          "tuna spread"
                                   ],
                                   "object_in_motion": "0",
                                   "has_portions": "False"
                            },
                            {
                                   "object_id": 550,
                                   "object_label": "tuna spread",
                                   "object_states": [
                                          {
                                                 "state_id": 139,
                                                 "state_label": "ingredients inside"
                                          },
                                          {
                                                 "state_id": 174,
                                                 "state_label": "on bread"
                                          }
                                   ],
                                   "ingredients": [
                                          "mayonnaise",
                                          "onion",
                                          "tuna"
                                   ],
                                   "object_in_motion": "1",
                                   "has_portions": "False"
                            }
                     ]
              },
              {
                     "input_nodes": [
                            {
                                   "object_id": 415,
                                   "object_label": "plate",
                                   "object_states": [
                                          {
                                                 "state_id": 145,
                                                 "state_label": "ingredients on top"
                                          }
                                   ],
                                   "ingredients": [
                                          "bread"
                                   ],
                                   "object_in_motion": "0",
                                   "has_portions": "False"
                            },
                            {
                                   "object_id": 53,
                                   "object_label": "bread",
                                   "object_states": [
                                          {
                                                 "state_id": 145,
                                                 "state_label": "ingredients on top"
                                          },
                                          {
                                                 "state_id": 189,
                                                 "state_label": "on plate"
                                          }
                                   ],
                                   "ingredients": [
                                          "butter",
                                          "tuna spread"
                                   ],
                                   "object_in_motion": "0",
                                   "has_portions": "False"
                            },
                            {
                                   "object_id": 51,
                                   "object_label": "bowl",
                                   "object_states": [
                                          {
                                                 "state_id": 139,
                                                 "state_label": "ingredients inside"
                                          }
                                   ],
                                   "ingredients": [
                                          "lettuce"
                                   ],
                                   "object_in_motion": "0",
                                   "has_portions": "False"
                            },
                            {
                                   "object_id": 310,
                                   "object_label": "lettuce",
                                   "object_states": [
                                          {
                                                 "state_id": 84,
                                                 "state_label": "in bowl"
                                          },
                                          {
                                                 "state_id": 233,
                                                 "state_label": "separated"
                                          }
                                   ],
                                   "ingredients": [],
                                   "object_in_motion": "1",
                                   "has_portions": "False"
                            }
                     ],
                     "motion_node": {
                            "motion_id": "38",
                            "motion_label": "pick-and-place",
                            "start_time": "0:20",
                            "end_time": "0:26",
                            "weight_success": 0.0
                     },
                     "output_nodes": [
                            {
                                   "object_id": 53,
                                   "object_label": "bread",
                                   "object_states": [
                                          {
                                                 "state_id": 145,
                                                 "state_label": "ingredients on top"
                                          },
                                          {
                                                 "state_id": 189,
                                                 "state_label": "on plate"
                                          }
                                   ],
                                   "ingredients": [
                                          "butter",
                                          "lettuce",
                                          "tuna spread"
                                   ],
                                   "object_in_motion": "0",
                                   "has_portions": "False"
                            },
                            {
                                   "object_id": 310,
                                   "object_label": "lettuce",
                                   "object_states": [
                                          {
                                                 "state_id": 174,
                                                 "state_label": "on bread"
                                          },
                                          {
                                                 "state_id": 233,
                                                 "state_label": "separated"
                                          }
                                   ],
                                   "ingredients": [],
                                   "object_in_motion": "1",
                                   "has_portions": "False"
                            }
                     ]
              },
              {
                     "input_nodes": [
                            {
                                   "object_id": 415,
                                   "object_label": "plate",
                                   "object_states": [
                                          {
                                                 "state_id": 145,
                                                 "state_label": "ingredients on top"
                                          }
                                   ],
                                   "ingredients": [
                                          "bread"
                                   ],
                                   "object_in_motion": "0",
                                   "has_portions": "False"
                            },
                            {
                                   "object_id": 53,
                                   "object_label": "bread",
                                   "object_states": [
                                          {
                                                 "state_id": 16,
                                                 "state_label": "buttered"
                                          },
                                          {
                                                 "state_id": 189,
                                                 "state_label": "on plate"
                                          }
                                   ],
                                   "ingredients": [
                                          "butter"
                                   ],
                                   "object_in_motion": "1",
                                   "has_portions": "False"
                            },
                            {
                                   "object_id": 53,
                                   "object_label": "bread",
                                   "object_states": [
                                          {
                                                 "state_id": 145,
                                                 "state_label": "ingredients on top"
                                          },
                                          {
                                                 "state_id": 189,
                                                 "state_label": "on plate"
                                          }
                                   ],
                                   "ingredients": [
                                          "butter",
                                          "lettuce",
                                          "tuna spread"
                                   ],
                                   "object_in_motion": "1",
                                   "has_portions": "False"
                            }
                     ],
                     "motion_node": {
                            "motion_id": "38",
                            "motion_label": "pick-and-place",
                            "start_time": "0:27",
                            "end_time": "0:29",
                            "weight_success": 0.0
                     },
                     "output_nodes": [
                            {
                                   "object_id": 415,
                                   "object_label": "plate",
                                   "object_states": [
                                          {
                                                 "state_id": 49,
                                                 "state_label": "dish on top"
                                          }
                                   ],
                                   "ingredients": [
                                          "tuna sandwich"
                                   ],
                                   "object_in_motion": "0",
                                   "has_portions": "False"
                            },
                            {
                                   "object_id": 549,
                                   "object_label": "tuna sandwich",
                                   "object_states": [
                                          {
                                                 "state_id": 139,
                                                 "state_label": "ingredients inside"
                                          },
                                          {
                                                 "state_id": 189,
                                                 "state_label": "on plate"
                                          }
                                   ],
                                   "ingredients": [
                                          "butter",
                                          "lettuce",
                                          "tuna spread"
                                   ],
                                   "object_in_motion": "1",
                                   "has_portions": "False"
                            }
                     ]
              }
       ]
}