{
       "functional_units": [
              {
                     "input_nodes": [
                            {
                                   "object_id": 409,
                                   "object_label": "pitcher",
                                   "object_states": [
                                          {
                                                 "state_id": 139,
                                                 "state_label": "ingredients inside"
                                          }
                                   ],
                                   "ingredients": [
                                          "water"
                                   ],
                                   "object_in_motion": "1",
                                   "has_portions": "False"
                            },
                            {
                                   "object_id": 567,
                                   "object_label": "water",
                                   "object_states": [
                                          {
                                                 "state_id": 115,
                                                 "state_label": "in pitcher"
                                          }
                                   ],
                                   "ingredients": [],
                                   "object_in_motion": "1",
                                   "has_portions": "False"
                            },
                            {
                                   "object_id": 334,
                                   "object_label": "measuring cup",
                                   "object_states": [
                                          {
                                                 "state_id": 54,
                                                 "state_label": "empty"
                                          }
                                   ],
                                   "ingredients": [],
                                   "object_in_motion": "0",
                                   "has_portions": "False"
                            }
                     ],
                     "motion_node": {
                            "motion_id": "40",
                            "motion_label": "pour",
                            "start_time": "0:42",
                            "end_time": "0:46",
                            "weight_success": 0.0
                     },
                     "output_nodes": [
                            {
                                   "object_id": 334,
                                   "object_label": "measuring cup",
                                   "object_states": [
                                          {
                                                 "state_id": 139,
                                                 "state_label": "ingredients inside"
                                          }
                                   ],
                                   "ingredients": [
                                          "water"
                                   ],
                                   "object_in_motion": "0",
                                   "has_portions": "False"
                            },
                            {
                                   "object_id": 567,
                                   "object_label": "water",
                                   "object_states": [
                                          {
                                                 "state_id": 103,
                                                 "state_label": "in measuring cup"
                                          }
                                   ],
                                   "ingredients": [],
                                   "object_in_motion": "1",
                                   "has_portions": "False"
                            }
                     ]
              },
              {
                     "input_nodes": [
                            {
                                   "object_id": 334,
                                   "object_label": "measuring cup",
                                   "object_states": [
                                          {
                                                 "state_id": 139,
                                                 "state_label": "ingredients inside"
                                          }
                                   ],
                                   "ingredients": [
                                          "water"
                                   ],
                                   "object_in_motion": "1",
                                   "has_portions": "False"
                            },
                            {
                                   "object_id": 567,
                                   "object_label": "water",
                                   "object_states": [
                                          {
                                                 "state_id": 103,
                                                 "state_label": "in measuring cup"
                                          }
                                   ],
                                   "ingredients": [],
                                   "object_in_motion": "1",
                                   "has_portions": "False"
                            },
                            {
                                   "object_id": 420,
                                   "object_label": "pot",
                                   "object_states": [
                                          {
                                                 "state_id": 54,
                                                 "state_label": "empty"
                                          }
                                   ],
                                   "ingredients": [],
                                   "object_in_motion": "0",
                                   "has_portions": "False"
                            }
                     ],
                     "motion_node": {
                            "motion_id": "40",
                            "motion_label": "pour",
                            "start_time": "0:47",
                            "end_time": "0:48",
                            "weight_success": 0.0
                     },
                     "output_nodes": [
                            {
                                   "object_id": 420,
                                   "object_label": "pot",
                                   "object_states": [
                                          {
                                                 "state_id": 139,
                                                 "state_label": "ingredients inside"
                                          }
                                   ],
                                   "ingredients": [
                                          "water"
                                   ],
                                   "object_in_motion": "0",
                                   "has_portions": "False"
                            },
                            {
                                   "object_id": 567,
                                   "object_label": "water",
                                   "object_states": [
                                          {
                                                 "state_id": 116,
                                                 "state_label": "in pot"
                                          }
                                   ],
                                   "ingredients": [],
                                   "object_in_motion": "1",
                                   "has_portions": "False"
                            }
                     ]
              },
              {
                     "input_nodes": [
                            {
                                   "object_id": 420,
                                   "object_label": "pot",
                                   "object_states": [
                                          {
                                                 "state_id": 139,
                                                 "state_label": "ingredients inside"
                                          }
                                   ],
                                   "ingredients": [
                                          "water"
                                   ],
                                   "object_in_motion": "1",
                                   "has_portions": "False"
                            },
                            {
                                   "object_id": 516,
                                   "object_label": "stove",
                                   "object_states": [
                                          {
                                                 "state_id": 168,
                                                 "state_label": "on"
                                          }
                                   ],
                                   "ingredients": [],
                                   "object_in_motion": "0",
                                   "has_portions": "False"
                            }
                     ],
                     "motion_node": {
                            "motion_id": "38",
                            "motion_label": "pick-and-place",
                            "start_time": "Assumed",
                            "end_time": "Assumed",
                            "weight_success": 0.0
                     },
                     "output_nodes": [
                            {
                                   "object_id": 420,
                                   "object_label": "pot",
                                   "object_states": [
                                          {
                                                 "state_id": 139,
                                                 "state_label": "ingredients inside"
                                          },
                                          {
                                                 "state_id": 198,
                                                 "state_label": "on stove"
                                          }
                                   ],
                                   "ingredients": [
                                          "water"
                                   ],
                                   "object_in_motion": "1",
                                   "has_portions": "False"
                            },
                            {
                                   "object_id": 516,
                                   "object_label": "stove",
                                   "object_states": [
                                          {
                                                 "state_id": 168,
                                                 "state_label": "on"
                                          },
                                          {
                                                 "state_id": 220,
                                                 "state_label": "pot on top"
                                          }
                                   ],
                                   "ingredients": [],
                                   "object_in_motion": "0",
                                   "has_portions": "False"
                            }
                     ]
              },
              {
                     "input_nodes": [
                            {
                                   "object_id": 420,
                                   "object_label": "pot",
                                   "object_states": [
                                          {
                                                 "state_id": 139,
                                                 "state_label": "ingredients inside"
                                          },
                                          {
                                                 "state_id": 198,
                                                 "state_label": "on stove"
                                          }
                                   ],
                                   "ingredients": [
                                          "water"
                                   ],
                                   "object_in_motion": "0",
                                   "has_portions": "False"
                            },
                            {
                                   "object_id": 516,
                                   "object_label": "stove",
                                   "object_states": [
                                          {
                                                 "state_id": 168,
                                                 "state_label": "on"
                                          },
                                          {
                                                 "state_id": 220,
                                                 "state_label": "pot on top"
                                          }
                                   ],
                                   "ingredients": [],
                                   "object_in_motion": "0",
                                   "has_portions": "False"
                            },
                            {
                                   "object_id": 567,
                                   "object_label": "water",
                                   "object_states": [
                                          {
                                                 "state_id": 116,
                                                 "state_label": "in pot"
                                          }
                                   ],
                                   "ingredients": [],
                                   "object_in_motion": "1",
                                   "has_portions": "False"
                            }
                     ],
                     "motion_node": {
                            "motion_id": "30",
                            "motion_label": "heat",
                            "start_time": "Assumed",
                            "end_time": "Assumed",
                            "weight_success": 0.0
                     },
                     "output_nodes": [
                            {
                                   "object_id": 420,
                                   "object_label": "pot",
                                   "object_states": [
                                          {
                                                 "state_id": 138,
                                                 "state_label": "ingredients heated inside"
                                          },
                                          {
                                                 "state_id": 198,
                                                 "state_label": "on stove"
                                          }
                                   ],
                                   "ingredients": [
                                          "water"
                                   ],
                                   "object_in_motion": "0",
                                   "has_portions": "False"
                            },
                            {
                                   "object_id": 567,
                                   "object_label": "water",
                                   "object_states": [
                                          {
                                                 "state_id": 12,
                                                 "state_label": "boiling"
                                          },
                                          {
                                                 "state_id": 116,
                                                 "state_label": "in pot"
                                          }
                                   ],
                                   "ingredients": [],
                                   "object_in_motion": "1",
                                   "has_portions": "False"
                            }
                     ]
              },
              {
                     "input_nodes": [
                            {
                                   "object_id": 420,
                                   "object_label": "pot",
                                   "object_states": [
                                          {
                                                 "state_id": 138,
                                                 "state_label": "ingredients heated inside"
                                          },
                                          {
                                                 "state_id": 198,
                                                 "state_label": "on stove"
                                          }
                                   ],
                                   "ingredients": [
                                          "water"
                                   ],
                                   "object_in_motion": "0",
                                   "has_portions": "False"
                            },
                            {
                                   "object_id": 51,
                                   "object_label": "bowl",
                                   "object_states": [
                                          {
                                                 "state_id": 139,
                                                 "state_label": "ingredients inside"
                                          }
                                   ],
                                   "ingredients": [
                                          "lentil"
                                   ],
                                   "object_in_motion": "1",
                                   "has_portions": "False"
                            },
                            {
                                   "object_id": 307,
                                   "object_label": "lentil",
                                   "object_states": [
                                          {
                                                 "state_id": 84,
                                                 "state_label": "in bowl"
                                          },
                                          {
                                                 "state_id": 258,
                                                 "state_label": "uncooked"
                                          }
                                   ],
                                   "ingredients": [],
                                   "object_in_motion": "1",
                                   "has_portions": "False"
                            }
                     ],
                     "motion_node": {
                            "motion_id": "40",
                            "motion_label": "pour",
                            "start_time": "0:54",
                            "end_time": "0:55",
                            "weight_success": 0.0
                     },
                     "output_nodes": [
                            {
                                   "object_id": 420,
                                   "object_label": "pot",
                                   "object_states": [
                                          {
                                                 "state_id": 139,
                                                 "state_label": "ingredients inside"
                                          },
                                          {
                                                 "state_id": 198,
                                                 "state_label": "on stove"
                                          }
                                   ],
                                   "ingredients": [
                                          "lentil",
                                          "water"
                                   ],
                                   "object_in_motion": "0",
                                   "has_portions": "False"
                            },
                            {
                                   "object_id": 307,
                                   "object_label": "lentil",
                                   "object_states": [
                                          {
                                                 "state_id": 116,
                                                 "state_label": "in pot"
                                          },
                                          {
                                                 "state_id": 258,
                                                 "state_label": "uncooked"
                                          }
                                   ],
                                   "ingredients": [],
                                   "object_in_motion": "1",
                                   "has_portions": "False"
                            }
                     ]
              },
              {
                     "input_nodes": [
                            {
                                   "object_id": 420,
                                   "object_label": "pot",
                                   "object_states": [
                                          {
                                                 "state_id": 139,
                                                 "state_label": "ingredients inside"
                                          },
                                          {
                                                 "state_id": 198,
                                                 "state_label": "on stove"
                                          }
                                   ],
                                   "ingredients": [
                                          "lentil",
                                          "water"
                                   ],
                                   "object_in_motion": "0",
                                   "has_portions": "False"
                            },
                            {
                                   "object_id": 507,
                                   "object_label": "spoon",
                                   "object_states": [
                                          {
                                                 "state_id": 23,
                                                 "state_label": "clean"
                                          }
                                   ],
                                   "ingredients": [],
                                   "object_in_motion": "1",
                                   "has_portions": "False"
                            }
                     ],
                     "motion_node": {
                            "motion_id": "66",
                            "motion_label": "stir",
                            "start_time": "0:57",
                            "end_time": "1:02",
                            "weight_success": 0.0
                     },
                     "output_nodes": [
                            {
                                   "object_id": 420,
                                   "object_label": "pot",
                                   "object_states": [
                                          {
                                                 "state_id": 143,
                                                 "state_label": "ingredients mixed inside"
                                          },
                                          {
                                                 "state_id": 198,
                                                 "state_label": "on stove"
                                          }
                                   ],
                                   "ingredients": [
                                          "lentil",
                                          "water"
                                   ],
                                   "object_in_motion": "0",
                                   "has_portions": "False"
                            }
                     ]
              },
              {
                     "input_nodes": [
                            {
                                   "object_id": 420,
                                   "object_label": "pot",
                                   "object_states": [
                                          {
                                                 "state_id": 143,
                                                 "state_label": "ingredients mixed inside"
                                          },
                                          {
                                                 "state_id": 198,
                                                 "state_label": "on stove"
                                          }
                                   ],
                                   "ingredients": [
                                          "lentil",
                                          "water"
                                   ],
                                   "object_in_motion": "0",
                                   "has_portions": "False"
                            },
                            {
                                   "object_id": 421,
                                   "object_label": "pot lid",
                                   "object_states": [
                                          {
                                                 "state_id": 23,
                                                 "state_label": "clean"
                                          }
                                   ],
                                   "ingredients": [],
                                   "object_in_motion": "1",
                                   "has_portions": "False"
                            }
                     ],
                     "motion_node": {
                            "motion_id": "38",
                            "motion_label": "pick-and-place",
                            "start_time": "1:03",
                            "end_time": "1:05",
                            "weight_success": 0.0
                     },
                     "output_nodes": [
                            {
                                   "object_id": 420,
                                   "object_label": "pot",
                                   "object_states": [
                                          {
                                                 "state_id": 31,
                                                 "state_label": "covered"
                                          },
                                          {
                                                 "state_id": 143,
                                                 "state_label": "ingredients mixed inside"
                                          },
                                          {
                                                 "state_id": 198,
                                                 "state_label": "on stove"
                                          }
                                   ],
                                   "ingredients": [
                                          "lentil",
                                          "water"
                                   ],
                                   "object_in_motion": "0",
                                   "has_portions": "False"
                            },
                            {
                                   "object_id": 421,
                                   "object_label": "pot lid",
                                   "object_states": [
                                          {
                                                 "state_id": 190,
                                                 "state_label": "on pot"
                                          }
                                   ],
                                   "ingredients": [],
                                   "object_in_motion": "1",
                                   "has_portions": "False"
                            }
                     ]
              },
              {
                     "input_nodes": [
                            {
                                   "object_id": 420,
                                   "object_label": "pot",
                                   "object_states": [
                                          {
                                                 "state_id": 31,
                                                 "state_label": "covered"
                                          },
                                          {
                                                 "state_id": 143,
                                                 "state_label": "ingredients mixed inside"
                                          },
                                          {
                                                 "state_id": 198,
                                                 "state_label": "on stove"
                                          }
                                   ],
                                   "ingredients": [
                                          "lentil",
                                          "water"
                                   ],
                                   "object_in_motion": "0",
                                   "has_portions": "False"
                            },
                            {
                                   "object_id": 516,
                                   "object_label": "stove",
                                   "object_states": [
                                          {
                                                 "state_id": 168,
                                                 "state_label": "on"
                                          },
                                          {
                                                 "state_id": 220,
                                                 "state_label": "pot on top"
                                          }
                                   ],
                                   "ingredients": [],
                                   "object_in_motion": "0",
                                   "has_portions": "False"
                            },
                            {
                                   "object_id": 307,
                                   "object_label": "lentil",
                                   "object_states": [
                                          {
                                                 "state_id": 116,
                                                 "state_label": "in pot"
                                          },
                                          {
                                                 "state_id": 258,
                                                 "state_label": "uncooked"
                                          }
                                   ],
                                   "ingredients": [],
                                   "object_in_motion": "0",
                                   "has_portions": "False"
                            }
                     ],
                     "motion_node": {
                            "motion_id": "10",
                            "motion_label": "cook",
                            "start_time": "1:07",
                            "end_time": "1:14",
                            "weight_success": 0.0
                     },
                     "output_nodes": [
                            {
                                   "object_id": 420,
                                   "object_label": "pot",
                                   "object_states": [
                                          {
                                                 "state_id": 31,
                                                 "state_label": "covered"
                                          },
                                          {
                                                 "state_id": 139,
                                                 "state_label": "ingredients inside"
                                          },
                                          {
                                                 "state_id": 198,
                                                 "state_label": "on stove"
                                          }
                                   ],
                                   "ingredients": [
                                          "lentil mix"
                                   ],
                                   "object_in_motion": "0",
                                   "has_portions": "False"
                            },
                            {
                                   "object_id": 309,
                                   "object_label": "lentil mix",
                                   "object_states": [
                                          {
                                                 "state_id": 29,
                                                 "state_label": "cooked"
                                          },
                                          {
                                                 "state_id": 116,
                                                 "state_label": "in pot"
                                          }
                                   ],
                                   "ingredients": [],
                                   "object_in_motion": "1",
                                   "has_portions": "False"
                            }
                     ]
              },
              {
                     "input_nodes": [
                            {
                                   "object_id": 420,
                                   "object_label": "pot",
                                   "object_states": [
                                          {
                                                 "state_id": 31,
                                                 "state_label": "covered"
                                          },
                                          {
                                                 "state_id": 139,
                                                 "state_label": "ingredients inside"
                                          },
                                          {
                                                 "state_id": 198,
                                                 "state_label": "on stove"
                                          }
                                   ],
                                   "ingredients": [
                                          "lentil mix"
                                   ],
                                   "object_in_motion": "0",
                                   "has_portions": "False"
                            },
                            {
                                   "object_id": 421,
                                   "object_label": "pot lid",
                                   "object_states": [
                                          {
                                                 "state_id": 190,
                                                 "state_label": "on pot"
                                          }
                                   ],
                                   "ingredients": [],
                                   "object_in_motion": "1",
                                   "has_portions": "False"
                            }
                     ],
                     "motion_node": {
                            "motion_id": "46",
                            "motion_label": "remove",
                            "start_time": "1:14",
                            "end_time": "1:116",
                            "weight_success": 0.0
                     },
                     "output_nodes": [
                            {
                                   "object_id": 420,
                                   "object_label": "pot",
                                   "object_states": [
                                          {
                                                 "state_id": 139,
                                                 "state_label": "ingredients inside"
                                          },
                                          {
                                                 "state_id": 198,
                                                 "state_label": "on stove"
                                          }
                                   ],
                                   "ingredients": [
                                          "lentil mix"
                                   ],
                                   "object_in_motion": "0",
                                   "has_portions": "False"
                            },
                            {
                                   "object_id": 421,
                                   "object_label": "pot lid",
                                   "object_states": [
                                          {
                                                 "state_id": 45,
                                                 "state_label": "dirty"
                                          }
                                   ],
                                   "ingredients": [],
                                   "object_in_motion": "1",
                                   "has_portions": "False"
                            }
                     ]
              },
              {
                     "input_nodes": [
                            {
                                   "object_id": 420,
                                   "object_label": "pot",
                                   "object_states": [
                                          {
                                                 "state_id": 139,
                                                 "state_label": "ingredients inside"
                                          },
                                          {
                                                 "state_id": 198,
                                                 "state_label": "on stove"
                                          }
                                   ],
                                   "ingredients": [
                                          "lentil mix"
                                   ],
                                   "object_in_motion": "0",
                                   "has_portions": "False"
                            },
                            {
                                   "object_id": 553,
                                   "object_label": "turner",
                                   "object_states": [
                                          {
                                                 "state_id": 23,
                                                 "state_label": "clean"
                                          }
                                   ],
                                   "ingredients": [],
                                   "object_in_motion": "1",
                                   "has_portions": "False"
                            }
                     ],
                     "motion_node": {
                            "motion_id": "66",
                            "motion_label": "stir",
                            "start_time": "1:21",
                            "end_time": "1:27",
                            "weight_success": 0.0
                     },
                     "output_nodes": [
                            {
                                   "object_id": 420,
                                   "object_label": "pot",
                                   "object_states": [
                                          {
                                                 "state_id": 143,
                                                 "state_label": "ingredients mixed inside"
                                          },
                                          {
                                                 "state_id": 198,
                                                 "state_label": "on stove"
                                          }
                                   ],
                                   "ingredients": [
                                          "lentil mix"
                                   ],
                                   "object_in_motion": "0",
                                   "has_portions": "False"
                            }
                     ]
              },
              {
                     "input_nodes": [
                            {
                                   "object_id": 420,
                                   "object_label": "pot",
                                   "object_states": [
                                          {
                                                 "state_id": 143,
                                                 "state_label": "ingredients mixed inside"
                                          },
                                          {
                                                 "state_id": 198,
                                                 "state_label": "on stove"
                                          }
                                   ],
                                   "ingredients": [
                                          "lentil mix"
                                   ],
                                   "object_in_motion": "0",
                                   "has_portions": "False"
                            },
                            {
                                   "object_id": 51,
                                   "object_label": "bowl",
                                   "object_states": [
                                          {
                                                 "state_id": 139,
                                                 "state_label": "ingredients inside"
                                          }
                                   ],
                                   "ingredients": [
                                          "bulgur"
                                   ],
                                   "object_in_motion": "1",
                                   "has_portions": "False"
                            },
                            {
                                   "object_id": 64,
                                   "object_label": "bulgur",
                                   "object_states": [
                                          {
                                                 "state_id": 84,
                                                 "state_label": "in bowl"
                                          },
                                          {
                                                 "state_id": 258,
                                                 "state_label": "uncooked"
                                          }
                                   ],
                                   "ingredients": [],
                                   "object_in_motion": "1",
                                   "has_portions": "False"
                            }
                     ],
                     "motion_node": {
                            "motion_id": "40",
                            "motion_label": "pour",
                            "start_time": "1:28",
                            "end_time": "1:30",
                            "weight_success": 0.0
                     },
                     "output_nodes": [
                            {
                                   "object_id": 420,
                                   "object_label": "pot",
                                   "object_states": [
                                          {
                                                 "state_id": 139,
                                                 "state_label": "ingredients inside"
                                          },
                                          {
                                                 "state_id": 198,
                                                 "state_label": "on stove"
                                          }
                                   ],
                                   "ingredients": [
                                          "bulgur",
                                          "lentil mix"
                                   ],
                                   "object_in_motion": "0",
                                   "has_portions": "False"
                            },
                            {
                                   "object_id": 64,
                                   "object_label": "bulgur",
                                   "object_states": [
                                          {
                                                 "state_id": 84,
                                                 "state_label": "in bowl"
                                          },
                                          {
                                                 "state_id": 258,
                                                 "state_label": "uncooked"
                                          }
                                   ],
                                   "ingredients": [],
                                   "object_in_motion": "1",
                                   "has_portions": "False"
                            }
                     ]
              },
              {
                     "input_nodes": [
                            {
                                   "object_id": 420,
                                   "object_label": "pot",
                                   "object_states": [
                                          {
                                                 "state_id": 139,
                                                 "state_label": "ingredients inside"
                                          },
                                          {
                                                 "state_id": 198,
                                                 "state_label": "on stove"
                                          }
                                   ],
                                   "ingredients": [
                                          "bulgur",
                                          "lentil mix"
                                   ],
                                   "object_in_motion": "0",
                                   "has_portions": "False"
                            },
                            {
                                   "object_id": 64,
                                   "object_label": "bulgur",
                                   "object_states": [
                                          {
                                                 "state_id": 84,
                                                 "state_label": "in bowl"
                                          },
                                          {
                                                 "state_id": 258,
                                                 "state_label": "uncooked"
                                          }
                                   ],
                                   "ingredients": [],
                                   "object_in_motion": "1",
                                   "has_portions": "False"
                            },
                            {
                                   "object_id": 309,
                                   "object_label": "lentil mix",
                                   "object_states": [
                                          {
                                                 "state_id": 29,
                                                 "state_label": "cooked"
                                          },
                                          {
                                                 "state_id": 116,
                                                 "state_label": "in pot"
                                          }
                                   ],
                                   "ingredients": [],
                                   "object_in_motion": "1",
                                   "has_portions": "False"
                            },
                            {
                                   "object_id": 553,
                                   "object_label": "turner",
                                   "object_states": [
                                          {
                                                 "state_id": 23,
                                                 "state_label": "clean"
                                          }
                                   ],
                                   "ingredients": [],
                                   "object_in_motion": "1",
                                   "has_portions": "False"
                            }
                     ],
                     "motion_node": {
                            "motion_id": "66",
                            "motion_label": "stir",
                            "start_time": "1:33",
                            "end_time": "1:37",
                            "weight_success": 0.0
                     },
                     "output_nodes": [
                            {
                                   "object_id": 420,
                                   "object_label": "pot",
                                   "object_states": [
                                          {
                                                 "state_id": 143,
                                                 "state_label": "ingredients mixed inside"
                                          },
                                          {
                                                 "state_id": 198,
                                                 "state_label": "on stove"
                                          }
                                   ],
                                   "ingredients": [
                                          "kofta mix"
                                   ],
                                   "object_in_motion": "0",
                                   "has_portions": "False"
                            },
                            {
                                   "object_id": 295,
                                   "object_label": "kofta mix",
                                   "object_states": [
                                          {
                                                 "state_id": 116,
                                                 "state_label": "in pot"
                                          },
                                          {
                                                 "state_id": 139,
                                                 "state_label": "ingredients inside"
                                          }
                                   ],
                                   "ingredients": [
                                          "bulgur",
                                          "lentil"
                                   ],
                                   "object_in_motion": "1",
                                   "has_portions": "False"
                            }
                     ]
              }
       ]
}