{
       "functional_units": [
              {
                     "input_nodes": [
                            {
                                   "object_id": 328,
                                   "object_label": "matzo",
                                   "object_states": [
                                          {
                                                 "state_id": 3,
                                                 "state_label": "baked"
                                          }
                                   ],
                                   "ingredients": [],
                                   "object_in_motion": "1",
                                   "has_portions": "False"
                            },
                            {
                                   "object_id": 415,
                                   "object_label": "plate",
                                   "object_states": [
                                          {
                                                 "state_id": 54,
                                                 "state_label": "empty"
                                          }
                                   ],
                                   "ingredients": [],
                                   "object_in_motion": "0",
                                   "has_portions": "False"
                            }
                     ],
                     "motion_node": {
                            "motion_id": "38",
                            "motion_label": "pick-and-place",
                            "start_time": "Assumed",
                            "end_time": "Assumed",
                            "weight_success": 0.0
                     },
                     "output_nodes": [
                            {
                                   "object_id": 415,
                                   "object_label": "plate",
                                   "object_states": [
                                          {
                                                 "state_id": 145,
                                                 "state_label": "ingredients on top"
                                          }
                                   ],
                                   "ingredients": [
                                          "matzo"
                                   ],
                                   "object_in_motion": "0",
                                   "has_portions": "False"
                            },
                            {
                                   "object_id": 328,
                                   "object_label": "matzo",
                                   "object_states": [
                                          {
                                                 "state_id": 3,
                                                 "state_label": "baked"
                                          },
                                          {
                                                 "state_id": 189,
                                                 "state_label": "on plate"
                                          }
                                   ],
                                   "ingredients": [],
                                   "object_in_motion": "1",
                                   "has_portions": "False"
                            }
                     ]
              },
              {
                     "input_nodes": [
                            {
                                   "object_id": 415,
                                   "object_label": "plate",
                                   "object_states": [
                                          {
                                                 "state_id": 145,
                                                 "state_label": "ingredients on top"
                                          }
                                   ],
                                   "ingredients": [
                                          "matzo"
                                   ],
                                   "object_in_motion": "0",
                                   "has_portions": "False"
                            },
                            {
                                   "object_id": 328,
                                   "object_label": "matzo",
                                   "object_states": [
                                          {
                                                 "state_id": 3,
                                                 "state_label": "baked"
                                          },
                                          {
                                                 "state_id": 189,
                                                 "state_label": "on plate"
                                          }
                                   ],
                                   "ingredients": [],
                                   "object_in_motion": "0",
                                   "has_portions": "False"
                            }
                     ],
                     "motion_node": {
                            "motion_id": "5",
                            "motion_label": "break",
                            "start_time": "0:32",
                            "end_time": "0:36",
                            "weight_success": 0.0
                     },
                     "output_nodes": [
                            {
                                   "object_id": 328,
                                   "object_label": "matzo",
                                   "object_states": [
                                          {
                                                 "state_id": 14,
                                                 "state_label": "broken"
                                          }
                                   ],
                                   "ingredients": [],
                                   "object_in_motion": "0",
                                   "has_portions": "False"
                            }
                     ]
              },
              {
                     "input_nodes": [
                            {
                                   "object_id": 51,
                                   "object_label": "bowl",
                                   "object_states": [
                                          {
                                                 "state_id": 139,
                                                 "state_label": "ingredients inside"
                                          }
                                   ],
                                   "ingredients": [
                                          "water"
                                   ],
                                   "object_in_motion": "0",
                                   "has_portions": "False"
                            },
                            {
                                   "object_id": 328,
                                   "object_label": "matzo",
                                   "object_states": [
                                          {
                                                 "state_id": 14,
                                                 "state_label": "broken"
                                          }
                                   ],
                                   "ingredients": [],
                                   "object_in_motion": "1",
                                   "has_portions": "False"
                            }
                     ],
                     "motion_node": {
                            "motion_id": "38",
                            "motion_label": "pick-and-place",
                            "start_time": "0:37",
                            "end_time": "0:38",
                            "weight_success": 0.0
                     },
                     "output_nodes": [
                            {
                                   "object_id": 51,
                                   "object_label": "bowl",
                                   "object_states": [
                                          {
                                                 "state_id": 139,
                                                 "state_label": "ingredients inside"
                                          }
                                   ],
                                   "ingredients": [
                                          "matzo",
                                          "water"
                                   ],
                                   "object_in_motion": "0",
                                   "has_portions": "False"
                            },
                            {
                                   "object_id": 328,
                                   "object_label": "matzo",
                                   "object_states": [
                                          {
                                                 "state_id": 14,
                                                 "state_label": "broken"
                                          },
                                          {
                                                 "state_id": 84,
                                                 "state_label": "in bowl"
                                          }
                                   ],
                                   "ingredients": [],
                                   "object_in_motion": "1",
                                   "has_portions": "False"
                            }
                     ]
              },
              {
                     "input_nodes": [
                            {
                                   "object_id": 51,
                                   "object_label": "bowl",
                                   "object_states": [
                                          {
                                                 "state_id": 139,
                                                 "state_label": "ingredients inside"
                                          }
                                   ],
                                   "ingredients": [
                                          "matzo",
                                          "water"
                                   ],
                                   "object_in_motion": "0",
                                   "has_portions": "False"
                            },
                            {
                                   "object_id": 567,
                                   "object_label": "water",
                                   "object_states": [
                                          {
                                                 "state_id": 84,
                                                 "state_label": "in bowl"
                                          }
                                   ],
                                   "ingredients": [],
                                   "object_in_motion": "0",
                                   "has_portions": "False"
                            },
                            {
                                   "object_id": 328,
                                   "object_label": "matzo",
                                   "object_states": [
                                          {
                                                 "state_id": 14,
                                                 "state_label": "broken"
                                          },
                                          {
                                                 "state_id": 84,
                                                 "state_label": "in bowl"
                                          }
                                   ],
                                   "ingredients": [],
                                   "object_in_motion": "1",
                                   "has_portions": "False"
                            }
                     ],
                     "motion_node": {
                            "motion_id": "43",
                            "motion_label": "press",
                            "start_time": "0:38",
                            "end_time": "0:46",
                            "weight_success": 0.0
                     },
                     "output_nodes": [
                            {
                                   "object_id": 328,
                                   "object_label": "matzo",
                                   "object_states": [
                                          {
                                                 "state_id": 84,
                                                 "state_label": "in bowl"
                                          },
                                          {
                                                 "state_id": 241,
                                                 "state_label": "soaked"
                                          }
                                   ],
                                   "ingredients": [],
                                   "object_in_motion": "1",
                                   "has_portions": "False"
                            }
                     ]
              },
              {
                     "input_nodes": [
                            {
                                   "object_id": 51,
                                   "object_label": "bowl",
                                   "object_states": [
                                          {
                                                 "state_id": 139,
                                                 "state_label": "ingredients inside"
                                          }
                                   ],
                                   "ingredients": [
                                          "matzo",
                                          "water"
                                   ],
                                   "object_in_motion": "1",
                                   "has_portions": "False"
                            },
                            {
                                   "object_id": 328,
                                   "object_label": "matzo",
                                   "object_states": [
                                          {
                                                 "state_id": 84,
                                                 "state_label": "in bowl"
                                          },
                                          {
                                                 "state_id": 241,
                                                 "state_label": "soaked"
                                          }
                                   ],
                                   "ingredients": [],
                                   "object_in_motion": "0",
                                   "has_portions": "False"
                            },
                            {
                                   "object_id": 567,
                                   "object_label": "water",
                                   "object_states": [
                                          {
                                                 "state_id": 84,
                                                 "state_label": "in bowl"
                                          }
                                   ],
                                   "ingredients": [],
                                   "object_in_motion": "0",
                                   "has_portions": "False"
                            }
                     ],
                     "motion_node": {
                            "motion_id": "22",
                            "motion_label": "drain",
                            "start_time": "0:49",
                            "end_time": "1:01",
                            "weight_success": 0.0
                     },
                     "output_nodes": [
                            {
                                   "object_id": 51,
                                   "object_label": "bowl",
                                   "object_states": [
                                          {
                                                 "state_id": 139,
                                                 "state_label": "ingredients inside"
                                          }
                                   ],
                                   "ingredients": [
                                          "matzo"
                                   ],
                                   "object_in_motion": "1",
                                   "has_portions": "False"
                            },
                            {
                                   "object_id": 328,
                                   "object_label": "matzo",
                                   "object_states": [
                                          {
                                                 "state_id": 84,
                                                 "state_label": "in bowl"
                                          },
                                          {
                                                 "state_id": 158,
                                                 "state_label": "mashed"
                                          }
                                   ],
                                   "ingredients": [],
                                   "object_in_motion": "0",
                                   "has_portions": "False"
                            }
                     ]
              },
              {
                     "input_nodes": [
                            {
                                   "object_id": 51,
                                   "object_label": "bowl",
                                   "object_states": [
                                          {
                                                 "state_id": 139,
                                                 "state_label": "ingredients inside"
                                          }
                                   ],
                                   "ingredients": [
                                          "matzo"
                                   ],
                                   "object_in_motion": "0",
                                   "has_portions": "False"
                            },
                            {
                                   "object_id": 197,
                                   "object_label": "egg",
                                   "object_states": [
                                          {
                                                 "state_id": 259,
                                                 "state_label": "uncracked"
                                          }
                                   ],
                                   "ingredients": [],
                                   "object_in_motion": "1",
                                   "has_portions": "False"
                            }
                     ],
                     "motion_node": {
                            "motion_id": "14",
                            "motion_label": "crack",
                            "start_time": "1:02",
                            "end_time": "1:08",
                            "weight_success": 0.0
                     },
                     "output_nodes": [
                            {
                                   "object_id": 51,
                                   "object_label": "bowl",
                                   "object_states": [
                                          {
                                                 "state_id": 139,
                                                 "state_label": "ingredients inside"
                                          }
                                   ],
                                   "ingredients": [
                                          "egg white and yolk",
                                          "matzo"
                                   ],
                                   "object_in_motion": "0",
                                   "has_portions": "False"
                            },
                            {
                                   "object_id": 201,
                                   "object_label": "egg white and yolk",
                                   "object_states": [
                                          {
                                                 "state_id": 84,
                                                 "state_label": "in bowl"
                                          }
                                   ],
                                   "ingredients": [],
                                   "object_in_motion": "1",
                                   "has_portions": "False"
                            }
                     ]
              },
              {
                     "input_nodes": [
                            {
                                   "object_id": 51,
                                   "object_label": "bowl",
                                   "object_states": [
                                          {
                                                 "state_id": 139,
                                                 "state_label": "ingredients inside"
                                          }
                                   ],
                                   "ingredients": [
                                          "egg white and yolk",
                                          "matzo"
                                   ],
                                   "object_in_motion": "0",
                                   "has_portions": "False"
                            },
                            {
                                   "object_id": 259,
                                   "object_label": "grinder",
                                   "object_states": [
                                          {
                                                 "state_id": 139,
                                                 "state_label": "ingredients inside"
                                          }
                                   ],
                                   "ingredients": [
                                          "salt"
                                   ],
                                   "object_in_motion": "1",
                                   "has_portions": "False"
                            },
                            {
                                   "object_id": 459,
                                   "object_label": "salt",
                                   "object_states": [
                                          {
                                                 "state_id": 97,
                                                 "state_label": "in grinder"
                                          }
                                   ],
                                   "ingredients": [],
                                   "object_in_motion": "1",
                                   "has_portions": "False"
                            }
                     ],
                     "motion_node": {
                            "motion_id": "29",
                            "motion_label": "grind",
                            "start_time": "1:09",
                            "end_time": "1:12",
                            "weight_success": 0.0
                     },
                     "output_nodes": [
                            {
                                   "object_id": 51,
                                   "object_label": "bowl",
                                   "object_states": [
                                          {
                                                 "state_id": 139,
                                                 "state_label": "ingredients inside"
                                          }
                                   ],
                                   "ingredients": [
                                          "egg white and yolk",
                                          "matzo",
                                          "salt"
                                   ],
                                   "object_in_motion": "0",
                                   "has_portions": "False"
                            },
                            {
                                   "object_id": 459,
                                   "object_label": "salt",
                                   "object_states": [
                                          {
                                                 "state_id": 67,
                                                 "state_label": "granulated"
                                          },
                                          {
                                                 "state_id": 84,
                                                 "state_label": "in bowl"
                                          }
                                   ],
                                   "ingredients": [],
                                   "object_in_motion": "0",
                                   "has_portions": "False"
                            }
                     ]
              },
              {
                     "input_nodes": [
                            {
                                   "object_id": 51,
                                   "object_label": "bowl",
                                   "object_states": [
                                          {
                                                 "state_id": 139,
                                                 "state_label": "ingredients inside"
                                          }
                                   ],
                                   "ingredients": [
                                          "egg white and yolk",
                                          "matzo",
                                          "salt"
                                   ],
                                   "object_in_motion": "0",
                                   "has_portions": "False"
                            },
                            {
                                   "object_id": 328,
                                   "object_label": "matzo",
                                   "object_states": [
                                          {
                                                 "state_id": 84,
                                                 "state_label": "in bowl"
                                          },
                                          {
                                                 "state_id": 158,
                                                 "state_label": "mashed"
                                          }
                                   ],
                                   "ingredients": [],
                                   "object_in_motion": "1",
                                   "has_portions": "False"
                            },
                            {
                                   "object_id": 459,
                                   "object_label": "salt",
                                   "object_states": [
                                          {
                                                 "state_id": 67,
                                                 "state_label": "granulated"
                                          },
                                          {
                                                 "state_id": 84,
                                                 "state_label": "in bowl"
                                          }
                                   ],
                                   "ingredients": [],
                                   "object_in_motion": "1",
                                   "has_portions": "False"
                            },
                            {
                                   "object_id": 507,
                                   "object_label": "spoon",
                                   "object_states": [
                                          {
                                                 "state_id": 23,
                                                 "state_label": "clean"
                                          }
                                   ],
                                   "ingredients": [],
                                   "object_in_motion": "1",
                                   "has_portions": "False"
                            },
                            {
                                   "object_id": 201,
                                   "object_label": "egg white and yolk",
                                   "object_states": [
                                          {
                                                 "state_id": 84,
                                                 "state_label": "in bowl"
                                          }
                                   ],
                                   "ingredients": [],
                                   "object_in_motion": "1",
                                   "has_portions": "False"
                            }
                     ],
                     "motion_node": {
                            "motion_id": "35",
                            "motion_label": "mix",
                            "start_time": "1:13",
                            "end_time": "1:21",
                            "weight_success": 0.0
                     },
                     "output_nodes": [
                            {
                                   "object_id": 51,
                                   "object_label": "bowl",
                                   "object_states": [
                                          {
                                                 "state_id": 143,
                                                 "state_label": "ingredients mixed inside"
                                          }
                                   ],
                                   "ingredients": [
                                          "matzo mixture"
                                   ],
                                   "object_in_motion": "0",
                                   "has_portions": "False"
                            },
                            {
                                   "object_id": 330,
                                   "object_label": "matzo mixture",
                                   "object_states": [
                                          {
                                                 "state_id": 84,
                                                 "state_label": "in bowl"
                                          },
                                          {
                                                 "state_id": 139,
                                                 "state_label": "ingredients inside"
                                          }
                                   ],
                                   "ingredients": [
                                          "egg white and yolk",
                                          "matzo",
                                          "salt"
                                   ],
                                   "object_in_motion": "0",
                                   "has_portions": "False"
                            }
                     ]
              },
              {
                     "input_nodes": [
                            {
                                   "object_id": 51,
                                   "object_label": "bowl",
                                   "object_states": [
                                          {
                                                 "state_id": 139,
                                                 "state_label": "ingredients inside"
                                          }
                                   ],
                                   "ingredients": [
                                          "vegetable oil"
                                   ],
                                   "object_in_motion": "1",
                                   "has_portions": "False"
                            },
                            {
                                   "object_id": 558,
                                   "object_label": "vegetable oil",
                                   "object_states": [
                                          {
                                                 "state_id": 84,
                                                 "state_label": "in bowl"
                                          }
                                   ],
                                   "ingredients": [],
                                   "object_in_motion": "1",
                                   "has_portions": "False"
                            },
                            {
                                   "object_id": 144,
                                   "object_label": "cooking pan",
                                   "object_states": [
                                          {
                                                 "state_id": 75,
                                                 "state_label": "heated"
                                          },
                                          {
                                                 "state_id": 198,
                                                 "state_label": "on stove"
                                          }
                                   ],
                                   "ingredients": [],
                                   "object_in_motion": "0",
                                   "has_portions": "False"
                            }
                     ],
                     "motion_node": {
                            "motion_id": "40",
                            "motion_label": "pour",
                            "start_time": "1:24",
                            "end_time": "1:28",
                            "weight_success": 0.0
                     },
                     "output_nodes": [
                            {
                                   "object_id": 144,
                                   "object_label": "cooking pan",
                                   "object_states": [
                                          {
                                                 "state_id": 69,
                                                 "state_label": "greased"
                                          },
                                          {
                                                 "state_id": 198,
                                                 "state_label": "on stove"
                                          }
                                   ],
                                   "ingredients": [
                                          "vegetable oil"
                                   ],
                                   "object_in_motion": "0",
                                   "has_portions": "False"
                            },
                            {
                                   "object_id": 558,
                                   "object_label": "vegetable oil",
                                   "object_states": [
                                          {
                                                 "state_id": 114,
                                                 "state_label": "in pan"
                                          }
                                   ],
                                   "ingredients": [],
                                   "object_in_motion": "0",
                                   "has_portions": "False"
                            }
                     ]
              },
              {
                     "input_nodes": [
                            {
                                   "object_id": 51,
                                   "object_label": "bowl",
                                   "object_states": [
                                          {
                                                 "state_id": 143,
                                                 "state_label": "ingredients mixed inside"
                                          }
                                   ],
                                   "ingredients": [
                                          "matzo mixture"
                                   ],
                                   "object_in_motion": "1",
                                   "has_portions": "False"
                            },
                            {
                                   "object_id": 330,
                                   "object_label": "matzo mixture",
                                   "object_states": [
                                          {
                                                 "state_id": 84,
                                                 "state_label": "in bowl"
                                          },
                                          {
                                                 "state_id": 139,
                                                 "state_label": "ingredients inside"
                                          }
                                   ],
                                   "ingredients": [
                                          "egg white and yolk",
                                          "matzo",
                                          "salt"
                                   ],
                                   "object_in_motion": "1",
                                   "has_portions": "False"
                            },
                            {
                                   "object_id": 144,
                                   "object_label": "cooking pan",
                                   "object_states": [
                                          {
                                                 "state_id": 69,
                                                 "state_label": "greased"
                                          },
                                          {
                                                 "state_id": 198,
                                                 "state_label": "on stove"
                                          }
                                   ],
                                   "ingredients": [
                                          "vegetable oil"
                                   ],
                                   "object_in_motion": "0",
                                   "has_portions": "False"
                            },
                            {
                                   "object_id": 507,
                                   "object_label": "spoon",
                                   "object_states": [
                                          {
                                                 "state_id": 23,
                                                 "state_label": "clean"
                                          }
                                   ],
                                   "ingredients": [],
                                   "object_in_motion": "1",
                                   "has_portions": "False"
                            }
                     ],
                     "motion_node": {
                            "motion_id": "53",
                            "motion_label": "scrape",
                            "start_time": "1:33",
                            "end_time": "1:38",
                            "weight_success": 0.0
                     },
                     "output_nodes": [
                            {
                                   "object_id": 144,
                                   "object_label": "cooking pan",
                                   "object_states": [
                                          {
                                                 "state_id": 139,
                                                 "state_label": "ingredients inside"
                                          },
                                          {
                                                 "state_id": 198,
                                                 "state_label": "on stove"
                                          }
                                   ],
                                   "ingredients": [
                                          "matzo mixture"
                                   ],
                                   "object_in_motion": "0",
                                   "has_portions": "False"
                            },
                            {
                                   "object_id": 330,
                                   "object_label": "matzo mixture",
                                   "object_states": [
                                          {
                                                 "state_id": 114,
                                                 "state_label": "in pan"
                                          },
                                          {
                                                 "state_id": 139,
                                                 "state_label": "ingredients inside"
                                          }
                                   ],
                                   "ingredients": [
                                          "egg white and yolk",
                                          "matzo",
                                          "salt"
                                   ],
                                   "object_in_motion": "1",
                                   "has_portions": "False"
                            },
                            {
                                   "object_id": 51,
                                   "object_label": "bowl",
                                   "object_states": [
                                          {
                                                 "state_id": 45,
                                                 "state_label": "dirty"
                                          }
                                   ],
                                   "ingredients": [],
                                   "object_in_motion": "1",
                                   "has_portions": "False"
                            }
                     ]
              },
              {
                     "input_nodes": [
                            {
                                   "object_id": 144,
                                   "object_label": "cooking pan",
                                   "object_states": [
                                          {
                                                 "state_id": 139,
                                                 "state_label": "ingredients inside"
                                          },
                                          {
                                                 "state_id": 198,
                                                 "state_label": "on stove"
                                          }
                                   ],
                                   "ingredients": [
                                          "matzo mixture"
                                   ],
                                   "object_in_motion": "0",
                                   "has_portions": "False"
                            },
                            {
                                   "object_id": 330,
                                   "object_label": "matzo mixture",
                                   "object_states": [
                                          {
                                                 "state_id": 114,
                                                 "state_label": "in pan"
                                          },
                                          {
                                                 "state_id": 139,
                                                 "state_label": "ingredients inside"
                                          }
                                   ],
                                   "ingredients": [
                                          "egg white and yolk",
                                          "matzo",
                                          "salt"
                                   ],
                                   "object_in_motion": "1",
                                   "has_portions": "False"
                            },
                            {
                                   "object_id": 507,
                                   "object_label": "spoon",
                                   "object_states": [
                                          {
                                                 "state_id": 23,
                                                 "state_label": "clean"
                                          }
                                   ],
                                   "ingredients": [],
                                   "object_in_motion": "1",
                                   "has_portions": "False"
                            }
                     ],
                     "motion_node": {
                            "motion_id": "63",
                            "motion_label": "spread",
                            "start_time": "1:39",
                            "end_time": "1:45",
                            "weight_success": 0.0
                     },
                     "output_nodes": [
                            {
                                   "object_id": 329,
                                   "object_label": "matzo brei",
                                   "object_states": [
                                          {
                                                 "state_id": 114,
                                                 "state_label": "in pan"
                                          },
                                          {
                                                 "state_id": 210,
                                                 "state_label": "partly cooked"
                                          }
                                   ],
                                   "ingredients": [],
                                   "object_in_motion": "1",
                                   "has_portions": "False"
                            }
                     ]
              },
              {
                     "input_nodes": [
                            {
                                   "object_id": 144,
                                   "object_label": "cooking pan",
                                   "object_states": [
                                          {
                                                 "state_id": 139,
                                                 "state_label": "ingredients inside"
                                          },
                                          {
                                                 "state_id": 198,
                                                 "state_label": "on stove"
                                          }
                                   ],
                                   "ingredients": [
                                          "matzo mixture"
                                   ],
                                   "object_in_motion": "0",
                                   "has_portions": "False"
                            },
                            {
                                   "object_id": 329,
                                   "object_label": "matzo brei",
                                   "object_states": [
                                          {
                                                 "state_id": 114,
                                                 "state_label": "in pan"
                                          },
                                          {
                                                 "state_id": 210,
                                                 "state_label": "partly cooked"
                                          }
                                   ],
                                   "ingredients": [],
                                   "object_in_motion": "1",
                                   "has_portions": "False"
                            },
                            {
                                   "object_id": 553,
                                   "object_label": "turner",
                                   "object_states": [
                                          {
                                                 "state_id": 23,
                                                 "state_label": "clean"
                                          }
                                   ],
                                   "ingredients": [],
                                   "object_in_motion": "1",
                                   "has_portions": "False"
                            }
                     ],
                     "motion_node": {
                            "motion_id": "25",
                            "motion_label": "flip",
                            "start_time": "1:55",
                            "end_time": "1:58",
                            "weight_success": 0.0
                     },
                     "output_nodes": [
                            {
                                   "object_id": 329,
                                   "object_label": "matzo brei",
                                   "object_states": [
                                          {
                                                 "state_id": 58,
                                                 "state_label": "flipped"
                                          },
                                          {
                                                 "state_id": 114,
                                                 "state_label": "in pan"
                                          }
                                   ],
                                   "ingredients": [],
                                   "object_in_motion": "1",
                                   "has_portions": "False"
                            }
                     ]
              },
              {
                     "input_nodes": [
                            {
                                   "object_id": 144,
                                   "object_label": "cooking pan",
                                   "object_states": [
                                          {
                                                 "state_id": 139,
                                                 "state_label": "ingredients inside"
                                          },
                                          {
                                                 "state_id": 198,
                                                 "state_label": "on stove"
                                          }
                                   ],
                                   "ingredients": [
                                          "matzo mixture"
                                   ],
                                   "object_in_motion": "0",
                                   "has_portions": "False"
                            },
                            {
                                   "object_id": 329,
                                   "object_label": "matzo brei",
                                   "object_states": [
                                          {
                                                 "state_id": 58,
                                                 "state_label": "flipped"
                                          },
                                          {
                                                 "state_id": 114,
                                                 "state_label": "in pan"
                                          }
                                   ],
                                   "ingredients": [],
                                   "object_in_motion": "1",
                                   "has_portions": "False"
                            },
                            {
                                   "object_id": 516,
                                   "object_label": "stove",
                                   "object_states": [
                                          {
                                                 "state_id": 168,
                                                 "state_label": "on"
                                          },
                                          {
                                                 "state_id": 209,
                                                 "state_label": "pan on top"
                                          }
                                   ],
                                   "ingredients": [],
                                   "object_in_motion": "0",
                                   "has_portions": "False"
                            }
                     ],
                     "motion_node": {
                            "motion_id": "10",
                            "motion_label": "cook",
                            "start_time": "Assumed",
                            "end_time": "Assumed",
                            "weight_success": 0.0
                     },
                     "output_nodes": [
                            {
                                   "object_id": 329,
                                   "object_label": "matzo brei",
                                   "object_states": [
                                          {
                                                 "state_id": 29,
                                                 "state_label": "cooked"
                                          },
                                          {
                                                 "state_id": 114,
                                                 "state_label": "in pan"
                                          }
                                   ],
                                   "ingredients": [],
                                   "object_in_motion": "1",
                                   "has_portions": "False"
                            },
                            {
                                   "object_id": 144,
                                   "object_label": "cooking pan",
                                   "object_states": [
                                          {
                                                 "state_id": 48,
                                                 "state_label": "dish inside"
                                          },
                                          {
                                                 "state_id": 198,
                                                 "state_label": "on stove"
                                          }
                                   ],
                                   "ingredients": [
                                          "matzo brei"
                                   ],
                                   "object_in_motion": "0",
                                   "has_portions": "False"
                            }
                     ]
              },
              {
                     "input_nodes": [
                            {
                                   "object_id": 329,
                                   "object_label": "matzo brei",
                                   "object_states": [
                                          {
                                                 "state_id": 29,
                                                 "state_label": "cooked"
                                          },
                                          {
                                                 "state_id": 114,
                                                 "state_label": "in pan"
                                          }
                                   ],
                                   "ingredients": [],
                                   "object_in_motion": "1",
                                   "has_portions": "False"
                            },
                            {
                                   "object_id": 144,
                                   "object_label": "cooking pan",
                                   "object_states": [
                                          {
                                                 "state_id": 48,
                                                 "state_label": "dish inside"
                                          },
                                          {
                                                 "state_id": 198,
                                                 "state_label": "on stove"
                                          }
                                   ],
                                   "ingredients": [
                                          "matzo brei"
                                   ],
                                   "object_in_motion": "0",
                                   "has_portions": "False"
                            },
                            {
                                   "object_id": 553,
                                   "object_label": "turner",
                                   "object_states": [
                                          {
                                                 "state_id": 23,
                                                 "state_label": "clean"
                                          }
                                   ],
                                   "ingredients": [],
                                   "object_in_motion": "1",
                                   "has_portions": "False"
                            },
                            {
                                   "object_id": 415,
                                   "object_label": "plate",
                                   "object_states": [
                                          {
                                                 "state_id": 54,
                                                 "state_label": "empty"
                                          }
                                   ],
                                   "ingredients": [],
                                   "object_in_motion": "0",
                                   "has_portions": "False"
                            }
                     ],
                     "motion_node": {
                            "motion_id": "38",
                            "motion_label": "pick-and-place",
                            "start_time": "Assumed",
                            "end_time": "Assumed",
                            "weight_success": 0.0
                     },
                     "output_nodes": [
                            {
                                   "object_id": 329,
                                   "object_label": "matzo brei",
                                   "object_states": [
                                          {
                                                 "state_id": 29,
                                                 "state_label": "cooked"
                                          },
                                          {
                                                 "state_id": 189,
                                                 "state_label": "on plate"
                                          }
                                   ],
                                   "ingredients": [],
                                   "object_in_motion": "1",
                                   "has_portions": "False"
                            },
                            {
                                   "object_id": 415,
                                   "object_label": "plate",
                                   "object_states": [
                                          {
                                                 "state_id": 49,
                                                 "state_label": "dish on top"
                                          }
                                   ],
                                   "ingredients": [
                                          "matzo brei"
                                   ],
                                   "object_in_motion": "0",
                                   "has_portions": "False"
                            }
                     ]
              }
       ]
}