{
       "date_created": "07.10.2021",
       "motions": {
              "add": {
                     "id": 0
              },
              "attach": {
                     "id": 1
              },
              "bake": {
                     "id": 2
              },
              "beat": {
                     "id": 3
              },
              "blend": {
                     "id": 4
              },
              "boil": {
                     "id": 5
              },
              "break": {
                     "id": 6
              },
              "break apart": {
                     "id": 7
              },
              "brew": {
                     "id": 8
              },
              "broil": {
                     "id": 9
              },
              "brush": {
                     "id": 10
              },
              "chill": {
                     "id": 11
              },
              "chop": {
                     "id": 12
              },
              "close": {
                     "id": 13
              },
              "coat": {
                     "id": 14
              },
              "combine": {
                     "id": 15
              },
              "cook": {
                     "id": 16
              },
              "cook and flip": {
                     "id": 17
              },
              "cook and shake": {
                     "id": 18
              },
              "cook and spread": {
                     "id": 19
              },
              "cook and stir": {
                     "id": 20
              },
              "cool down": {
                     "id": 21
              },
              "core": {
                     "id": 22
              },
              "cover": {
                     "id": 23
              },
              "crack": {
                     "id": 24
              },
              "cut": {
                     "id": 25
              },
              "cut in half": {
                     "id": 26
              },
              "cut off ends": {
                     "id": 27
              },
              "cut off skin": {
                     "id": 28
              },
              "cut open": {
                     "id": 29
              },
              "cut with slits": {
                     "id": 30
              },
              "defrost": {
                     "id": 31
              },
              "detach": {
                     "id": 32
              },
              "dice": {
                     "id": 33
              },
              "dip": {
                     "id": 34
              },
              "divide": {
                     "id": 35
              },
              "drain": {
                     "id": 36
              },
              "drip": {
                     "id": 37
              },
              "ferment": {
                     "id": 38
              },
              "fill": {
                     "id": 39
              },
              "flip": {
                     "id": 40
              },
              "flip and place": {
                     "id": 41
              },
              "flip and stack": {
                     "id": 42
              },
              "fold": {
                     "id": 43
              },
              "fold and pinch": {
                     "id": 44
              },
              "freeze": {
                     "id": 45
              },
              "fry": {
                     "id": 46
              },
              "fry and flip": {
                     "id": 47
              },
              "grate": {
                     "id": 48
              },
              "grind": {
                     "id": 49
              },
              "grind and pour": {
                     "id": 50
              },
              "grind and sprinkle": {
                     "id": 51
              },
              "heat": {
                     "id": 52
              },
              "insert": {
                     "id": 53
              },
              "knead": {
                     "id": 54
              },
              "light": {
                     "id": 55
              },
              "make slits": {
                     "id": 56
              },
              "mash": {
                     "id": 57
              },
              "measure": {
                     "id": 58
              },
              "melt": {
                     "id": 59
              },
              "mince": {
                     "id": 60
              },
              "mix": {
                     "id": 61
              },
              "mix and mash": {
                     "id": 62
              },
              "mix and pour": {
                     "id": 63
              },
              "open": {
                     "id": 64
              },
              "peel": {
                     "id": 65
              },
              "pick-and-place": {
                     "id": 66
              },
              "place": {
                     "id": 67
              },
              "place and spread": {
                     "id": 68
              },
              "poke": {
                     "id": 69
              },
              "pour": {
                     "id": 70
              },
              "pour and blend": {
                     "id": 71
              },
              "pour and mix": {
                     "id": 72
              },
              "pour and scrape": {
                     "id": 73
              },
              "pour and spread": {
                     "id": 74
              },
              "pour and stir": {
                     "id": 75
              },
              "pour and strain": {
                     "id": 76
              },
              "preheat": {
                     "id": 77
              },
              "press": {
                     "id": 78
              },
              "press and cook": {
                     "id": 79
              },
              "pull apart": {
                     "id": 80
              },
              "put inside": {
                     "id": 81
              },
              "remove": {
                     "id": 82
              },
              "rim": {
                     "id": 83
              },
              "rinse": {
                     "id": 84
              },
              "rip open": {
                     "id": 85
              },
              "roll": {
                     "id": 86
              },
              "roll and shape": {
                     "id": 87
              },
              "rub": {
                     "id": 88
              },
              "scoop": {
                     "id": 89
              },
              "scoop and place": {
                     "id": 90
              },
              "scoop and pour": {
                     "id": 91
              },
              "scoop and spread": {
                     "id": 92
              },
              "scrape": {
                     "id": 93
              },
              "scrape and pour": {
                     "id": 94
              },
              "shake": {
                     "id": 95
              },
              "shape": {
                     "id": 96
              },
              "shave": {
                     "id": 97
              },
              "sift": {
                     "id": 98
              },
              "simmer": {
                     "id": 99
              },
              "sit": {
                     "id": 100
              },
              "skim": {
                     "id": 101
              },
              "slice": {
                     "id": 102
              },
              "soak": {
                     "id": 103
              },
              "spray": {
                     "id": 104
              },
              "spread": {
                     "id": 105
              },
              "sprinkle": {
                     "id": 106
              },
              "squeeze": {
                     "id": 107
              },
              "squeeze and scrape": {
                     "id": 108
              },
              "stir": {
                     "id": 109
              },
              "stir and fry": {
                     "id": 110
              },
              "stir and melt": {
                     "id": 111
              },
              "stir and strain": {
                     "id": 112
              },
              "take apart": {
                     "id": 113
              },
              "take out": {
                     "id": 114
              },
              "tear": {
                     "id": 115
              },
              "tear and cover": {
                     "id": 116
              },
              "tear and place": {
                     "id": 117
              },
              "tear apart": {
                     "id": 118
              },
              "throw away": {
                     "id": 119
              },
              "toast": {
                     "id": 120
              },
              "tuck ends": {
                     "id": 121
              },
              "turn off": {
                     "id": 122
              },
              "turn on": {
                     "id": 123
              },
              "uncover": {
                     "id": 124
              },
              "unwrap": {
                     "id": 125
              },
              "wash": {
                     "id": 126
              },
              "whisk": {
                     "id": 127
              },
              "wrap": {
                     "id": 128
              }
       },
       "objects": {
              "alfredo sauce": {
                     "id": 0
              },
              "aluminium foil": {
                     "id": 1,
                     "sense": 1
              },
              "anchovy": {
                     "id": 2,
                     "sense": 1
              },
              "apple": {
                     "id": 3,
                     "sense": 1
              },
              "apple cake": {
                     "id": 4
              },
              "apple pie": {
                     "id": 5,
                     "sense": 1
              },
              "arugula": {
                     "id": 6
              },
              "avocado": {
                     "id": 7,
                     "sense": 1
              },
              "bacon": {
                     "id": 8,
                     "sense": 1
              },
              "bag": {
                     "id": 9,
                     "sense": 1
              },
              "baking dish": {
                     "id": 10
              },
              "baking powder": {
                     "id": 11,
                     "sense": 1
              },
              "baking soda": {
                     "id": 12,
                     "sense": 1
              },
              "baking tray": {
                     "id": 13,
                     "sense": 1
              },
              "banana": {
                     "id": 14,
                     "sense": 2
              },
              "banana pudding": {
                     "id": 15
              },
              "barbecue sauce": {
                     "id": 16,
                     "sense": 1
              },
              "basil": {
                     "id": 17,
                     "sense": 3
              },
              "basil mixture": {
                     "id": 18
              },
              "batter": {
                     "id": 19,
                     "sense": 2
              },
              "bay leaf": {
                     "id": 20,
                     "sense": 1
              },
              "bean mix": {
                     "id": 21
              },
              "bean sprout": {
                     "id": 22,
                     "sense": 1
              },
              "beef": {
                     "id": 23,
                     "sense": 2
              },
              "beef patty": {
                     "id": 24,
                     "sense": 1
              },
              "beef stew mix": {
                     "id": 25
              },
              "beef stock": {
                     "id": 26,
                     "sense": 1
              },
              "beef stroganoff": {
                     "id": 27,
                     "sense": 1
              },
              "beefsteak": {
                     "id": 28,
                     "sense": 1
              },
              "biscuit": {
                     "id": 29,
                     "sense": 1
              },
              "biscuit dough": {
                     "id": 30
              },
              "black bean": {
                     "id": 31,
                     "sense": 1
              },
              "black olive": {
                     "id": 32,
                     "sense": 1
              },
              "black pepper": {
                     "id": 33,
                     "sense": 2
              },
              "blender": {
                     "id": 34,
                     "sense": 1
              },
              "blender cover": {
                     "id": 35
              },
              "blender cup": {
                     "id": 36
              },
              "blender jar": {
                     "id": 37
              },
              "blender lid": {
                     "id": 38
              },
              "blood orange": {
                     "id": 39
              },
              "blood orange salad": {
                     "id": 40
              },
              "bloody mary": {
                     "id": 41,
                     "sense": 2
              },
              "blueberry": {
                     "id": 42,
                     "sense": 2
              },
              "blueberry muffin": {
                     "id": 43
              },
              "bottle": {
                     "id": 44,
                     "sense": 1
              },
              "bowl": {
                     "id": 45,
                     "sense": 1
              },
              "box": {
                     "id": 46,
                     "sense": 1
              },
              "bread": {
                     "id": 47,
                     "sense": 1
              },
              "bread toast": {
                     "id": 48
              },
              "breadcrumb": {
                     "id": 49,
                     "sense": 1
              },
              "breakfast muffin": {
                     "id": 50
              },
              "broccoli": {
                     "id": 51,
                     "sense": 2
              },
              "broth": {
                     "id": 52,
                     "sense": 1
              },
              "brown sugar": {
                     "id": 53,
                     "sense": 1
              },
              "brownie": {
                     "id": 54,
                     "sense": 3
              },
              "brownie batter": {
                     "id": 55
              },
              "brush": {
                     "id": 56,
                     "sense": 2
              },
              "brussel sprout": {
                     "id": 57
              },
              "bucket": {
                     "id": 58,
                     "sense": 1
              },
              "buckeye candy": {
                     "id": 59
              },
              "bulgur": {
                     "id": 60,
                     "sense": 1
              },
              "butter": {
                     "id": 61,
                     "sense": 1
              },
              "buttermilk": {
                     "id": 62,
                     "sense": 1
              },
              "cabbage": {
                     "id": 63,
                     "sense": 1
              },
              "caesar salad": {
                     "id": 64,
                     "sense": 1
              },
              "cake batter": {
                     "id": 65
              },
              "cake mix": {
                     "id": 66,
                     "sense": 1
              },
              "cake server": {
                     "id": 67
              },
              "can": {
                     "id": 68,
                     "sense": 1
              },
              "can opener": {
                     "id": 69,
                     "sense": 1
              },
              "canola oil": {
                     "id": 70,
                     "sense": 1
              },
              "carrot": {
                     "id": 71,
                     "sense": 3
              },
              "carrot salad": {
                     "id": 72
              },
              "carton": {
                     "id": 73,
                     "sense": 2
              },
              "cayenne pepper": {
                     "id": 74,
                     "sense": 2
              },
              "celery": {
                     "id": 75,
                     "sense": 2
              },
              "celery salt": {
                     "id": 76,
                     "sense": 1
              },
              "cheddar": {
                     "id": 77,
                     "sense": 2
              },
              "cheese": {
                     "id": 78,
                     "sense": 1
              },
              "cheese pizza": {
                     "id": 79,
                     "sense": 1
              },
              "cheese sauce": {
                     "id": 80,
                     "sense": 1
              },
              "cheeseburger": {
                     "id": 81,
                     "sense": 1
              },
              "cherry tomato": {
                     "id": 82,
                     "sense": 2
              },
              "chicken": {
                     "id": 83,
                     "sense": 1
              },
              "chicken broth": {
                     "id": 84,
                     "sense": 1
              },
              "chicken stock": {
                     "id": 85,
                     "sense": 1
              },
              "chili pepper": {
                     "id": 86,
                     "sense": 2
              },
              "chili powder": {
                     "id": 87,
                     "sense": 1
              },
              "chili sauce": {
                     "id": 88,
                     "sense": 1
              },
              "chinese-style fried rice": {
                     "id": 89
              },
              "chipotle": {
                     "id": 90,
                     "sense": 1
              },
              "chipotle mix": {
                     "id": 91
              },
              "chipotle sauce": {
                     "id": 92
              },
              "chipotle-avocado sandwich": {
                     "id": 93
              },
              "chive": {
                     "id": 94
              },
              "chocolate": {
                     "id": 95,
                     "sense": 1
              },
              "chocolate cake": {
                     "id": 96,
                     "sense": 1
              },
              "chocolate chip": {
                     "id": 97
              },
              "chocolate chip cookie": {
                     "id": 98,
                     "sense": 1
              },
              "chocolate chip muffin": {
                     "id": 99
              },
              "chocolate mixture": {
                     "id": 100
              },
              "chocolate sandwich": {
                     "id": 101
              },
              "chopstick": {
                     "id": 102,
                     "sense": 1
              },
              "cilantro": {
                     "id": 103,
                     "sense": 2
              },
              "cilantro-lime rice": {
                     "id": 104
              },
              "cinnamon": {
                     "id": 105,
                     "sense": 3
              },
              "clove": {
                     "id": 106,
                     "sense": 3
              },
              "club sandwich": {
                     "id": 107,
                     "sense": 1
              },
              "club soda": {
                     "id": 108,
                     "sense": 1
              },
              "cocktail": {
                     "id": 109,
                     "sense": 1
              },
              "cocoa powder": {
                     "id": 110,
                     "sense": 1
              },
              "coconut milk": {
                     "id": 111,
                     "sense": 1
              },
              "coconut milk powder": {
                     "id": 112
              },
              "coffee": {
                     "id": 113,
                     "sense": 1
              },
              "cognac": {
                     "id": 114,
                     "sense": 1
              },
              "colander": {
                     "id": 115,
                     "sense": 1
              },
              "coleslaw": {
                     "id": 116,
                     "sense": 1
              },
              "condensed milk": {
                     "id": 117,
                     "sense": 1
              },
              "container": {
                     "id": 118,
                     "sense": 1
              },
              "cookie dough": {
                     "id": 119
              },
              "cooking pan": {
                     "id": 120,
                     "sense": 1
              },
              "cooking spray": {
                     "id": 121
              },
              "coriander": {
                     "id": 122,
                     "sense": 2
              },
              "corn": {
                     "id": 123,
                     "sense": 3
              },
              "corn cob": {
                     "id": 124
              },
              "corn kernels": {
                     "id": 125
              },
              "corn mixture": {
                     "id": 126
              },
              "corn starch": {
                     "id": 127
              },
              "corn syrup": {
                     "id": 128,
                     "sense": 1
              },
              "cornflour": {
                     "id": 129,
                     "sense": 1
              },
              "cornmeal": {
                     "id": 130,
                     "sense": 1
              },
              "cranberry": {
                     "id": 131,
                     "sense": 2
              },
              "cranberry-walnut pancake": {
                     "id": 132
              },
              "crayfish mixture": {
                     "id": 133
              },
              "cream": {
                     "id": 134,
                     "sense": 2
              },
              "cream cheese": {
                     "id": 135,
                     "sense": 1
              },
              "creamed corn": {
                     "id": 136
              },
              "croquette": {
                     "id": 137,
                     "sense": 1
              },
              "croquette mixture": {
                     "id": 138
              },
              "crouton": {
                     "id": 139,
                     "sense": 1
              },
              "cucumber": {
                     "id": 140,
                     "sense": 2
              },
              "cup": {
                     "id": 141,
                     "sense": 6
              },
              "curry paste": {
                     "id": 142
              },
              "curry powder": {
                     "id": 143,
                     "sense": 1
              },
              "curry sauce": {
                     "id": 144,
                     "sense": 1
              },
              "cutter": {
                     "id": 145,
                     "sense": 4
              },
              "cutting board": {
                     "id": 146,
                     "sense": 1
              },
              "dalgona coffee": {
                     "id": 147
              },
              "dark chocolate": {
                     "id": 148,
                     "sense": 1
              },
              "dashi": {
                     "id": 149
              },
              "dill": {
                     "id": 150,
                     "sense": 2
              },
              "double boiler": {
                     "id": 151,
                     "sense": 1
              },
              "dough": {
                     "id": 152,
                     "sense": 1
              },
              "dough mixture": {
                     "id": 153
              },
              "drinking glass": {
                     "id": 154,
                     "sense": 1
              },
              "dropper": {
                     "id": 155,
                     "sense": 1
              },
              "dumpling": {
                     "id": 156,
                     "sense": 1
              },
              "dumpling wrapper": {
                     "id": 157
              },
              "edamame-mozzarella salad": {
                     "id": 158
              },
              "egg": {
                     "id": 159,
                     "sense": 2
              },
              "egg beater": {
                     "id": 160
              },
              "egg mixture": {
                     "id": 161
              },
              "egg noodle": {
                     "id": 162,
                     "sense": 1
              },
              "egg shell": {
                     "id": 163
              },
              "egg wash": {
                     "id": 164
              },
              "egg white": {
                     "id": 165,
                     "sense": 1
              },
              "egg white and yolk": {
                     "id": 166
              },
              "egg yolk": {
                     "id": 167,
                     "sense": 1
              },
              "eggs and bacon pizza": {
                     "id": 168
              },
              "enchilada": {
                     "id": 169,
                     "sense": 1
              },
              "enchilada sauce": {
                     "id": 170
              },
              "escarole": {
                     "id": 171,
                     "sense": 1
              },
              "faucet": {
                     "id": 172,
                     "sense": 1
              },
              "feta cheese": {
                     "id": 173
              },
              "filling": {
                     "id": 174,
                     "sense": 3
              },
              "fish sauce": {
                     "id": 175
              },
              "flaxseed": {
                     "id": 176,
                     "sense": 1
              },
              "flour": {
                     "id": 177,
                     "sense": 1
              },
              "flour glue": {
                     "id": 178
              },
              "flour mixture": {
                     "id": 179
              },
              "food processor": {
                     "id": 180,
                     "sense": 1
              },
              "food processor bowl": {
                     "id": 181
              },
              "food processor lid": {
                     "id": 182
              },
              "fork": {
                     "id": 183,
                     "sense": 1
              },
              "french toast": {
                     "id": 184,
                     "sense": 1
              },
              "fridge": {
                     "id": 185,
                     "sense": 1
              },
              "fried rice": {
                     "id": 186,
                     "sense": 1
              },
              "fries": {
                     "id": 187,
                     "sense": 1
              },
              "frittata": {
                     "id": 188,
                     "sense": 1
              },
              "frosting": {
                     "id": 189,
                     "sense": 1
              },
              "frying pan": {
                     "id": 190,
                     "sense": 1
              },
              "fudge": {
                     "id": 191,
                     "sense": 1
              },
              "fudge mixture": {
                     "id": 192
              },
              "galangal": {
                     "id": 193
              },
              "garlic": {
                     "id": 194,
                     "sense": 2
              },
              "garlic bread": {
                     "id": 195,
                     "sense": 1
              },
              "garlic butter": {
                     "id": 196,
                     "sense": 1
              },
              "garlic powder": {
                     "id": 197
              },
              "garlic press": {
                     "id": 198,
                     "sense": 1
              },
              "garlic rice": {
                     "id": 199
              },
              "garlic salt": {
                     "id": 200,
                     "sense": 1
              },
              "garlic-parmesan chicken": {
                     "id": 201
              },
              "ginger": {
                     "id": 202,
                     "sense": 2
              },
              "glass tray": {
                     "id": 203
              },
              "goat cheese": {
                     "id": 204,
                     "sense": 1
              },
              "gouda": {
                     "id": 205,
                     "sense": 1
              },
              "grapeseed oil": {
                     "id": 206
              },
              "grater": {
                     "id": 207,
                     "sense": 1
              },
              "greek salad": {
                     "id": 208
              },
              "greek salad dressing": {
                     "id": 209
              },
              "green bean": {
                     "id": 210,
                     "sense": 1
              },
              "green chilli": {
                     "id": 211
              },
              "green leaf": {
                     "id": 212
              },
              "green olive": {
                     "id": 213,
                     "sense": 1
              },
              "green onion": {
                     "id": 214,
                     "sense": 1
              },
              "green pea": {
                     "id": 215,
                     "sense": 1
              },
              "green pepper": {
                     "id": 216,
                     "sense": 1
              },
              "griddle": {
                     "id": 217,
                     "sense": 1
              },
              "grill": {
                     "id": 218,
                     "sense": 1
              },
              "grill spatula": {
                     "id": 219
              },
              "grilled cheese sandwich": {
                     "id": 220
              },
              "grilled shrimp": {
                     "id": 221
              },
              "grinder": {
                     "id": 222,
                     "sense": 1
              },
              "ground beef": {
                     "id": 223,
                     "sense": 1
              },
              "ground pork": {
                     "id": 224
              },
              "gruyere": {
                     "id": 225,
                     "sense": 1
              },
              "gyoza": {
                     "id": 226
              },
              "gyoza filling": {
                     "id": 227
              },
              "half-and-half": {
                     "id": 228,
                     "sense": 1
              },
              "ham": {
                     "id": 229,
                     "sense": 1
              },
              "hamburger": {
                     "id": 230,
                     "sense": 1
              },
              "hamburger bun": {
                     "id": 231,
                     "sense": 1
              },
              "hand": {
                     "id": 232,
                     "sense": 8
              },
              "hand mixer": {
                     "id": 233
              },
              "hashbrown": {
                     "id": 234
              },
              "hashbrown mix": {
                     "id": 235
              },
              "heavy cream": {
                     "id": 236,
                     "sense": 1
              },
              "highball glass": {
                     "id": 237,
                     "sense": 1
              },
              "hot sauce": {
                     "id": 238,
                     "sense": 1
              },
              "ice": {
                     "id": 239,
                     "sense": 4
              },
              "instant coffee": {
                     "id": 240,
                     "sense": 1
              },
              "italian sausage": {
                     "id": 241
              },
              "italian seasoning": {
                     "id": 242
              },
              "jalapeno": {
                     "id": 243,
                     "sense": 2
              },
              "jar": {
                     "id": 244,
                     "sense": 1
              },
              "jelly": {
                     "id": 245,
                     "sense": 1
              },
              "jigger": {
                     "id": 246,
                     "sense": 1
              },
              "jug": {
                     "id": 247,
                     "sense": 1
              },
              "juice": {
                     "id": 248,
                     "sense": 1
              },
              "kettle": {
                     "id": 249,
                     "sense": 1
              },
              "kidney bean": {
                     "id": 250,
                     "sense": 2
              },
              "knife": {
                     "id": 251,
                     "sense": 1
              },
              "kofta": {
                     "id": 252
              },
              "kofta mix": {
                     "id": 253
              },
              "ladle": {
                     "id": 254,
                     "sense": 1
              },
              "lemon": {
                     "id": 255,
                     "sense": 1
              },
              "lemon extract": {
                     "id": 256,
                     "sense": 1
              },
              "lemon grass": {
                     "id": 257,
                     "sense": 1
              },
              "lemon juice": {
                     "id": 258,
                     "sense": 1
              },
              "lemon zest": {
                     "id": 259,
                     "sense": 1
              },
              "lemonade": {
                     "id": 260,
                     "sense": 1
              },
              "lentil": {
                     "id": 261,
                     "sense": 1
              },
              "lentil kofta": {
                     "id": 262
              },
              "lentil mix": {
                     "id": 263
              },
              "lettuce": {
                     "id": 264,
                     "sense": 3
              },
              "lime": {
                     "id": 265,
                     "sense": 6
              },
              "lime juice": {
                     "id": 266,
                     "sense": 1
              },
              "lime zest": {
                     "id": 267
              },
              "linguine": {
                     "id": 268,
                     "sense": 1
              },
              "macaroni": {
                     "id": 269,
                     "sense": 2
              },
              "macaroni and cheese": {
                     "id": 270,
                     "sense": 1
              },
              "mandoline": {
                     "id": 271
              },
              "mango": {
                     "id": 272,
                     "sense": 2
              },
              "maple syrup": {
                     "id": 273,
                     "sense": 1
              },
              "marinara": {
                     "id": 274,
                     "sense": 1
              },
              "marjoram": {
                     "id": 275,
                     "sense": 2
              },
              "masher": {
                     "id": 276,
                     "sense": 2
              },
              "massaman curry": {
                     "id": 277
              },
              "matzo": {
                     "id": 278,
                     "sense": 1
              },
              "matzo brei": {
                     "id": 279
              },
              "matzo mixture": {
                     "id": 280
              },
              "mayonnaise": {
                     "id": 281,
                     "sense": 1
              },
              "measuring cup": {
                     "id": 282,
                     "sense": 1
              },
              "meat mix": {
                     "id": 283
              },
              "microwave": {
                     "id": 284,
                     "sense": 2
              },
              "milk": {
                     "id": 285,
                     "sense": 1
              },
              "mint": {
                     "id": 286,
                     "sense": 4
              },
              "miso": {
                     "id": 287,
                     "sense": 1
              },
              "miso soup": {
                     "id": 288
              },
              "mixer": {
                     "id": 289,
                     "sense": 2
              },
              "mixing bowl": {
                     "id": 290,
                     "sense": 1
              },
              "mixture": {
                     "id": 291,
                     "sense": 2
              },
              "mojito": {
                     "id": 292
              },
              "mortar": {
                     "id": 293,
                     "sense": 2
              },
              "mozzarella": {
                     "id": 294,
                     "sense": 1
              },
              "muddler": {
                     "id": 295
              },
              "muffin": {
                     "id": 296,
                     "sense": 1
              },
              "muffin batter": {
                     "id": 297
              },
              "muffin cup": {
                     "id": 298
              },
              "muffin pan": {
                     "id": 299
              },
              "mug": {
                     "id": 300,
                     "sense": 4
              },
              "mushroom": {
                     "id": 301,
                     "sense": 5
              },
              "mushroom soup": {
                     "id": 302
              },
              "mustard": {
                     "id": 303,
                     "sense": 2
              },
              "napkin": {
                     "id": 304,
                     "sense": 1
              },
              "noodle": {
                     "id": 305,
                     "sense": 1
              },
              "nutmeg": {
                     "id": 306,
                     "sense": 2
              },
              "oats": {
                     "id": 307,
                     "sense": 2
              },
              "oil": {
                     "id": 308,
                     "sense": 4
              },
              "oil mixture": {
                     "id": 309
              },
              "olive oil": {
                     "id": 310,
                     "sense": 1
              },
              "omelette": {
                     "id": 311,
                     "sense": 1
              },
              "onigiri": {
                     "id": 312
              },
              "onion": {
                     "id": 313,
                     "sense": 3
              },
              "onion powder": {
                     "id": 314
              },
              "onion ring": {
                     "id": 315
              },
              "orange": {
                     "id": 316,
                     "sense": 1
              },
              "orange juice": {
                     "id": 317,
                     "sense": 1
              },
              "oregano": {
                     "id": 318,
                     "sense": 2
              },
              "oreo cookie": {
                     "id": 319,
                     "sense": 1
              },
              "oven": {
                     "id": 320,
                     "sense": 1
              },
              "oyster sauce": {
                     "id": 321
              },
              "packet": {
                     "id": 322,
                     "sense": 3
              },
              "pan cover": {
                     "id": 323
              },
              "pan lid": {
                     "id": 324
              },
              "pancake": {
                     "id": 325,
                     "sense": 1
              },
              "pancake batter": {
                     "id": 326,
                     "sense": 1
              },
              "pancake mix": {
                     "id": 327
              },
              "paprika": {
                     "id": 328,
                     "sense": 2
              },
              "parchment paper": {
                     "id": 329
              },
              "parmesan": {
                     "id": 330,
                     "sense": 1
              },
              "parsley": {
                     "id": 331,
                     "sense": 2
              },
              "pasta": {
                     "id": 332,
                     "sense": 1
              },
              "pasta alfredo": {
                     "id": 333
              },
              "pasta mix": {
                     "id": 334
              },
              "patty": {
                     "id": 335,
                     "sense": 1
              },
              "peanut": {
                     "id": 336,
                     "sense": 4
              },
              "peanut brittle": {
                     "id": 337,
                     "sense": 1
              },
              "peanut butter": {
                     "id": 338,
                     "sense": 1
              },
              "peanut butter mixture": {
                     "id": 339
              },
              "peanut mixture": {
                     "id": 340
              },
              "peeler": {
                     "id": 341,
                     "sense": 3
              },
              "penne": {
                     "id": 342,
                     "sense": 1
              },
              "pepper": {
                     "id": 343,
                     "sense": 3
              },
              "pepper mill": {
                     "id": 344,
                     "sense": 1
              },
              "pestle": {
                     "id": 345,
                     "sense": 1
              },
              "pesto": {
                     "id": 346,
                     "sense": 1
              },
              "pesto linguine": {
                     "id": 347
              },
              "pickle": {
                     "id": 348,
                     "sense": 1
              },
              "pigs in a blanket": {
                     "id": 349
              },
              "pine nut": {
                     "id": 350,
                     "sense": 1
              },
              "pineapple": {
                     "id": 351,
                     "sense": 2
              },
              "pitcher": {
                     "id": 352,
                     "sense": 2
              },
              "pizza": {
                     "id": 353,
                     "sense": 1
              },
              "pizza cutter": {
                     "id": 354
              },
              "pizza dough": {
                     "id": 355
              },
              "pizza pan": {
                     "id": 356
              },
              "plastic bag": {
                     "id": 357,
                     "sense": 1
              },
              "plate": {
                     "id": 358,
                     "sense": 7
              },
              "porkchop": {
                     "id": 359,
                     "sense": 1
              },
              "pot": {
                     "id": 360,
                     "sense": 1
              },
              "pot lid": {
                     "id": 361
              },
              "potato": {
                     "id": 362,
                     "sense": 1
              },
              "potato salad": {
                     "id": 363,
                     "sense": 1
              },
              "potato soup": {
                     "id": 364
              },
              "powdered sugar": {
                     "id": 365,
                     "sense": 1
              },
              "protein shake": {
                     "id": 366
              },
              "pudding": {
                     "id": 367,
                     "sense": 1
              },
              "pudding mix": {
                     "id": 368
              },
              "quesadilla": {
                     "id": 369,
                     "sense": 1
              },
              "radish": {
                     "id": 370,
                     "sense": 1
              },
              "raisin": {
                     "id": 371,
                     "sense": 1
              },
              "ramen": {
                     "id": 372
              },
              "refrigerator": {
                     "id": 373,
                     "sense": 1
              },
              "relish": {
                     "id": 374,
                     "sense": 2
              },
              "rib": {
                     "id": 375,
                     "sense": 3
              },
              "ribs": {
                     "id": 376,
                     "sense": 3
              },
              "rice": {
                     "id": 377,
                     "sense": 1
              },
              "rice ball": {
                     "id": 378
              },
              "rice beer": {
                     "id": 379,
                     "sense": 1
              },
              "rice cooker": {
                     "id": 380
              },
              "ricotta": {
                     "id": 381,
                     "sense": 1
              },
              "rolling pin": {
                     "id": 382,
                     "sense": 1
              },
              "rosemary": {
                     "id": 383,
                     "sense": 2
              },
              "roux": {
                     "id": 384,
                     "sense": 1
              },
              "salad": {
                     "id": 385,
                     "sense": 1
              },
              "salad bowl": {
                     "id": 386,
                     "sense": 1
              },
              "salad dressing": {
                     "id": 387,
                     "sense": 1
              },
              "salad greens": {
                     "id": 388,
                     "sense": 1
              },
              "salmon": {
                     "id": 389,
                     "sense": 3
              },
              "salt": {
                     "id": 390,
                     "sense": 2
              },
              "saltwater": {
                     "id": 391,
                     "sense": 1
              },
              "sandwich": {
                     "id": 392,
                     "sense": 1
              },
              "saran wrap": {
                     "id": 393,
                     "sense": 1
              },
              "sauce": {
                     "id": 394,
                     "sense": 1
              },
              "saucepan": {
                     "id": 395,
                     "sense": 1
              },
              "sausage": {
                     "id": 396,
                     "sense": 1
              },
              "savory filling": {
                     "id": 397
              },
              "savory pastry": {
                     "id": 398
              },
              "scale": {
                     "id": 399,
                     "sense": 7
              },
              "scallion": {
                     "id": 400,
                     "sense": 2
              },
              "scissors": {
                     "id": 401,
                     "sense": 1
              },
              "scoop": {
                     "id": 402,
                     "sense": 4
              },
              "scrambled eggs": {
                     "id": 403,
                     "sense": 1
              },
              "scraper": {
                     "id": 404,
                     "sense": 1
              },
              "sea salt": {
                     "id": 405
              },
              "seaweed": {
                     "id": 406
              },
              "sesame oil": {
                     "id": 407,
                     "sense": 1
              },
              "sesame seed": {
                     "id": 408,
                     "sense": 1
              },
              "shaker": {
                     "id": 409,
                     "sense": 3
              },
              "shallot": {
                     "id": 410,
                     "sense": 3
              },
              "shot glass": {
                     "id": 411,
                     "sense": 1
              },
              "shrimp": {
                     "id": 412,
                     "sense": 2
              },
              "shrimp mango salad": {
                     "id": 413
              },
              "sink": {
                     "id": 414,
                     "sense": 1
              },
              "skillet": {
                     "id": 415,
                     "sense": 1
              },
              "skimmer": {
                     "id": 416,
                     "sense": 2
              },
              "smoothie": {
                     "id": 417,
                     "sense": 2
              },
              "soup": {
                     "id": 418,
                     "sense": 1
              },
              "soup broth": {
                     "id": 419
              },
              "soup mix": {
                     "id": 420
              },
              "sour cream": {
                     "id": 421,
                     "sense": 1
              },
              "soy sauce": {
                     "id": 422,
                     "sense": 1
              },
              "soybean": {
                     "id": 423,
                     "sense": 3
              },
              "spatula": {
                     "id": 424,
                     "sense": 1
              },
              "spice": {
                     "id": 425,
                     "sense": 2
              },
              "spice mixture": {
                     "id": 426
              },
              "spoon": {
                     "id": 427,
                     "sense": 1
              },
              "spray can": {
                     "id": 428,
                     "sense": 1
              },
              "spring onion": {
                     "id": 429,
                     "sense": 1
              },
              "spring roll": {
                     "id": 430,
                     "sense": 1
              },
              "spring roll mix": {
                     "id": 431
              },
              "spring roll sheet": {
                     "id": 432
              },
              "squeezer": {
                     "id": 433,
                     "sense": 1
              },
              "stir-fried rice": {
                     "id": 434
              },
              "stove": {
                     "id": 435,
                     "sense": 1
              },
              "strainer": {
                     "id": 436,
                     "sense": 1
              },
              "strawberry": {
                     "id": 437,
                     "sense": 1
              },
              "sugar": {
                     "id": 438,
                     "sense": 1
              },
              "sugar mixture": {
                     "id": 439
              },
              "sugar syrup": {
                     "id": 440,
                     "sense": 1
              },
              "surface": {
                     "id": 441,
                     "sense": 1
              },
              "sweet pepper": {
                     "id": 442,
                     "sense": 2
              },
              "sweet potato": {
                     "id": 443,
                     "sense": 2
              },
              "sweet potato fries": {
                     "id": 444
              },
              "sweetener": {
                     "id": 445,
                     "sense": 1
              },
              "tabasco sauce": {
                     "id": 446,
                     "sense": 1
              },
              "table": {
                     "id": 447,
                     "sense": 6
              },
              "table spoon": {
                     "id": 448
              },
              "tablespoon": {
                     "id": 449,
                     "sense": 2
              },
              "taco seasoning": {
                     "id": 450
              },
              "tarragon": {
                     "id": 451,
                     "sense": 2
              },
              "tea": {
                     "id": 452,
                     "sense": 1
              },
              "tea bag": {
                     "id": 453,
                     "sense": 1
              },
              "teaspoon": {
                     "id": 454,
                     "sense": 2
              },
              "thyme": {
                     "id": 455,
                     "sense": 2
              },
              "tin can": {
                     "id": 456,
                     "sense": 1
              },
              "toaster": {
                     "id": 457,
                     "sense": 2
              },
              "tofu": {
                     "id": 458,
                     "sense": 1
              },
              "tomato": {
                     "id": 459,
                     "sense": 1
              },
              "tomato juice": {
                     "id": 460,
                     "sense": 1
              },
              "tomato paste": {
                     "id": 461,
                     "sense": 1
              },
              "tomato soup": {
                     "id": 462
              },
              "tongs": {
                     "id": 463,
                     "sense": 1
              },
              "toothpick": {
                     "id": 464,
                     "sense": 1
              },
              "tortilla": {
                     "id": 465,
                     "sense": 1
              },
              "trash bin": {
                     "id": 466,
                     "sense": 1
              },
              "tuna": {
                     "id": 467,
                     "sense": 2
              },
              "tuna paste": {
                     "id": 468
              },
              "tuna patty": {
                     "id": 469
              },
              "tuna sandwich": {
                     "id": 470
              },
              "tuna spread": {
                     "id": 471
              },
              "turkey": {
                     "id": 472,
                     "sense": 4
              },
              "turmeric powder": {
                     "id": 473
              },
              "turner": {
                     "id": 474,
                     "sense": 8
              },
              "vanilla extract": {
                     "id": 475,
                     "sense": 1
              },
              "vanilla wafer": {
                     "id": 476
              },
              "vegetable mix": {
                     "id": 477
              },
              "vegetable oil": {
                     "id": 478,
                     "sense": 1
              },
              "vegetarian sausage": {
                     "id": 479
              },
              "vinaigrette": {
                     "id": 480,
                     "sense": 1
              },
              "vinegar": {
                     "id": 481,
                     "sense": 1
              },
              "vodka": {
                     "id": 482,
                     "sense": 1
              },
              "walnut": {
                     "id": 483,
                     "sense": 1
              },
              "water": {
                     "id": 484,
                     "sense": 6
              },
              "watermelon": {
                     "id": 485,
                     "sense": 2
              },
              "watermelon lemonade": {
                     "id": 486
              },
              "wheat flour": {
                     "id": 487,
                     "sense": 1
              },
              "whey powder": {
                     "id": 488
              },
              "whipped coffee": {
                     "id": 489
              },
              "whipped cream": {
                     "id": 490,
                     "sense": 1
              },
              "whisk": {
                     "id": 491,
                     "sense": 1
              },
              "white chocolate chip": {
                     "id": 492
              },
              "white pepper": {
                     "id": 493,
                     "sense": 2
              },
              "white rice": {
                     "id": 494,
                     "sense": 1
              },
              "white sauce": {
                     "id": 495,
                     "sense": 1
              },
              "white wine": {
                     "id": 496,
                     "sense": 1
              },
              "wire rack": {
                     "id": 497
              },
              "worcestershire sauce": {
                     "id": 498,
                     "sense": 1
              },
              "wrap": {
                     "id": 499,
                     "sense": 2
              },
              "wrapping paper": {
                     "id": 500,
                     "sense": 1
              },
              "yeast": {
                     "id": 501,
                     "sense": 1
              },
              "yogurt": {
                     "id": 502,
                     "sense": 1
              },
              "zucchini": {
                     "id": 503,
                     "sense": 2
              }
       },
       "states": {
              "attached": {
                     "id": 0
              },
              "attached to": {
                     "id": 1
              },
              "baked": {
                     "id": 2
              },
              "bar": {
                     "id": 3
              },
              "barbecued": {
                     "id": 4
              },
              "bean": {
                     "id": 5
              },
              "beaten": {
                     "id": 6
              },
              "below": {
                     "id": 7
              },
              "blended": {
                     "id": 8
              },
              "block": {
                     "id": 9
              },
              "boiled": {
                     "id": 10
              },
              "boiling": {
                     "id": 11
              },
              "broken": {
                     "id": 12
              },
              "bulb": {
                     "id": 13
              },
              "bun": {
                     "id": 14
              },
              "buttered": {
                     "id": 15
              },
              "chilled": {
                     "id": 16
              },
              "chopped": {
                     "id": 17
              },
              "choppped": {
                     "id": 18
              },
              "chunk": {
                     "id": 19
              },
              "closed": {
                     "id": 20
              },
              "clove": {
                     "id": 21
              },
              "coated": {
                     "id": 22
              },
              "contain": {
                     "id": 23
              },
              "contains": {
                     "id": 24
              },
              "cooked": {
                     "id": 25
              },
              "cored": {
                     "id": 26
              },
              "covered": {
                     "id": 27
              },
              "covering": {
                     "id": 28
              },
              "cracked": {
                     "id": 29
              },
              "creamy": {
                     "id": 30
              },
              "crumbled": {
                     "id": 31
              },
              "crumbs": {
                     "id": 32
              },
              "crushed": {
                     "id": 33
              },
              "cube": {
                     "id": 34
              },
              "cubed": {
                     "id": 35
              },
              "cut": {
                     "id": 36
              },
              "cut in pieces": {
                     "id": 37
              },
              "cut with slits": {
                     "id": 38
              },
              "defrosted": {
                     "id": 39
              },
              "derooted": {
                     "id": 40
              },
              "deshelled": {
                     "id": 41
              },
              "destemmed": {
                     "id": 42
              },
              "diced": {
                     "id": 43
              },
              "divided": {
                     "id": 44
              },
              "dried": {
                     "id": 45
              },
              "dry": {
                     "id": 46
              },
              "empty": {
                     "id": 47
              },
              "empty (ready)": {
                     "id": 48
              },
              "ends removed": {
                     "id": 49
              },
              "flaked": {
                     "id": 50
              },
              "flakes": {
                     "id": 51
              },
              "flattened": {
                     "id": 52
              },
              "flipped": {
                     "id": 53
              },
              "floret": {
                     "id": 54
              },
              "floured": {
                     "id": 55
              },
              "fluffed": {
                     "id": 56
              },
              "folded": {
                     "id": 57
              },
              "fried": {
                     "id": 58
              },
              "from": {
                     "id": 59
              },
              "from faucet": {
                     "id": 60
              },
              "frozen": {
                     "id": 61
              },
              "garnished": {
                     "id": 62
              },
              "grain": {
                     "id": 63
              },
              "granulated": {
                     "id": 64
              },
              "grated": {
                     "id": 65
              },
              "greased": {
                     "id": 66
              },
              "ground": {
                     "id": 67
              },
              "halved": {
                     "id": 68
              },
              "hardboiled": {
                     "id": 69
              },
              "heated": {
                     "id": 70
              },
              "holed": {
                     "id": 71
              },
              "hot": {
                     "id": 72
              },
              "in": {
                     "id": 73
              },
              "incomplete": {
                     "id": 74
              },
              "juice": {
                     "id": 75
              },
              "juiced": {
                     "id": 76
              },
              "julienned": {
                     "id": 77
              },
              "kneaded": {
                     "id": 78
              },
              "leaf": {
                     "id": 79
              },
              "leaves": {
                     "id": 80
              },
              "leveled": {
                     "id": 81
              },
              "liquid": {
                     "id": 82
              },
              "loaf": {
                     "id": 83
              },
              "lumpy": {
                     "id": 84
              },
              "mashed": {
                     "id": 85
              },
              "melted": {
                     "id": 86
              },
              "minced": {
                     "id": 87
              },
              "mixed": {
                     "id": 88
              },
              "mixture": {
                     "id": 89
              },
              "no attachments": {
                     "id": 90
              },
              "off": {
                     "id": 91
              },
              "off (ready)": {
                     "id": 92
              },
              "oiled": {
                     "id": 93
              },
              "on": {
                     "id": 94
              },
              "open": {
                     "id": 95
              },
              "opened": {
                     "id": 96
              },
              "over": {
                     "id": 97
              },
              "over sink": {
                     "id": 98
              },
              "partly cooked": {
                     "id": 99
              },
              "partly opened": {
                     "id": 100
              },
              "partly soaked": {
                     "id": 101
              },
              "partly toasted": {
                     "id": 102
              },
              "paste": {
                     "id": 103
              },
              "peeled": {
                     "id": 104
              },
              "peppercorn": {
                     "id": 105
              },
              "pieces": {
                     "id": 106
              },
              "plain": {
                     "id": 107
              },
              "poked": {
                     "id": 108
              },
              "portioned": {
                     "id": 109
              },
              "powder": {
                     "id": 110
              },
              "preheated": {
                     "id": 111
              },
              "pressed": {
                     "id": 112
              },
              "quartered": {
                     "id": 113
              },
              "raw": {
                     "id": 114
              },
              "ready": {
                     "id": 115
              },
              "remains": {
                     "id": 116
              },
              "ring shaped": {
                     "id": 117
              },
              "rolled": {
                     "id": 118
              },
              "salted": {
                     "id": 119
              },
              "sauce": {
                     "id": 120
              },
              "sauted": {
                     "id": 121
              },
              "sauteed": {
                     "id": 122
              },
              "sealed": {
                     "id": 123
              },
              "seasoned": {
                     "id": 124
              },
              "seed": {
                     "id": 125
              },
              "seed removed": {
                     "id": 126
              },
              "seeds": {
                     "id": 127
              },
              "separated": {
                     "id": 128
              },
              "shaped": {
                     "id": 129
              },
              "shaved": {
                     "id": 130
              },
              "sheet": {
                     "id": 131
              },
              "shelled": {
                     "id": 132
              },
              "shredded": {
                     "id": 133
              },
              "sifted": {
                     "id": 134
              },
              "skin": {
                     "id": 135
              },
              "skinned": {
                     "id": 136
              },
              "sliced": {
                     "id": 137
              },
              "slit": {
                     "id": 138
              },
              "soaked": {
                     "id": 139
              },
              "softened": {
                     "id": 140
              },
              "spread": {
                     "id": 141
              },
              "spread out": {
                     "id": 142
              },
              "sprig": {
                     "id": 143
              },
              "squeezed": {
                     "id": 144
              },
              "steamed": {
                     "id": 145
              },
              "stem": {
                     "id": 146
              },
              "stem removed": {
                     "id": 147
              },
              "stick": {
                     "id": 148
              },
              "stripped": {
                     "id": 149
              },
              "stuffed": {
                     "id": 150
              },
              "sundried": {
                     "id": 151
              },
              "thick liquid": {
                     "id": 152
              },
              "toasted": {
                     "id": 153
              },
              "uncook": {
                     "id": 154
              },
              "uncooked": {
                     "id": 155
              },
              "uncracked": {
                     "id": 156
              },
              "under": {
                     "id": 157
              },
              "under [cooking pan]": {
                     "id": 158
              },
              "unmelted": {
                     "id": 159
              },
              "unpeeled": {
                     "id": 160
              },
              "warm": {
                     "id": 161
              },
              "washed": {
                     "id": 162
              },
              "wedge": {
                     "id": 163
              },
              "wet": {
                     "id": 164
              },
              "whipped": {
                     "id": 165
              },
              "white": {
                     "id": 166
              },
              "whole": {
                     "id": 167
              },
              "with": {
                     "id": 168
              },
              "wrapped": {
                     "id": 169
              },
              "zested": {
                     "id": 170
              }
       }
}